<?xml version="1.0" encoding="utf-8" standalone="no"?>
<!DOCTYPE svg PUBLIC "-//W3C//DTD SVG 1.1//EN"
  "http://www.w3.org/Graphics/SVG/1.1/DTD/svg11.dtd">
<!-- Created with matplotlib (https://matplotlib.org/) -->
<svg height="345.6pt" version="1.1" viewBox="0 0 460.8 345.6" width="460.8pt" xmlns="http://www.w3.org/2000/svg" xmlns:xlink="http://www.w3.org/1999/xlink">
 <defs>
  <style type="text/css">
*{stroke-linecap:butt;stroke-linejoin:round;}
  </style>
 </defs>
 <g id="figure_1">
  <g id="patch_1">
   <path d="M 0 345.6 
L 460.8 345.6 
L 460.8 0 
L 0 0 
z
" style="fill:#ffffff;"/>
  </g>
  <g id="axes_1">
   <g id="patch_2">
    <path d="M 57.6 307.584 
L 414.72 307.584 
L 414.72 41.472 
L 57.6 41.472 
z
" style="fill:#ffffff;"/>
   </g>
   <g id="PolyCollection_1">
    <defs>
     <path d="M 73.832727 -292.032 
L 73.832727 -214.893147 
L 74.822528 -108.719483 
L 75.812328 -88.38148 
L 76.802129 -93.105874 
L 77.791929 -108.878345 
L 78.781729 -104.877472 
L 79.77153 -108.631 
L 80.76133 -105.100654 
L 81.751131 -103.469258 
L 82.740931 -94.240811 
L 83.730732 -85.871306 
L 84.720532 -80.996756 
L 85.710333 -85.336321 
L 87.689933 -158.914733 
L 88.679734 -111.233936 
L 89.669534 -90.405471 
L 90.659335 -90.413575 
L 91.649135 -89.891942 
L 92.638936 -101.555033 
L 93.628736 -80.078599 
L 94.618537 -102.544726 
L 95.608337 -83.944775 
L 96.598137 -85.543142 
L 97.587938 -84.959319 
L 98.577738 -98.078097 
L 100.557339 -113.876596 
L 101.54714 -102.342119 
L 102.53694 -87.172843 
L 103.526741 -84.177401 
L 104.516541 -77.956521 
L 105.506341 -84.73508 
L 106.496142 -85.507189 
L 107.485942 -91.563231 
L 108.475743 -77.751469 
L 109.465543 -86.319122 
L 110.455344 -88.569369 
L 111.445144 -72.172076 
L 113.424745 -112.406466 
L 114.414545 -92.644048 
L 115.404346 -80.239056 
L 116.394146 -78.887107 
L 117.383947 -83.852675 
L 118.373747 -100.839593 
L 119.363548 -91.882421 
L 120.353348 -127.744004 
L 121.343149 -71.42049 
L 122.332949 -86.668191 
L 123.322749 -79.218192 
L 124.31255 -62.039007 
L 125.30235 -86.811923 
L 126.292151 -90.487043 
L 127.281951 -65.173757 
L 128.271752 -76.870651 
L 129.261552 -98.788391 
L 130.251353 -69.435533 
L 131.241153 -73.671593 
L 132.230953 -77.7922 
L 134.210554 -126.26132 
L 135.200355 -93.800077 
L 136.190155 -96.805354 
L 137.179956 -70.527536 
L 138.169756 -89.353011 
L 139.159557 -88.377998 
L 140.149357 -84.648451 
L 141.139157 -79.570264 
L 142.128958 -75.913654 
L 143.118758 -75.232411 
L 144.108559 -81.604522 
L 145.098359 -82.429476 
L 147.07796 -112.408061 
L 148.067761 -82.610025 
L 149.057561 -85.118612 
L 150.047361 -82.176045 
L 151.037162 -77.56661 
L 152.026962 -76.732801 
L 153.016763 -64.663874 
L 154.006563 -78.120096 
L 154.996364 -79.923841 
L 155.986164 -77.846323 
L 156.975965 -72.124107 
L 157.965765 -69.55676 
L 159.945366 -101.354593 
L 160.935166 -83.399411 
L 161.924967 -84.112366 
L 162.914767 -65.288357 
L 163.904568 -85.206033 
L 164.894368 -81.257109 
L 165.884169 -91.55121 
L 166.873969 -113.127164 
L 167.863769 -83.984551 
L 168.85357 -72.533138 
L 169.84337 -78.064635 
L 170.833171 -52.009039 
L 171.822971 -89.092822 
L 172.812772 -90.142303 
L 173.802572 -68.274936 
L 174.792373 -71.362898 
L 175.782173 -80.097304 
L 176.771973 -70.057269 
L 177.761774 -90.826296 
L 178.751574 -77.343979 
L 180.731175 -117.192977 
L 181.720976 -96.711724 
L 182.710776 -94.72807 
L 183.700576 -74.35908 
L 184.690377 -81.515216 
L 185.680177 -101.804165 
L 186.669978 -82.03034 
L 187.659778 -82.962406 
L 188.649579 -82.34241 
L 189.639379 -77.848235 
L 190.62918 -88.362106 
L 191.61898 -72.709286 
L 193.598581 -107.995131 
L 194.588381 -82.80363 
L 195.578182 -78.394412 
L 196.567982 -72.0305 
L 197.557783 -83.637268 
L 198.547583 -76.438914 
L 199.537384 -93.072178 
L 200.527184 -75.906361 
L 201.516984 -69.359291 
L 202.506785 -68.251401 
L 203.496585 -75.042041 
L 204.486386 -77.739853 
L 206.465987 -96.191463 
L 207.455787 -74.755745 
L 208.445588 -77.143491 
L 209.435388 -75.968812 
L 210.425188 -71.438554 
L 211.414989 -79.093245 
L 212.404789 -73.655092 
L 213.39459 -96.841194 
L 214.38439 -76.976001 
L 215.374191 -84.741503 
L 216.363991 -81.493356 
L 217.353792 -80.455348 
L 218.343592 -77.816138 
L 219.333392 -84.158121 
L 220.323193 -69.31312 
L 221.312993 -69.26506 
L 222.302794 -79.38169 
L 223.292594 -72.768469 
L 224.282395 -80.918987 
L 225.272195 -86.015266 
L 227.251796 -103.250417 
L 228.241596 -74.481077 
L 229.231397 -90.621048 
L 230.221197 -61.965205 
L 231.210998 -84.72888 
L 232.200798 -91.355565 
L 233.190599 -85.517258 
L 234.180399 -79.199732 
L 235.1702 -68.422618 
L 236.16 -72.618222 
L 237.1498 -65.913148 
L 238.139601 -64.491774 
L 240.119202 -103.750385 
L 241.109002 -72.603351 
L 242.098803 -68.929216 
L 243.088603 -69.998186 
L 244.078404 -63.86873 
L 245.068204 -76.32314 
L 246.058004 -63.441279 
L 247.047805 -71.243918 
L 248.037605 -73.222393 
L 249.027406 -71.553148 
L 250.017206 -72.210798 
L 251.007007 -73.023389 
L 252.986608 -90.45927 
L 253.976408 -83.717413 
L 254.966208 -75.394945 
L 255.956009 -73.243049 
L 256.945809 -78.531037 
L 257.93561 -76.306495 
L 258.92541 -79.423605 
L 259.915211 -107.982836 
L 260.905011 -82.881932 
L 261.894812 -86.992162 
L 262.884612 -72.43885 
L 263.874412 -77.011535 
L 264.864213 -71.487522 
L 265.854013 -73.657985 
L 266.843814 -70.303495 
L 267.833614 -84.640878 
L 268.823415 -83.78212 
L 269.813215 -70.312224 
L 270.803016 -81.269863 
L 271.792816 -81.682495 
L 273.772417 -93.168525 
L 274.762217 -82.977151 
L 275.752018 -72.472088 
L 276.741818 -68.752373 
L 277.731619 -68.117036 
L 278.721419 -81.063971 
L 279.71122 -72.906513 
L 280.70102 -85.276979 
L 281.69082 -74.573423 
L 282.680621 -65.846796 
L 283.670421 -74.924349 
L 284.660222 -76.166345 
L 286.639823 -103.53881 
L 287.629623 -78.452758 
L 288.619424 -71.888888 
L 289.609224 -72.767679 
L 290.599024 -72.02523 
L 291.588825 -72.136558 
L 292.578625 -74.487583 
L 293.568426 -68.910819 
L 294.558226 -66.601186 
L 295.548027 -73.453473 
L 296.537827 -78.245891 
L 297.527627 -77.874252 
L 299.507228 -91.107033 
L 300.497029 -72.655887 
L 301.486829 -72.52502 
L 302.47663 -64.882731 
L 303.46643 -75.10447 
L 304.456231 -70.692488 
L 305.446031 -68.645404 
L 306.435831 -84.578853 
L 307.425632 -74.99087 
L 308.415432 -72.105268 
L 309.405233 -63.520935 
L 310.395033 -63.84426 
L 311.384834 -79.251558 
L 312.374634 -75.260977 
L 313.364435 -76.083184 
L 314.354235 -69.206938 
L 315.344035 -65.528853 
L 316.333836 -59.978797 
L 317.323636 -71.815545 
L 318.313437 -74.388497 
L 320.293038 -88.453842 
L 321.282838 -76.210573 
L 322.272639 -68.764423 
L 323.262439 -65.510797 
L 324.252239 -82.625987 
L 325.24204 -68.649934 
L 326.23184 -77.229759 
L 327.221641 -74.573389 
L 328.211441 -74.357334 
L 329.201242 -76.73813 
L 330.191042 -72.078838 
L 331.180843 -68.255513 
L 333.160443 -89.782339 
L 334.150244 -60.24948 
L 335.140044 -73.632778 
L 336.129845 -77.157693 
L 337.119645 -68.362601 
L 338.109446 -76.373749 
L 339.099246 -71.0184 
L 340.089047 -58.147696 
L 341.078847 -63.777173 
L 342.068647 -53.672043 
L 343.058448 -63.920672 
L 344.048248 -70.856884 
L 346.027849 -88.795619 
L 347.01765 -74.995569 
L 348.00745 -68.973232 
L 348.997251 -69.367475 
L 349.987051 -57.399902 
L 350.976851 -50.112 
L 351.966652 -69.018136 
L 352.956452 -89.52638 
L 353.946253 -56.915627 
L 354.936053 -66.545596 
L 355.925854 -63.033903 
L 356.915654 -55.648364 
L 357.905455 -67.77743 
L 358.895255 -84.953539 
L 359.885055 -70.510356 
L 360.874856 -76.403246 
L 361.864656 -68.731556 
L 362.854457 -59.884479 
L 363.844257 -73.330007 
L 364.834058 -76.196447 
L 366.813659 -86.679379 
L 367.803459 -78.833473 
L 368.793259 -72.05476 
L 369.78306 -68.45141 
L 370.77286 -79.950146 
L 371.762661 -75.492225 
L 372.752461 -73.01142 
L 373.742262 -67.510336 
L 374.732062 -65.911727 
L 375.721863 -72.958582 
L 376.711663 -67.236348 
L 377.701463 -67.977027 
L 379.681064 -88.167196 
L 380.670865 -65.814015 
L 381.660665 -63.612642 
L 382.650466 -60.65093 
L 383.640266 -70.44255 
L 384.630067 -75.567517 
L 385.619867 -59.411634 
L 386.609667 -71.479215 
L 387.599468 -57.534448 
L 388.589268 -65.518422 
L 389.579069 -68.190392 
L 390.568869 -64.747571 
L 392.54847 -81.174095 
L 393.538271 -69.994967 
L 394.528071 -72.446185 
L 395.517871 -76.732811 
L 396.507672 -69.36727 
L 397.497472 -67.670738 
L 398.487273 -70.55956 
L 398.487273 -92.32429 
L 398.487273 -92.32429 
L 397.497472 -86.926244 
L 396.507672 -88.804661 
L 395.517871 -102.14423 
L 394.528071 -100.1074 
L 393.538271 -85.662964 
L 392.54847 -110.823533 
L 390.568869 -83.204718 
L 389.579069 -88.59742 
L 388.589268 -89.073142 
L 387.599468 -93.332986 
L 386.609667 -99.088737 
L 385.619867 -84.944237 
L 384.630067 -111.923699 
L 383.640266 -94.359836 
L 382.650466 -79.28775 
L 381.660665 -87.839032 
L 380.670865 -84.970615 
L 379.681064 -115.572644 
L 377.701463 -95.246921 
L 376.711663 -86.512329 
L 375.721863 -93.491178 
L 374.732062 -96.241202 
L 373.742262 -106.027312 
L 372.752461 -104.974638 
L 371.762661 -94.372261 
L 370.77286 -99.979334 
L 369.78306 -91.808005 
L 368.793259 -94.548242 
L 367.803459 -105.842542 
L 366.813659 -122.256947 
L 364.834058 -100.135158 
L 363.844257 -98.512056 
L 362.854457 -81.182274 
L 361.864656 -93.247438 
L 360.874856 -103.882054 
L 359.885055 -105.107366 
L 358.895255 -112.782244 
L 357.905455 -93.355539 
L 356.915654 -77.577452 
L 355.925854 -83.413989 
L 354.936053 -87.632667 
L 353.946253 -74.495922 
L 352.956452 -115.917319 
L 351.966652 -107.697625 
L 350.976851 -68.60634 
L 349.987051 -77.892695 
L 348.997251 -87.217265 
L 348.00745 -86.886052 
L 347.01765 -105.490404 
L 346.027849 -120.502231 
L 344.048248 -96.791795 
L 343.058448 -82.498067 
L 342.068647 -73.1833 
L 341.078847 -83.410675 
L 340.089047 -96.248274 
L 339.099246 -99.935456 
L 338.109446 -96.790728 
L 337.119645 -93.163093 
L 336.129845 -99.754898 
L 335.140044 -90.703491 
L 334.150244 -80.898482 
L 333.160443 -112.934918 
L 331.180843 -88.983956 
L 330.191042 -96.030771 
L 329.201242 -97.718318 
L 328.211441 -108.152936 
L 327.221641 -93.078602 
L 326.23184 -112.692676 
L 325.24204 -90.600761 
L 324.252239 -112.67058 
L 323.262439 -81.747505 
L 322.272639 -90.530992 
L 321.282838 -102.76641 
L 320.293038 -121.814997 
L 318.313437 -101.983176 
L 317.323636 -97.594783 
L 316.333836 -78.782546 
L 315.344035 -94.47385 
L 314.354235 -90.089408 
L 313.364435 -102.79203 
L 312.374634 -93.738898 
L 311.384834 -104.966457 
L 310.395033 -85.418313 
L 309.405233 -84.574574 
L 308.415432 -98.061506 
L 307.425632 -96.195619 
L 306.435831 -107.023624 
L 305.446031 -90.81258 
L 304.456231 -91.688926 
L 303.46643 -99.488843 
L 302.47663 -83.166338 
L 301.486829 -94.626399 
L 300.497029 -97.087022 
L 299.507228 -111.467185 
L 297.527627 -107.966713 
L 296.537827 -101.48875 
L 295.548027 -103.740563 
L 294.558226 -85.166465 
L 293.568426 -92.530802 
L 292.578625 -106.676277 
L 291.588825 -93.420569 
L 290.599024 -93.091958 
L 289.609224 -94.455431 
L 288.619424 -91.232963 
L 287.629623 -105.738929 
L 286.639823 -136.514496 
L 284.660222 -98.637696 
L 283.670421 -101.672179 
L 282.680621 -84.777835 
L 281.69082 -101.491651 
L 280.70102 -109.339402 
L 279.71122 -96.864724 
L 278.721419 -104.196139 
L 277.731619 -92.382686 
L 276.741818 -92.510618 
L 275.752018 -98.242653 
L 274.762217 -109.044422 
L 273.772417 -107.313769 
L 271.792816 -106.098276 
L 270.803016 -100.455969 
L 269.813215 -89.800176 
L 268.823415 -105.169664 
L 267.833614 -117.33422 
L 266.843814 -95.45488 
L 265.854013 -92.604374 
L 264.864213 -94.807865 
L 263.874412 -100.008939 
L 262.884612 -94.807451 
L 261.894812 -110.134703 
L 260.905011 -106.703103 
L 259.915211 -133.638132 
L 258.92541 -96.303651 
L 257.93561 -101.010677 
L 256.945809 -91.759676 
L 255.956009 -92.905318 
L 254.966208 -97.250834 
L 253.976408 -108.592902 
L 252.986608 -119.976774 
L 251.007007 -99.026813 
L 250.017206 -98.712697 
L 249.027406 -91.970963 
L 248.037605 -94.998221 
L 247.047805 -98.414897 
L 246.058004 -83.539008 
L 245.068204 -98.844494 
L 244.078404 -90.686822 
L 243.088603 -94.49012 
L 242.098803 -89.981556 
L 241.109002 -99.812068 
L 240.119202 -127.65498 
L 238.139601 -92.449752 
L 237.1498 -82.806371 
L 236.16 -101.000952 
L 235.1702 -89.900738 
L 234.180399 -107.806041 
L 233.190599 -108.901723 
L 232.200798 -119.656357 
L 231.210998 -109.587564 
L 230.221197 -85.356948 
L 229.231397 -126.400104 
L 228.241596 -108.384524 
L 227.251796 -130.540652 
L 225.272195 -118.227711 
L 224.282395 -104.000721 
L 223.292594 -93.353529 
L 222.302794 -101.703022 
L 221.312993 -89.745389 
L 220.323193 -93.154687 
L 219.333392 -119.542406 
L 218.343592 -96.84325 
L 217.353792 -100.170224 
L 216.363991 -104.505695 
L 215.374191 -107.973885 
L 214.38439 -111.135929 
L 213.39459 -121.40324 
L 212.404789 -96.727541 
L 211.414989 -108.39187 
L 210.425188 -94.834285 
L 209.435388 -99.535714 
L 208.445588 -96.249974 
L 207.455787 -100.658962 
L 206.465987 -114.503087 
L 204.486386 -98.840163 
L 203.496585 -100.52703 
L 202.506785 -88.369141 
L 201.516984 -90.335548 
L 200.527184 -102.096436 
L 199.537384 -117.098376 
L 198.547583 -98.339006 
L 197.557783 -112.957859 
L 196.567982 -101.301041 
L 195.578182 -101.517576 
L 194.588381 -102.151048 
L 193.598581 -142.896617 
L 191.61898 -92.171458 
L 190.62918 -115.371125 
L 189.639379 -109.698662 
L 188.649579 -105.75028 
L 187.659778 -112.162406 
L 186.669978 -120.075033 
L 185.680177 -132.996553 
L 184.690377 -115.023075 
L 183.700576 -96.813315 
L 182.710776 -113.374644 
L 181.720976 -124.111283 
L 180.731175 -151.55518 
L 178.751574 -114.347764 
L 177.761774 -127.65486 
L 176.771973 -114.451599 
L 175.782173 -109.062801 
L 174.792373 -93.309028 
L 173.802572 -90.126701 
L 172.812772 -117.26003 
L 171.822971 -125.619233 
L 170.833171 -76.077977 
L 169.84337 -103.333196 
L 168.85357 -98.609191 
L 167.863769 -107.179028 
L 166.873969 -135.924091 
L 165.884169 -124.944003 
L 164.894368 -110.6785 
L 163.904568 -112.071308 
L 162.914767 -82.835551 
L 161.924967 -112.854125 
L 160.935166 -108.256763 
L 159.945366 -145.067014 
L 157.965765 -96.036952 
L 156.975965 -91.176429 
L 155.986164 -108.195919 
L 154.996364 -97.382201 
L 154.006563 -106.855619 
L 153.016763 -88.737828 
L 152.026962 -99.210545 
L 151.037162 -100.784354 
L 150.047361 -107.573288 
L 149.057561 -104.927532 
L 148.067761 -102.333681 
L 147.07796 -146.011936 
L 145.098359 -110.172945 
L 144.108559 -102.03836 
L 143.118758 -102.626543 
L 142.128958 -97.173398 
L 141.139157 -108.125309 
L 140.149357 -116.888019 
L 139.159557 -119.558443 
L 138.169756 -118.678642 
L 137.179956 -92.948685 
L 136.190155 -128.546185 
L 135.200355 -131.367119 
L 134.210554 -172.847036 
L 132.230953 -98.687634 
L 131.241153 -105.83246 
L 130.251353 -85.629268 
L 129.261552 -131.712046 
L 128.271752 -106.950911 
L 127.281951 -88.498426 
L 126.292151 -119.176161 
L 125.30235 -107.854331 
L 124.31255 -88.084405 
L 123.322749 -102.052888 
L 122.332949 -112.370138 
L 121.343149 -96.587941 
L 120.353348 -160.075515 
L 119.363548 -120.170831 
L 118.373747 -126.289357 
L 117.383947 -101.636876 
L 116.394146 -104.326641 
L 115.404346 -101.996393 
L 114.414545 -116.733295 
L 113.424745 -146.81718 
L 111.445144 -94.454426 
L 110.455344 -108.204228 
L 109.465543 -120.470869 
L 108.475743 -101.60799 
L 107.485942 -124.16104 
L 106.496142 -121.328443 
L 105.506341 -112.402762 
L 104.516541 -107.882385 
L 103.526741 -118.865047 
L 102.53694 -119.819921 
L 101.54714 -127.243625 
L 100.557339 -156.895873 
L 98.577738 -131.953651 
L 97.587938 -121.186092 
L 96.598137 -110.415114 
L 95.608337 -110.582468 
L 94.618537 -149.080535 
L 93.628736 -110.576572 
L 92.638936 -136.295868 
L 91.649135 -121.273138 
L 90.659335 -120.422414 
L 89.669534 -113.108273 
L 88.679734 -148.473562 
L 87.689933 -190.709706 
L 85.710333 -117.094616 
L 84.720532 -125.223356 
L 83.730732 -119.218908 
L 82.740931 -120.26401 
L 81.751131 -131.684492 
L 80.76133 -130.486307 
L 79.77153 -151.72918 
L 78.781729 -137.488339 
L 77.791929 -155.018885 
L 76.802129 -143.725682 
L 75.812328 -136.221007 
L 74.822528 -161.319716 
L 73.832727 -292.032 
z
" id="m42f5470bc1" style="stroke:#1f77b4;stroke-opacity:0.2;"/>
    </defs>
    <g clip-path="url(#p75250b0943)">
     <use style="fill:#1f77b4;fill-opacity:0.2;stroke:#1f77b4;stroke-opacity:0.2;" x="0" xlink:href="#m42f5470bc1" y="345.6"/>
    </g>
   </g>
   <g id="matplotlib.axis_1">
    <g id="xtick_1">
     <g id="line2d_1">
      <defs>
       <path d="M 0 0 
L 0 3.5 
" id="m4abed02a49" style="stroke:#000000;stroke-width:0.8;"/>
      </defs>
      <g>
       <use style="stroke:#000000;stroke-width:0.8;" x="72.842927" xlink:href="#m4abed02a49" y="307.584"/>
      </g>
     </g>
     <g id="text_1">
      <!-- 0 -->
      <defs>
       <path d="M 31.78125 66.40625 
Q 24.171875 66.40625 20.328125 58.90625 
Q 16.5 51.421875 16.5 36.375 
Q 16.5 21.390625 20.328125 13.890625 
Q 24.171875 6.390625 31.78125 6.390625 
Q 39.453125 6.390625 43.28125 13.890625 
Q 47.125 21.390625 47.125 36.375 
Q 47.125 51.421875 43.28125 58.90625 
Q 39.453125 66.40625 31.78125 66.40625 
z
M 31.78125 74.21875 
Q 44.046875 74.21875 50.515625 64.515625 
Q 56.984375 54.828125 56.984375 36.375 
Q 56.984375 17.96875 50.515625 8.265625 
Q 44.046875 -1.421875 31.78125 -1.421875 
Q 19.53125 -1.421875 13.0625 8.265625 
Q 6.59375 17.96875 6.59375 36.375 
Q 6.59375 54.828125 13.0625 64.515625 
Q 19.53125 74.21875 31.78125 74.21875 
z
" id="DejaVuSans-48"/>
      </defs>
      <g transform="translate(69.661677 322.182437)scale(0.1 -0.1)">
       <use xlink:href="#DejaVuSans-48"/>
      </g>
     </g>
    </g>
    <g id="xtick_2">
     <g id="line2d_2">
      <g>
       <use style="stroke:#000000;stroke-width:0.8;" x="122.332949" xlink:href="#m4abed02a49" y="307.584"/>
      </g>
     </g>
     <g id="text_2">
      <!-- 50 -->
      <defs>
       <path d="M 10.796875 72.90625 
L 49.515625 72.90625 
L 49.515625 64.59375 
L 19.828125 64.59375 
L 19.828125 46.734375 
Q 21.96875 47.46875 24.109375 47.828125 
Q 26.265625 48.1875 28.421875 48.1875 
Q 40.625 48.1875 47.75 41.5 
Q 54.890625 34.8125 54.890625 23.390625 
Q 54.890625 11.625 47.5625 5.09375 
Q 40.234375 -1.421875 26.90625 -1.421875 
Q 22.3125 -1.421875 17.546875 -0.640625 
Q 12.796875 0.140625 7.71875 1.703125 
L 7.71875 11.625 
Q 12.109375 9.234375 16.796875 8.0625 
Q 21.484375 6.890625 26.703125 6.890625 
Q 35.15625 6.890625 40.078125 11.328125 
Q 45.015625 15.765625 45.015625 23.390625 
Q 45.015625 31 40.078125 35.4375 
Q 35.15625 39.890625 26.703125 39.890625 
Q 22.75 39.890625 18.8125 39.015625 
Q 14.890625 38.140625 10.796875 36.28125 
z
" id="DejaVuSans-53"/>
      </defs>
      <g transform="translate(115.970449 322.182437)scale(0.1 -0.1)">
       <use xlink:href="#DejaVuSans-53"/>
       <use x="63.623047" xlink:href="#DejaVuSans-48"/>
      </g>
     </g>
    </g>
    <g id="xtick_3">
     <g id="line2d_3">
      <g>
       <use style="stroke:#000000;stroke-width:0.8;" x="171.822971" xlink:href="#m4abed02a49" y="307.584"/>
      </g>
     </g>
     <g id="text_3">
      <!-- 100 -->
      <defs>
       <path d="M 12.40625 8.296875 
L 28.515625 8.296875 
L 28.515625 63.921875 
L 10.984375 60.40625 
L 10.984375 69.390625 
L 28.421875 72.90625 
L 38.28125 72.90625 
L 38.28125 8.296875 
L 54.390625 8.296875 
L 54.390625 0 
L 12.40625 0 
z
" id="DejaVuSans-49"/>
      </defs>
      <g transform="translate(162.279221 322.182437)scale(0.1 -0.1)">
       <use xlink:href="#DejaVuSans-49"/>
       <use x="63.623047" xlink:href="#DejaVuSans-48"/>
       <use x="127.246094" xlink:href="#DejaVuSans-48"/>
      </g>
     </g>
    </g>
    <g id="xtick_4">
     <g id="line2d_4">
      <g>
       <use style="stroke:#000000;stroke-width:0.8;" x="221.312993" xlink:href="#m4abed02a49" y="307.584"/>
      </g>
     </g>
     <g id="text_4">
      <!-- 150 -->
      <g transform="translate(211.769243 322.182437)scale(0.1 -0.1)">
       <use xlink:href="#DejaVuSans-49"/>
       <use x="63.623047" xlink:href="#DejaVuSans-53"/>
       <use x="127.246094" xlink:href="#DejaVuSans-48"/>
      </g>
     </g>
    </g>
    <g id="xtick_5">
     <g id="line2d_5">
      <g>
       <use style="stroke:#000000;stroke-width:0.8;" x="270.803016" xlink:href="#m4abed02a49" y="307.584"/>
      </g>
     </g>
     <g id="text_5">
      <!-- 200 -->
      <defs>
       <path d="M 19.1875 8.296875 
L 53.609375 8.296875 
L 53.609375 0 
L 7.328125 0 
L 7.328125 8.296875 
Q 12.9375 14.109375 22.625 23.890625 
Q 32.328125 33.6875 34.8125 36.53125 
Q 39.546875 41.84375 41.421875 45.53125 
Q 43.3125 49.21875 43.3125 52.78125 
Q 43.3125 58.59375 39.234375 62.25 
Q 35.15625 65.921875 28.609375 65.921875 
Q 23.96875 65.921875 18.8125 64.3125 
Q 13.671875 62.703125 7.8125 59.421875 
L 7.8125 69.390625 
Q 13.765625 71.78125 18.9375 73 
Q 24.125 74.21875 28.421875 74.21875 
Q 39.75 74.21875 46.484375 68.546875 
Q 53.21875 62.890625 53.21875 53.421875 
Q 53.21875 48.921875 51.53125 44.890625 
Q 49.859375 40.875 45.40625 35.40625 
Q 44.1875 33.984375 37.640625 27.21875 
Q 31.109375 20.453125 19.1875 8.296875 
z
" id="DejaVuSans-50"/>
      </defs>
      <g transform="translate(261.259266 322.182437)scale(0.1 -0.1)">
       <use xlink:href="#DejaVuSans-50"/>
       <use x="63.623047" xlink:href="#DejaVuSans-48"/>
       <use x="127.246094" xlink:href="#DejaVuSans-48"/>
      </g>
     </g>
    </g>
    <g id="xtick_6">
     <g id="line2d_6">
      <g>
       <use style="stroke:#000000;stroke-width:0.8;" x="320.293038" xlink:href="#m4abed02a49" y="307.584"/>
      </g>
     </g>
     <g id="text_6">
      <!-- 250 -->
      <g transform="translate(310.749288 322.182437)scale(0.1 -0.1)">
       <use xlink:href="#DejaVuSans-50"/>
       <use x="63.623047" xlink:href="#DejaVuSans-53"/>
       <use x="127.246094" xlink:href="#DejaVuSans-48"/>
      </g>
     </g>
    </g>
    <g id="xtick_7">
     <g id="line2d_7">
      <g>
       <use style="stroke:#000000;stroke-width:0.8;" x="369.78306" xlink:href="#m4abed02a49" y="307.584"/>
      </g>
     </g>
     <g id="text_7">
      <!-- 300 -->
      <defs>
       <path d="M 40.578125 39.3125 
Q 47.65625 37.796875 51.625 33 
Q 55.609375 28.21875 55.609375 21.1875 
Q 55.609375 10.40625 48.1875 4.484375 
Q 40.765625 -1.421875 27.09375 -1.421875 
Q 22.515625 -1.421875 17.65625 -0.515625 
Q 12.796875 0.390625 7.625 2.203125 
L 7.625 11.71875 
Q 11.71875 9.328125 16.59375 8.109375 
Q 21.484375 6.890625 26.8125 6.890625 
Q 36.078125 6.890625 40.9375 10.546875 
Q 45.796875 14.203125 45.796875 21.1875 
Q 45.796875 27.640625 41.28125 31.265625 
Q 36.765625 34.90625 28.71875 34.90625 
L 20.21875 34.90625 
L 20.21875 43.015625 
L 29.109375 43.015625 
Q 36.375 43.015625 40.234375 45.921875 
Q 44.09375 48.828125 44.09375 54.296875 
Q 44.09375 59.90625 40.109375 62.90625 
Q 36.140625 65.921875 28.71875 65.921875 
Q 24.65625 65.921875 20.015625 65.03125 
Q 15.375 64.15625 9.8125 62.3125 
L 9.8125 71.09375 
Q 15.4375 72.65625 20.34375 73.4375 
Q 25.25 74.21875 29.59375 74.21875 
Q 40.828125 74.21875 47.359375 69.109375 
Q 53.90625 64.015625 53.90625 55.328125 
Q 53.90625 49.265625 50.4375 45.09375 
Q 46.96875 40.921875 40.578125 39.3125 
z
" id="DejaVuSans-51"/>
      </defs>
      <g transform="translate(360.23931 322.182437)scale(0.1 -0.1)">
       <use xlink:href="#DejaVuSans-51"/>
       <use x="63.623047" xlink:href="#DejaVuSans-48"/>
       <use x="127.246094" xlink:href="#DejaVuSans-48"/>
      </g>
     </g>
    </g>
    <g id="text_8">
     <!-- num_trial -->
     <defs>
      <path d="M 54.890625 33.015625 
L 54.890625 0 
L 45.90625 0 
L 45.90625 32.71875 
Q 45.90625 40.484375 42.875 44.328125 
Q 39.84375 48.1875 33.796875 48.1875 
Q 26.515625 48.1875 22.3125 43.546875 
Q 18.109375 38.921875 18.109375 30.90625 
L 18.109375 0 
L 9.078125 0 
L 9.078125 54.6875 
L 18.109375 54.6875 
L 18.109375 46.1875 
Q 21.34375 51.125 25.703125 53.5625 
Q 30.078125 56 35.796875 56 
Q 45.21875 56 50.046875 50.171875 
Q 54.890625 44.34375 54.890625 33.015625 
z
" id="DejaVuSans-110"/>
      <path d="M 8.5 21.578125 
L 8.5 54.6875 
L 17.484375 54.6875 
L 17.484375 21.921875 
Q 17.484375 14.15625 20.5 10.265625 
Q 23.53125 6.390625 29.59375 6.390625 
Q 36.859375 6.390625 41.078125 11.03125 
Q 45.3125 15.671875 45.3125 23.6875 
L 45.3125 54.6875 
L 54.296875 54.6875 
L 54.296875 0 
L 45.3125 0 
L 45.3125 8.40625 
Q 42.046875 3.421875 37.71875 1 
Q 33.40625 -1.421875 27.6875 -1.421875 
Q 18.265625 -1.421875 13.375 4.4375 
Q 8.5 10.296875 8.5 21.578125 
z
M 31.109375 56 
z
" id="DejaVuSans-117"/>
      <path d="M 52 44.1875 
Q 55.375 50.25 60.0625 53.125 
Q 64.75 56 71.09375 56 
Q 79.640625 56 84.28125 50.015625 
Q 88.921875 44.046875 88.921875 33.015625 
L 88.921875 0 
L 79.890625 0 
L 79.890625 32.71875 
Q 79.890625 40.578125 77.09375 44.375 
Q 74.3125 48.1875 68.609375 48.1875 
Q 61.625 48.1875 57.5625 43.546875 
Q 53.515625 38.921875 53.515625 30.90625 
L 53.515625 0 
L 44.484375 0 
L 44.484375 32.71875 
Q 44.484375 40.625 41.703125 44.40625 
Q 38.921875 48.1875 33.109375 48.1875 
Q 26.21875 48.1875 22.15625 43.53125 
Q 18.109375 38.875 18.109375 30.90625 
L 18.109375 0 
L 9.078125 0 
L 9.078125 54.6875 
L 18.109375 54.6875 
L 18.109375 46.1875 
Q 21.1875 51.21875 25.484375 53.609375 
Q 29.78125 56 35.6875 56 
Q 41.65625 56 45.828125 52.96875 
Q 50 49.953125 52 44.1875 
z
" id="DejaVuSans-109"/>
      <path d="M 50.984375 -16.609375 
L 50.984375 -23.578125 
L -0.984375 -23.578125 
L -0.984375 -16.609375 
z
" id="DejaVuSans-95"/>
      <path d="M 18.3125 70.21875 
L 18.3125 54.6875 
L 36.8125 54.6875 
L 36.8125 47.703125 
L 18.3125 47.703125 
L 18.3125 18.015625 
Q 18.3125 11.328125 20.140625 9.421875 
Q 21.96875 7.515625 27.59375 7.515625 
L 36.8125 7.515625 
L 36.8125 0 
L 27.59375 0 
Q 17.1875 0 13.234375 3.875 
Q 9.28125 7.765625 9.28125 18.015625 
L 9.28125 47.703125 
L 2.6875 47.703125 
L 2.6875 54.6875 
L 9.28125 54.6875 
L 9.28125 70.21875 
z
" id="DejaVuSans-116"/>
      <path d="M 41.109375 46.296875 
Q 39.59375 47.171875 37.8125 47.578125 
Q 36.03125 48 33.890625 48 
Q 26.265625 48 22.1875 43.046875 
Q 18.109375 38.09375 18.109375 28.8125 
L 18.109375 0 
L 9.078125 0 
L 9.078125 54.6875 
L 18.109375 54.6875 
L 18.109375 46.1875 
Q 20.953125 51.171875 25.484375 53.578125 
Q 30.03125 56 36.53125 56 
Q 37.453125 56 38.578125 55.875 
Q 39.703125 55.765625 41.0625 55.515625 
z
" id="DejaVuSans-114"/>
      <path d="M 9.421875 54.6875 
L 18.40625 54.6875 
L 18.40625 0 
L 9.421875 0 
z
M 9.421875 75.984375 
L 18.40625 75.984375 
L 18.40625 64.59375 
L 9.421875 64.59375 
z
" id="DejaVuSans-105"/>
      <path d="M 34.28125 27.484375 
Q 23.390625 27.484375 19.1875 25 
Q 14.984375 22.515625 14.984375 16.5 
Q 14.984375 11.71875 18.140625 8.90625 
Q 21.296875 6.109375 26.703125 6.109375 
Q 34.1875 6.109375 38.703125 11.40625 
Q 43.21875 16.703125 43.21875 25.484375 
L 43.21875 27.484375 
z
M 52.203125 31.203125 
L 52.203125 0 
L 43.21875 0 
L 43.21875 8.296875 
Q 40.140625 3.328125 35.546875 0.953125 
Q 30.953125 -1.421875 24.3125 -1.421875 
Q 15.921875 -1.421875 10.953125 3.296875 
Q 6 8.015625 6 15.921875 
Q 6 25.140625 12.171875 29.828125 
Q 18.359375 34.515625 30.609375 34.515625 
L 43.21875 34.515625 
L 43.21875 35.40625 
Q 43.21875 41.609375 39.140625 45 
Q 35.0625 48.390625 27.6875 48.390625 
Q 23 48.390625 18.546875 47.265625 
Q 14.109375 46.140625 10.015625 43.890625 
L 10.015625 52.203125 
Q 14.9375 54.109375 19.578125 55.046875 
Q 24.21875 56 28.609375 56 
Q 40.484375 56 46.34375 49.84375 
Q 52.203125 43.703125 52.203125 31.203125 
z
" id="DejaVuSans-97"/>
      <path d="M 9.421875 75.984375 
L 18.40625 75.984375 
L 18.40625 0 
L 9.421875 0 
z
" id="DejaVuSans-108"/>
     </defs>
     <g transform="translate(212.594375 335.860562)scale(0.1 -0.1)">
      <use xlink:href="#DejaVuSans-110"/>
      <use x="63.378906" xlink:href="#DejaVuSans-117"/>
      <use x="126.757812" xlink:href="#DejaVuSans-109"/>
      <use x="224.169922" xlink:href="#DejaVuSans-95"/>
      <use x="274.169922" xlink:href="#DejaVuSans-116"/>
      <use x="313.378906" xlink:href="#DejaVuSans-114"/>
      <use x="354.492188" xlink:href="#DejaVuSans-105"/>
      <use x="382.275391" xlink:href="#DejaVuSans-97"/>
      <use x="443.554688" xlink:href="#DejaVuSans-108"/>
     </g>
    </g>
   </g>
   <g id="matplotlib.axis_2">
    <g id="ytick_1">
     <g id="line2d_8">
      <defs>
       <path d="M 0 0 
L -3.5 0 
" id="m429102b788" style="stroke:#000000;stroke-width:0.8;"/>
      </defs>
      <g>
       <use style="stroke:#000000;stroke-width:0.8;" x="57.6" xlink:href="#m429102b788" y="280.2302"/>
      </g>
     </g>
     <g id="text_9">
      <!-- 0.2 -->
      <defs>
       <path d="M 10.6875 12.40625 
L 21 12.40625 
L 21 0 
L 10.6875 0 
z
" id="DejaVuSans-46"/>
      </defs>
      <g style="fill:#1f77b4;" transform="translate(34.696875 284.029419)scale(0.1 -0.1)">
       <use xlink:href="#DejaVuSans-48"/>
       <use x="63.623047" xlink:href="#DejaVuSans-46"/>
       <use x="95.410156" xlink:href="#DejaVuSans-50"/>
      </g>
     </g>
    </g>
    <g id="ytick_2">
     <g id="line2d_9">
      <g>
       <use style="stroke:#000000;stroke-width:0.8;" x="57.6" xlink:href="#m429102b788" y="234.262691"/>
      </g>
     </g>
     <g id="text_10">
      <!-- 0.3 -->
      <g style="fill:#1f77b4;" transform="translate(34.696875 238.06191)scale(0.1 -0.1)">
       <use xlink:href="#DejaVuSans-48"/>
       <use x="63.623047" xlink:href="#DejaVuSans-46"/>
       <use x="95.410156" xlink:href="#DejaVuSans-51"/>
      </g>
     </g>
    </g>
    <g id="ytick_3">
     <g id="line2d_10">
      <g>
       <use style="stroke:#000000;stroke-width:0.8;" x="57.6" xlink:href="#m429102b788" y="188.295183"/>
      </g>
     </g>
     <g id="text_11">
      <!-- 0.4 -->
      <defs>
       <path d="M 37.796875 64.3125 
L 12.890625 25.390625 
L 37.796875 25.390625 
z
M 35.203125 72.90625 
L 47.609375 72.90625 
L 47.609375 25.390625 
L 58.015625 25.390625 
L 58.015625 17.1875 
L 47.609375 17.1875 
L 47.609375 0 
L 37.796875 0 
L 37.796875 17.1875 
L 4.890625 17.1875 
L 4.890625 26.703125 
z
" id="DejaVuSans-52"/>
      </defs>
      <g style="fill:#1f77b4;" transform="translate(34.696875 192.094401)scale(0.1 -0.1)">
       <use xlink:href="#DejaVuSans-48"/>
       <use x="63.623047" xlink:href="#DejaVuSans-46"/>
       <use x="95.410156" xlink:href="#DejaVuSans-52"/>
      </g>
     </g>
    </g>
    <g id="ytick_4">
     <g id="line2d_11">
      <g>
       <use style="stroke:#000000;stroke-width:0.8;" x="57.6" xlink:href="#m429102b788" y="142.327674"/>
      </g>
     </g>
     <g id="text_12">
      <!-- 0.5 -->
      <g style="fill:#1f77b4;" transform="translate(34.696875 146.126893)scale(0.1 -0.1)">
       <use xlink:href="#DejaVuSans-48"/>
       <use x="63.623047" xlink:href="#DejaVuSans-46"/>
       <use x="95.410156" xlink:href="#DejaVuSans-53"/>
      </g>
     </g>
    </g>
    <g id="ytick_5">
     <g id="line2d_12">
      <g>
       <use style="stroke:#000000;stroke-width:0.8;" x="57.6" xlink:href="#m429102b788" y="96.360165"/>
      </g>
     </g>
     <g id="text_13">
      <!-- 0.6 -->
      <defs>
       <path d="M 33.015625 40.375 
Q 26.375 40.375 22.484375 35.828125 
Q 18.609375 31.296875 18.609375 23.390625 
Q 18.609375 15.53125 22.484375 10.953125 
Q 26.375 6.390625 33.015625 6.390625 
Q 39.65625 6.390625 43.53125 10.953125 
Q 47.40625 15.53125 47.40625 23.390625 
Q 47.40625 31.296875 43.53125 35.828125 
Q 39.65625 40.375 33.015625 40.375 
z
M 52.59375 71.296875 
L 52.59375 62.3125 
Q 48.875 64.0625 45.09375 64.984375 
Q 41.3125 65.921875 37.59375 65.921875 
Q 27.828125 65.921875 22.671875 59.328125 
Q 17.53125 52.734375 16.796875 39.40625 
Q 19.671875 43.65625 24.015625 45.921875 
Q 28.375 48.1875 33.59375 48.1875 
Q 44.578125 48.1875 50.953125 41.515625 
Q 57.328125 34.859375 57.328125 23.390625 
Q 57.328125 12.15625 50.6875 5.359375 
Q 44.046875 -1.421875 33.015625 -1.421875 
Q 20.359375 -1.421875 13.671875 8.265625 
Q 6.984375 17.96875 6.984375 36.375 
Q 6.984375 53.65625 15.1875 63.9375 
Q 23.390625 74.21875 37.203125 74.21875 
Q 40.921875 74.21875 44.703125 73.484375 
Q 48.484375 72.75 52.59375 71.296875 
z
" id="DejaVuSans-54"/>
      </defs>
      <g style="fill:#1f77b4;" transform="translate(34.696875 100.159384)scale(0.1 -0.1)">
       <use xlink:href="#DejaVuSans-48"/>
       <use x="63.623047" xlink:href="#DejaVuSans-46"/>
       <use x="95.410156" xlink:href="#DejaVuSans-54"/>
      </g>
     </g>
    </g>
    <g id="ytick_6">
     <g id="line2d_13">
      <g>
       <use style="stroke:#000000;stroke-width:0.8;" x="57.6" xlink:href="#m429102b788" y="50.392656"/>
      </g>
     </g>
     <g id="text_14">
      <!-- 0.7 -->
      <defs>
       <path d="M 8.203125 72.90625 
L 55.078125 72.90625 
L 55.078125 68.703125 
L 28.609375 0 
L 18.3125 0 
L 43.21875 64.59375 
L 8.203125 64.59375 
z
" id="DejaVuSans-55"/>
      </defs>
      <g style="fill:#1f77b4;" transform="translate(34.696875 54.191875)scale(0.1 -0.1)">
       <use xlink:href="#DejaVuSans-48"/>
       <use x="63.623047" xlink:href="#DejaVuSans-46"/>
       <use x="95.410156" xlink:href="#DejaVuSans-55"/>
      </g>
     </g>
    </g>
    <g id="text_15">
     <!-- response_time -->
     <defs>
      <path d="M 56.203125 29.59375 
L 56.203125 25.203125 
L 14.890625 25.203125 
Q 15.484375 15.921875 20.484375 11.0625 
Q 25.484375 6.203125 34.421875 6.203125 
Q 39.59375 6.203125 44.453125 7.46875 
Q 49.3125 8.734375 54.109375 11.28125 
L 54.109375 2.78125 
Q 49.265625 0.734375 44.1875 -0.34375 
Q 39.109375 -1.421875 33.890625 -1.421875 
Q 20.796875 -1.421875 13.15625 6.1875 
Q 5.515625 13.8125 5.515625 26.8125 
Q 5.515625 40.234375 12.765625 48.109375 
Q 20.015625 56 32.328125 56 
Q 43.359375 56 49.78125 48.890625 
Q 56.203125 41.796875 56.203125 29.59375 
z
M 47.21875 32.234375 
Q 47.125 39.59375 43.09375 43.984375 
Q 39.0625 48.390625 32.421875 48.390625 
Q 24.90625 48.390625 20.390625 44.140625 
Q 15.875 39.890625 15.1875 32.171875 
z
" id="DejaVuSans-101"/>
      <path d="M 44.28125 53.078125 
L 44.28125 44.578125 
Q 40.484375 46.53125 36.375 47.5 
Q 32.28125 48.484375 27.875 48.484375 
Q 21.1875 48.484375 17.84375 46.4375 
Q 14.5 44.390625 14.5 40.28125 
Q 14.5 37.15625 16.890625 35.375 
Q 19.28125 33.59375 26.515625 31.984375 
L 29.59375 31.296875 
Q 39.15625 29.25 43.1875 25.515625 
Q 47.21875 21.78125 47.21875 15.09375 
Q 47.21875 7.46875 41.1875 3.015625 
Q 35.15625 -1.421875 24.609375 -1.421875 
Q 20.21875 -1.421875 15.453125 -0.5625 
Q 10.6875 0.296875 5.421875 2 
L 5.421875 11.28125 
Q 10.40625 8.6875 15.234375 7.390625 
Q 20.0625 6.109375 24.8125 6.109375 
Q 31.15625 6.109375 34.5625 8.28125 
Q 37.984375 10.453125 37.984375 14.40625 
Q 37.984375 18.0625 35.515625 20.015625 
Q 33.0625 21.96875 24.703125 23.78125 
L 21.578125 24.515625 
Q 13.234375 26.265625 9.515625 29.90625 
Q 5.8125 33.546875 5.8125 39.890625 
Q 5.8125 47.609375 11.28125 51.796875 
Q 16.75 56 26.8125 56 
Q 31.78125 56 36.171875 55.265625 
Q 40.578125 54.546875 44.28125 53.078125 
z
" id="DejaVuSans-115"/>
      <path d="M 18.109375 8.203125 
L 18.109375 -20.796875 
L 9.078125 -20.796875 
L 9.078125 54.6875 
L 18.109375 54.6875 
L 18.109375 46.390625 
Q 20.953125 51.265625 25.265625 53.625 
Q 29.59375 56 35.59375 56 
Q 45.5625 56 51.78125 48.09375 
Q 58.015625 40.1875 58.015625 27.296875 
Q 58.015625 14.40625 51.78125 6.484375 
Q 45.5625 -1.421875 35.59375 -1.421875 
Q 29.59375 -1.421875 25.265625 0.953125 
Q 20.953125 3.328125 18.109375 8.203125 
z
M 48.6875 27.296875 
Q 48.6875 37.203125 44.609375 42.84375 
Q 40.53125 48.484375 33.40625 48.484375 
Q 26.265625 48.484375 22.1875 42.84375 
Q 18.109375 37.203125 18.109375 27.296875 
Q 18.109375 17.390625 22.1875 11.75 
Q 26.265625 6.109375 33.40625 6.109375 
Q 40.53125 6.109375 44.609375 11.75 
Q 48.6875 17.390625 48.6875 27.296875 
z
" id="DejaVuSans-112"/>
      <path d="M 30.609375 48.390625 
Q 23.390625 48.390625 19.1875 42.75 
Q 14.984375 37.109375 14.984375 27.296875 
Q 14.984375 17.484375 19.15625 11.84375 
Q 23.34375 6.203125 30.609375 6.203125 
Q 37.796875 6.203125 41.984375 11.859375 
Q 46.1875 17.53125 46.1875 27.296875 
Q 46.1875 37.015625 41.984375 42.703125 
Q 37.796875 48.390625 30.609375 48.390625 
z
M 30.609375 56 
Q 42.328125 56 49.015625 48.375 
Q 55.71875 40.765625 55.71875 27.296875 
Q 55.71875 13.875 49.015625 6.21875 
Q 42.328125 -1.421875 30.609375 -1.421875 
Q 18.84375 -1.421875 12.171875 6.21875 
Q 5.515625 13.875 5.515625 27.296875 
Q 5.515625 40.765625 12.171875 48.375 
Q 18.84375 56 30.609375 56 
z
" id="DejaVuSans-111"/>
     </defs>
     <g style="fill:#1f77b4;" transform="translate(28.339062 211.142844)rotate(-90)scale(0.1 -0.1)">
      <use xlink:href="#DejaVuSans-114"/>
      <use x="41.082031" xlink:href="#DejaVuSans-101"/>
      <use x="102.605469" xlink:href="#DejaVuSans-115"/>
      <use x="154.705078" xlink:href="#DejaVuSans-112"/>
      <use x="218.181641" xlink:href="#DejaVuSans-111"/>
      <use x="279.363281" xlink:href="#DejaVuSans-110"/>
      <use x="342.742188" xlink:href="#DejaVuSans-115"/>
      <use x="394.841797" xlink:href="#DejaVuSans-101"/>
      <use x="456.365234" xlink:href="#DejaVuSans-95"/>
      <use x="506.365234" xlink:href="#DejaVuSans-116"/>
      <use x="545.574219" xlink:href="#DejaVuSans-105"/>
      <use x="573.357422" xlink:href="#DejaVuSans-109"/>
      <use x="670.769531" xlink:href="#DejaVuSans-101"/>
     </g>
    </g>
   </g>
   <g id="line2d_14">
    <path clip-path="url(#p75250b0943)" d="M 73.832727 92.137427 
L 74.822528 210.5804 
L 75.812328 233.298757 
L 76.802129 227.184222 
L 77.791929 213.651385 
L 78.781729 224.417094 
L 79.77153 215.41991 
L 80.76133 227.806519 
L 81.751131 228.023125 
L 82.740931 238.347589 
L 83.730732 243.054893 
L 84.720532 242.489944 
L 85.710333 244.384532 
L 87.689933 170.787781 
L 88.679734 215.746251 
L 89.669534 243.843128 
L 90.659335 240.182006 
L 91.649135 240.01746 
L 92.638936 226.674549 
L 93.628736 250.272414 
L 94.618537 219.78737 
L 95.608337 248.336378 
L 96.598137 247.620872 
L 97.587938 242.527294 
L 98.577738 230.584126 
L 100.557339 210.213765 
L 101.54714 230.807128 
L 102.53694 242.103618 
L 103.526741 244.078776 
L 104.516541 252.680547 
L 105.506341 247.031079 
L 107.485942 237.737864 
L 108.475743 255.92027 
L 109.465543 242.205004 
L 110.455344 247.213201 
L 111.445144 262.286749 
L 113.424745 215.988177 
L 114.414545 240.911329 
L 115.404346 254.482275 
L 116.394146 253.993126 
L 117.383947 252.855225 
L 118.373747 232.035525 
L 119.363548 239.573374 
L 120.353348 201.690241 
L 121.343149 261.595784 
L 122.332949 246.080835 
L 123.322749 254.96446 
L 124.31255 270.538294 
L 125.30235 248.266873 
L 126.292151 240.768398 
L 127.281951 268.763909 
L 128.271752 253.689219 
L 129.261552 230.349781 
L 130.251353 268.067599 
L 131.241153 255.847974 
L 132.230953 257.360083 
L 134.210554 196.045822 
L 135.200355 233.016402 
L 136.190155 232.92423 
L 137.179956 263.86189 
L 138.169756 241.584174 
L 139.159557 241.63178 
L 140.149357 244.831765 
L 142.128958 259.056474 
L 143.118758 256.670523 
L 144.108559 253.778559 
L 145.098359 249.29879 
L 147.07796 216.390002 
L 148.067761 253.128147 
L 149.057561 250.576928 
L 150.047361 250.725333 
L 151.037162 256.424518 
L 152.026962 257.628327 
L 153.016763 268.899149 
L 154.006563 253.112143 
L 154.996364 256.946979 
L 155.986164 252.578879 
L 156.975965 263.949732 
L 157.965765 262.803144 
L 159.945366 222.389196 
L 160.935166 249.771913 
L 161.924967 247.116754 
L 162.914767 271.538046 
L 163.904568 246.96133 
L 164.894368 249.632196 
L 165.884169 237.352394 
L 166.873969 221.074373 
L 167.863769 250.01821 
L 168.85357 260.028835 
L 169.84337 254.901084 
L 170.833171 281.556492 
L 171.822971 238.243972 
L 172.812772 241.898833 
L 173.802572 266.399182 
L 174.792373 263.264037 
L 175.782173 251.019948 
L 176.771973 253.345566 
L 177.761774 236.359422 
L 178.751574 249.754128 
L 180.731175 211.225922 
L 181.720976 235.188496 
L 182.710776 241.548643 
L 183.700576 260.013803 
L 184.690377 247.330854 
L 185.680177 228.199641 
L 186.669978 244.547313 
L 188.649579 251.553655 
L 189.639379 251.826552 
L 190.62918 243.733385 
L 191.61898 263.159628 
L 193.598581 220.154126 
L 194.588381 253.122661 
L 195.578182 255.644006 
L 196.567982 258.934229 
L 197.557783 247.302436 
L 198.547583 258.21104 
L 199.537384 240.514723 
L 200.527184 256.598601 
L 201.516984 265.75258 
L 202.506785 267.289729 
L 203.496585 257.815464 
L 204.486386 257.309992 
L 206.465987 240.252725 
L 207.455787 257.892647 
L 208.445588 258.903267 
L 209.435388 257.847737 
L 210.425188 262.463581 
L 211.414989 251.857442 
L 212.404789 260.408684 
L 213.39459 236.477783 
L 214.38439 251.544035 
L 215.374191 249.242306 
L 216.363991 252.600475 
L 218.343592 258.270306 
L 219.333392 243.749736 
L 220.323193 264.366097 
L 221.312993 266.094775 
L 222.302794 255.057644 
L 223.292594 262.539001 
L 225.272195 243.478512 
L 227.251796 228.704465 
L 228.241596 254.1672 
L 229.231397 237.089424 
L 230.221197 271.938924 
L 231.210998 248.441778 
L 232.200798 240.094039 
L 233.190599 248.39051 
L 234.180399 252.097114 
L 235.1702 266.438322 
L 236.16 258.790413 
L 237.1498 271.24024 
L 238.139601 267.129237 
L 240.119202 229.897318 
L 241.109002 259.392291 
L 242.098803 266.144614 
L 243.088603 263.355847 
L 244.078404 268.322224 
L 245.068204 258.016183 
L 246.058004 272.109856 
L 247.047805 260.770593 
L 248.037605 261.489693 
L 249.027406 263.837944 
L 250.017206 260.138253 
L 251.007007 259.574899 
L 252.986608 240.381978 
L 254.966208 259.277111 
L 255.956009 262.525817 
L 256.945809 260.454644 
L 257.93561 256.941414 
L 258.92541 257.736372 
L 259.915211 224.789516 
L 260.905011 250.807483 
L 261.894812 247.036567 
L 262.884612 261.97685 
L 263.874412 257.089763 
L 264.864213 262.452307 
L 265.854013 262.468821 
L 266.843814 262.720812 
L 267.833614 244.612451 
L 268.823415 251.124108 
L 269.813215 265.5438 
L 270.803016 254.737084 
L 273.772417 245.358853 
L 274.762217 249.589214 
L 275.752018 260.242629 
L 276.741818 264.968504 
L 277.731619 265.350139 
L 278.721419 252.969945 
L 279.71122 260.714382 
L 280.70102 248.291809 
L 281.69082 257.567463 
L 282.680621 270.287685 
L 283.670421 257.301736 
L 284.660222 258.19798 
L 286.639823 225.573347 
L 287.629623 253.504156 
L 288.619424 264.039074 
L 289.609224 261.988445 
L 290.599024 263.041406 
L 291.588825 262.821436 
L 292.578625 255.01807 
L 293.568426 264.87919 
L 294.558226 269.716175 
L 295.548027 257.002982 
L 296.537827 255.732679 
L 297.527627 252.679517 
L 299.507228 244.312891 
L 300.497029 260.728546 
L 301.486829 262.02429 
L 302.47663 271.575465 
L 303.46643 258.303343 
L 304.456231 264.409293 
L 305.446031 265.871008 
L 306.435831 249.798762 
L 307.425632 260.006755 
L 308.415432 260.516613 
L 309.405233 271.552246 
L 310.395033 270.968714 
L 311.384834 253.490992 
L 312.374634 261.100063 
L 313.364435 256.162393 
L 314.354235 265.951827 
L 315.344035 265.598648 
L 316.333836 276.219328 
L 317.323636 260.894836 
L 318.313437 257.414164 
L 320.293038 240.465581 
L 321.282838 256.111509 
L 322.272639 265.952292 
L 323.262439 271.970849 
L 324.252239 247.951716 
L 325.24204 265.974652 
L 326.23184 250.638782 
L 327.221641 261.774004 
L 328.211441 254.344865 
L 329.201242 258.371776 
L 330.191042 261.545196 
L 331.180843 266.980265 
L 333.160443 244.241372 
L 334.150244 275.026019 
L 335.140044 263.431865 
L 336.129845 257.143705 
L 337.119645 264.837153 
L 338.109446 259.017762 
L 339.099246 260.123072 
L 340.089047 268.402015 
L 341.078847 272.006076 
L 342.068647 282.172328 
L 344.048248 261.77566 
L 346.027849 240.951075 
L 347.01765 255.357014 
L 348.00745 267.670358 
L 348.997251 267.30763 
L 349.987051 277.953701 
L 350.976851 286.24083 
L 351.966652 257.24212 
L 352.956452 242.87815 
L 353.946253 279.894226 
L 354.936053 268.510869 
L 355.925854 272.376054 
L 356.915654 278.987092 
L 357.905455 265.033515 
L 358.895255 246.732109 
L 359.885055 257.791139 
L 360.874856 255.45735 
L 361.864656 264.610503 
L 362.854457 275.066624 
L 363.844257 259.678968 
L 364.834058 257.434198 
L 366.813659 241.131837 
L 367.803459 253.261993 
L 368.793259 262.298499 
L 369.78306 265.470292 
L 370.77286 255.63526 
L 371.762661 260.667757 
L 372.752461 256.606971 
L 373.742262 258.831176 
L 374.732062 264.523536 
L 375.721863 262.37512 
L 376.711663 268.725661 
L 377.701463 263.988026 
L 379.681064 243.73008 
L 380.670865 270.207685 
L 381.660665 269.874163 
L 382.650466 275.63066 
L 384.630067 251.854392 
L 385.619867 273.422064 
L 386.609667 260.316024 
L 387.599468 270.166283 
L 388.589268 268.304218 
L 389.579069 267.206094 
L 390.568869 271.623856 
L 392.54847 249.601186 
L 393.538271 267.771034 
L 394.528071 259.323207 
L 395.517871 256.16148 
L 396.507672 266.514035 
L 397.497472 268.301509 
L 398.487273 264.158075 
L 398.487273 264.158075 
" style="fill:none;stroke:#1f77b4;stroke-linecap:square;stroke-width:1.5;"/>
   </g>
   <g id="patch_3">
    <path d="M 57.6 307.584 
L 57.6 41.472 
" style="fill:none;stroke:#000000;stroke-linecap:square;stroke-linejoin:miter;stroke-width:0.8;"/>
   </g>
   <g id="patch_4">
    <path d="M 414.72 307.584 
L 414.72 41.472 
" style="fill:none;stroke:#000000;stroke-linecap:square;stroke-linejoin:miter;stroke-width:0.8;"/>
   </g>
   <g id="patch_5">
    <path d="M 57.6 307.584 
L 414.72 307.584 
" style="fill:none;stroke:#000000;stroke-linecap:square;stroke-linejoin:miter;stroke-width:0.8;"/>
   </g>
   <g id="patch_6">
    <path d="M 57.6 41.472 
L 414.72 41.472 
" style="fill:none;stroke:#000000;stroke-linecap:square;stroke-linejoin:miter;stroke-width:0.8;"/>
   </g>
  </g>
  <g id="axes_2">
   <g id="PolyCollection_2">
    <defs>
     <path d="M 73.832727 -86.534564 
L 73.832727 -50.112 
L 74.822528 -118.91474 
L 75.812328 -129.942077 
L 76.802129 -152.537356 
L 77.791929 -124.286777 
L 78.781729 -197.649018 
L 79.77153 -206.787729 
L 80.76133 -205.4179 
L 81.751131 -246.774458 
L 82.740931 -160.060789 
L 83.730732 -221.557835 
L 84.720532 -197.649018 
L 85.710333 -213.998262 
L 87.689933 -139.14253 
L 88.679734 -194.655888 
L 89.669534 -197.649018 
L 90.659335 -228.778722 
L 91.649135 -197.649018 
L 92.638936 -185.067013 
L 93.628736 -211.768868 
L 94.618537 -200.425401 
L 95.608337 -223.558589 
L 96.598137 -213.998262 
L 97.587938 -213.998262 
L 98.577738 -192.370324 
L 100.557339 -190.567728 
L 101.54714 -227.155418 
L 102.53694 -216.07774 
L 103.526741 -211.768868 
L 104.516541 -228.778722 
L 105.506341 -227.155418 
L 106.496142 -242.411 
L 107.485942 -211.768868 
L 108.475743 -250.221471 
L 109.465543 -263.244218 
L 110.455344 -264.531356 
L 111.445144 -219.845261 
L 113.424745 -214.53156 
L 114.414545 -206.787729 
L 115.404346 -235.93173 
L 116.394146 -232.636365 
L 117.383947 -263.244218 
L 118.373747 -203.008343 
L 119.363548 -263.910521 
L 120.353348 -197.649018 
L 121.343149 -246.774458 
L 122.332949 -241.27693 
L 123.322749 -264.531356 
L 124.31255 -263.244218 
L 125.30235 -234.346068 
L 126.292151 -219.400302 
L 127.281951 -251.216725 
L 128.271752 -262.526948 
L 129.261552 -228.778722 
L 130.251353 -257.903195 
L 131.241153 -263.244218 
L 132.230953 -203.008343 
L 134.210554 -194.655888 
L 135.200355 -219.400302 
L 136.190155 -252.148036 
L 137.179956 -243.989977 
L 138.169756 -221.557835 
L 139.159557 -227.155418 
L 140.149357 -249.155107 
L 141.139157 -287.195655 
L 142.128958 -287.195655 
L 143.118758 -250.221471 
L 144.108559 -237.406839 
L 145.098359 -287.195655 
L 147.07796 -230.300449 
L 148.067761 -287.195655 
L 149.057561 -265.111443 
L 150.047361 -266.645395 
L 151.037162 -252.148036 
L 152.026962 -265.111443 
L 153.016763 -253.842916 
L 154.006563 -253.842916 
L 154.996364 -264.531356 
L 155.986164 -248.009328 
L 156.975965 -287.195655 
L 157.965765 -287.195655 
L 159.945366 -200.956779 
L 160.935166 -262.526948 
L 161.924967 -235.93173 
L 162.914767 -232.636365 
L 163.904568 -263.244218 
L 164.894368 -264.531356 
L 165.884169 -235.93173 
L 166.873969 -240.070108 
L 167.863769 -287.195655 
L 168.85357 -253.021624 
L 169.84337 -287.195655 
L 170.833171 -263.244218 
L 171.822971 -248.009328 
L 172.812772 -246.774458 
L 173.802572 -251.216725 
L 174.792373 -287.195655 
L 175.782173 -240.070108 
L 176.771973 -238.782968 
L 177.761774 -197.649018 
L 178.751574 -237.406839 
L 180.731175 -206.787729 
L 181.720976 -232.636365 
L 182.710776 -287.195655 
L 183.700576 -260.912553 
L 184.690377 -209.37212 
L 185.680177 -238.782968 
L 186.669978 -263.910521 
L 187.659778 -249.155107 
L 188.649579 -263.910521 
L 189.639379 -264.531356 
L 190.62918 -203.008343 
L 191.61898 -264.531356 
L 193.598581 -241.27693 
L 194.588381 -216.07774 
L 195.578182 -287.195655 
L 196.567982 -231.730161 
L 197.557783 -240.070108 
L 198.547583 -265.111443 
L 199.537384 -231.730161 
L 200.527184 -253.842916 
L 201.516984 -250.221471 
L 202.506785 -248.009328 
L 203.496585 -264.531356 
L 204.486386 -287.195655 
L 206.465987 -260.912553 
L 207.455787 -246.774458 
L 208.445588 -263.910521 
L 209.435388 -262.526948 
L 210.425188 -287.195655 
L 211.414989 -225.41958 
L 212.404789 -235.93173 
L 213.39459 -240.070108 
L 214.38439 -219.400302 
L 215.374191 -287.195655 
L 216.363991 -264.531356 
L 217.353792 -221.557835 
L 218.343592 -248.009328 
L 219.333392 -232.636365 
L 220.323193 -265.111443 
L 221.312993 -246.774458 
L 222.302794 -252.148036 
L 223.292594 -238.782968 
L 224.282395 -221.557835 
L 225.272195 -192.370324 
L 227.251796 -262.526948 
L 228.241596 -232.636365 
L 229.231397 -252.148036 
L 230.221197 -287.195655 
L 231.210998 -263.244218 
L 232.200798 -251.216725 
L 233.190599 -263.910521 
L 234.180399 -249.155107 
L 235.1702 -287.195655 
L 236.16 -225.41958 
L 237.1498 -250.221471 
L 238.139601 -250.221471 
L 240.119202 -253.021624 
L 241.109002 -216.07774 
L 242.098803 -265.111443 
L 243.088603 -266.645395 
L 244.078404 -265.654861 
L 245.068204 -287.195655 
L 246.058004 -253.842916 
L 247.047805 -242.411 
L 248.037605 -287.195655 
L 249.027406 -263.244218 
L 250.017206 -264.531356 
L 251.007007 -241.27693 
L 252.986608 -214.53156 
L 253.976408 -262.526948 
L 254.966208 -263.910521 
L 255.956009 -246.774458 
L 256.945809 -287.195655 
L 257.93561 -250.221471 
L 258.92541 -263.910521 
L 259.915211 -218.022375 
L 260.905011 -262.526948 
L 261.894812 -266.165148 
L 262.884612 -250.221471 
L 263.874412 -263.244218 
L 264.864213 -263.244218 
L 265.854013 -262.526948 
L 266.843814 -287.195655 
L 267.833614 -246.774458 
L 268.823415 -252.148036 
L 269.813215 -257.903195 
L 270.803016 -263.244218 
L 271.792816 -250.221471 
L 273.772417 -262.526948 
L 274.762217 -232.636365 
L 275.752018 -265.654861 
L 276.741818 -260.912553 
L 277.731619 -287.195655 
L 278.721419 -251.216725 
L 279.71122 -287.195655 
L 280.70102 -263.910521 
L 281.69082 -235.93173 
L 282.680621 -264.531356 
L 283.670421 -237.406839 
L 284.660222 -264.531356 
L 286.639823 -209.784021 
L 287.629623 -251.216725 
L 288.619424 -251.216725 
L 289.609224 -287.195655 
L 290.599024 -265.654861 
L 291.588825 -251.216725 
L 292.578625 -231.730161 
L 293.568426 -242.411 
L 294.558226 -264.531356 
L 295.548027 -234.346068 
L 296.537827 -287.195655 
L 297.527627 -253.021624 
L 299.507228 -260.912553 
L 300.497029 -219.400302 
L 301.486829 -287.195655 
L 302.47663 -262.526948 
L 303.46643 -248.009328 
L 304.456231 -250.221471 
L 305.446031 -263.910521 
L 306.435831 -265.654861 
L 307.425632 -287.195655 
L 308.415432 -266.165148 
L 309.405233 -287.195655 
L 310.395033 -263.244218 
L 311.384834 -287.195655 
L 312.374634 -287.195655 
L 313.364435 -238.782968 
L 314.354235 -246.774458 
L 315.344035 -252.148036 
L 316.333836 -238.782968 
L 317.323636 -248.009328 
L 318.313437 -237.406839 
L 320.293038 -206.787729 
L 321.282838 -232.636365 
L 322.272639 -265.654861 
L 323.262439 -287.195655 
L 324.252239 -197.649018 
L 325.24204 -251.216725 
L 326.23184 -249.155107 
L 327.221641 -263.910521 
L 328.211441 -235.93173 
L 329.201242 -287.195655 
L 330.191042 -264.531356 
L 331.180843 -264.531356 
L 333.160443 -253.021624 
L 334.150244 -265.111443 
L 335.140044 -287.195655 
L 336.129845 -287.195655 
L 337.119645 -252.148036 
L 338.109446 -251.216725 
L 339.099246 -266.645395 
L 340.089047 -266.645395 
L 341.078847 -250.221471 
L 342.068647 -287.195655 
L 343.058448 -287.195655 
L 344.048248 -241.27693 
L 346.027849 -260.912553 
L 347.01765 -232.636365 
L 348.00745 -287.195655 
L 348.997251 -287.195655 
L 349.987051 -263.244218 
L 350.976851 -287.195655 
L 351.966652 -249.155107 
L 352.956452 -265.654861 
L 353.946253 -287.195655 
L 354.936053 -287.195655 
L 355.925854 -264.531356 
L 356.915654 -234.346068 
L 357.905455 -234.346068 
L 358.895255 -262.526948 
L 359.885055 -251.216725 
L 360.874856 -232.636365 
L 361.864656 -228.778722 
L 362.854457 -257.903195 
L 363.844257 -287.195655 
L 364.834058 -264.531356 
L 366.813659 -246.774458 
L 367.803459 -246.774458 
L 368.793259 -252.148036 
L 369.78306 -260.912553 
L 370.77286 -234.346068 
L 371.762661 -238.782968 
L 372.752461 -235.93173 
L 373.742262 -249.155107 
L 374.732062 -235.93173 
L 375.721863 -264.531356 
L 376.711663 -237.406839 
L 377.701463 -237.406839 
L 379.681064 -219.845261 
L 380.670865 -287.195655 
L 381.660665 -287.195655 
L 382.650466 -242.411 
L 383.640266 -265.654861 
L 384.630067 -251.216725 
L 385.619867 -231.730161 
L 386.609667 -242.411 
L 387.599468 -250.221471 
L 388.589268 -263.244218 
L 389.579069 -287.195655 
L 390.568869 -266.165148 
L 392.54847 -228.778722 
L 393.538271 -287.195655 
L 394.528071 -249.155107 
L 395.517871 -262.526948 
L 396.507672 -263.244218 
L 397.497472 -237.406839 
L 398.487273 -287.195655 
L 398.487273 -287.195655 
L 398.487273 -287.195655 
L 397.497472 -282.590153 
L 396.507672 -291.504699 
L 395.517871 -291.367952 
L 394.528071 -287.522809 
L 393.538271 -287.195655 
L 392.54847 -278.267242 
L 390.568869 -291.970388 
L 389.579069 -287.195655 
L 388.589268 -291.504699 
L 387.599468 -287.90696 
L 386.609667 -284.838567 
L 385.619867 -279.805493 
L 384.630067 -288.254775 
L 383.640266 -291.900112 
L 382.650466 -284.838567 
L 381.660665 -287.195655 
L 380.670865 -287.195655 
L 379.681064 -273.267183 
L 377.701463 -282.590153 
L 376.711663 -282.590153 
L 375.721863 -291.728514 
L 374.732062 -281.889489 
L 373.742262 -287.522809 
L 372.752461 -281.889489 
L 371.762661 -283.228628 
L 370.77286 -281.118064 
L 369.78306 -291.030307 
L 368.793259 -288.5706 
L 367.803459 -286.624032 
L 366.813659 -286.624032 
L 364.834058 -291.728514 
L 363.844257 -287.195655 
L 362.854457 -290.298258 
L 361.864656 -278.267242 
L 360.874856 -280.265716 
L 359.885055 -288.254775 
L 358.895255 -291.367952 
L 357.905455 -281.118064 
L 356.915654 -281.118064 
L 355.925854 -291.728514 
L 354.936053 -287.195655 
L 353.946253 -287.195655 
L 352.956452 -291.900112 
L 351.966652 -287.522809 
L 350.976851 -287.195655 
L 349.987051 -291.504699 
L 348.997251 -287.195655 
L 348.00745 -287.195655 
L 347.01765 -280.265716 
L 346.027849 -291.030307 
L 344.048248 -284.34706 
L 343.058448 -287.195655 
L 342.068647 -287.195655 
L 341.078847 -287.90696 
L 340.089047 -292.032 
L 339.099246 -292.032 
L 338.109446 -288.254775 
L 337.119645 -288.5706 
L 336.129845 -287.195655 
L 335.140044 -287.195655 
L 334.150244 -291.819961 
L 333.160443 -288.858139 
L 331.180843 -291.728514 
L 330.191042 -291.728514 
L 329.201242 -287.195655 
L 328.211441 -281.889489 
L 327.221641 -291.624092 
L 326.23184 -287.522809 
L 325.24204 -288.254775 
L 324.252239 -258.887937 
L 323.262439 -287.195655 
L 322.272639 -291.900112 
L 321.282838 -280.265716 
L 320.293038 -265.121533 
L 318.313437 -282.590153 
L 317.323636 -287.097196 
L 316.333836 -283.228628 
L 315.344035 -288.5706 
L 314.354235 -286.624032 
L 313.364435 -283.228628 
L 312.374634 -287.195655 
L 311.384834 -287.195655 
L 310.395033 -291.504699 
L 309.405233 -287.195655 
L 308.415432 -291.970388 
L 307.425632 -287.195655 
L 306.435831 -291.900112 
L 305.446031 -291.624092 
L 304.456231 -287.90696 
L 303.46643 -287.097196 
L 302.47663 -291.367952 
L 301.486829 -287.195655 
L 300.497029 -273.005369 
L 299.507228 -291.030307 
L 297.527627 -288.858139 
L 296.537827 -287.195655 
L 295.548027 -281.118064 
L 294.558226 -291.728514 
L 293.568426 -284.838567 
L 292.578625 -279.805493 
L 291.588825 -288.254775 
L 290.599024 -291.900112 
L 289.609224 -287.195655 
L 288.619424 -288.254775 
L 287.629623 -288.254775 
L 286.639823 -267.07265 
L 284.660222 -291.728514 
L 283.670421 -282.590153 
L 282.680621 -291.728514 
L 281.69082 -281.889489 
L 280.70102 -291.624092 
L 279.71122 -287.195655 
L 278.721419 -288.254775 
L 277.731619 -287.195655 
L 276.741818 -291.030307 
L 275.752018 -291.900112 
L 274.762217 -280.265716 
L 273.772417 -291.367952 
L 271.792816 -287.90696 
L 270.803016 -291.504699 
L 269.813215 -290.298258 
L 268.823415 -288.5706 
L 267.833614 -286.624032 
L 266.843814 -287.195655 
L 265.854013 -291.367952 
L 264.864213 -291.504699 
L 263.874412 -291.504699 
L 262.884612 -287.90696 
L 261.894812 -291.970388 
L 260.905011 -291.367952 
L 259.915211 -272.187253 
L 258.92541 -291.624092 
L 257.93561 -287.90696 
L 256.945809 -287.195655 
L 255.956009 -286.624032 
L 254.966208 -291.624092 
L 253.976408 -291.367952 
L 252.986608 -270.065955 
L 251.007007 -284.34706 
L 250.017206 -291.728514 
L 249.027406 -291.504699 
L 248.037605 -287.195655 
L 247.047805 -284.838567 
L 246.058004 -289.120565 
L 245.068204 -287.195655 
L 244.078404 -291.900112 
L 243.088603 -292.032 
L 242.098803 -291.819961 
L 241.109002 -271.014047 
L 240.119202 -288.858139 
L 238.139601 -287.90696 
L 237.1498 -287.90696 
L 236.16 -276.445973 
L 235.1702 -287.195655 
L 234.180399 -287.522809 
L 233.190599 -291.624092 
L 232.200798 -288.254775 
L 231.210998 -291.504699 
L 230.221197 -287.195655 
L 229.231397 -288.5706 
L 228.241596 -280.265716 
L 227.251796 -291.367952 
L 225.272195 -255.100911 
L 224.282395 -274.263905 
L 223.292594 -283.228628 
L 222.302794 -288.5706 
L 221.312993 -286.624032 
L 220.323193 -291.819961 
L 219.333392 -280.265716 
L 218.343592 -287.097196 
L 217.353792 -274.263905 
L 216.363991 -291.728514 
L 215.374191 -287.195655 
L 214.38439 -273.005369 
L 213.39459 -283.812192 
L 212.404789 -281.889489 
L 211.414989 -276.445973 
L 210.425188 -287.195655 
L 209.435388 -291.367952 
L 208.445588 -291.624092 
L 207.455787 -286.624032 
L 206.465987 -291.030307 
L 204.486386 -287.195655 
L 203.496585 -291.728514 
L 202.506785 -287.097196 
L 201.516984 -287.90696 
L 200.527184 -289.120565 
L 199.537384 -279.805493 
L 198.547583 -291.819961 
L 197.557783 -283.812192 
L 196.567982 -279.805493 
L 195.578182 -287.195655 
L 194.588381 -271.014047 
L 193.598581 -284.34706 
L 191.61898 -291.728514 
L 190.62918 -262.594332 
L 189.639379 -291.728514 
L 188.649579 -291.624092 
L 187.659778 -287.522809 
L 186.669978 -291.624092 
L 185.680177 -283.228628 
L 184.690377 -266.807227 
L 183.700576 -291.030307 
L 182.710776 -287.195655 
L 181.720976 -280.265716 
L 180.731175 -265.121533 
L 178.751574 -282.590153 
L 177.761774 -258.887937 
L 176.771973 -283.228628 
L 175.782173 -283.812192 
L 174.792373 -287.195655 
L 173.802572 -288.254775 
L 172.812772 -286.624032 
L 171.822971 -287.097196 
L 170.833171 -291.504699 
L 169.84337 -287.195655 
L 168.85357 -288.858139 
L 167.863769 -287.195655 
L 166.873969 -283.812192 
L 165.884169 -281.889489 
L 164.894368 -291.728514 
L 163.904568 -291.504699 
L 162.914767 -280.265716 
L 161.924967 -281.889489 
L 160.935166 -291.367952 
L 159.945366 -261.192287 
L 157.965765 -287.195655 
L 156.975965 -287.195655 
L 155.986164 -287.097196 
L 154.996364 -291.728514 
L 154.006563 -289.120565 
L 153.016763 -289.120565 
L 152.026962 -291.819961 
L 151.037162 -288.5706 
L 150.047361 -292.032 
L 149.057561 -291.819961 
L 148.067761 -287.195655 
L 147.07796 -279.067768 
L 145.098359 -287.195655 
L 144.108559 -282.590153 
L 143.118758 -287.90696 
L 142.128958 -287.195655 
L 141.139157 -287.195655 
L 140.149357 -287.522809 
L 139.159557 -277.396274 
L 138.169756 -274.263905 
L 137.179956 -285.504436 
L 136.190155 -288.5706 
L 135.200355 -273.005369 
L 134.210554 -256.756964 
L 132.230953 -262.594332 
L 131.241153 -291.504699 
L 130.251353 -290.298258 
L 129.261552 -278.267242 
L 128.271752 -291.367952 
L 127.281951 -288.254775 
L 126.292151 -273.005369 
L 125.30235 -281.118064 
L 124.31255 -291.504699 
L 123.322749 -291.728514 
L 122.332949 -284.34706 
L 121.343149 -286.624032 
L 120.353348 -258.887937 
L 119.363548 -291.624092 
L 118.373747 -262.594332 
L 117.383947 -291.504699 
L 116.394146 -280.265716 
L 115.404346 -281.889489 
L 114.414545 -265.121533 
L 113.424745 -270.065955 
L 111.445144 -273.267183 
L 110.455344 -291.728514 
L 109.465543 -291.504699 
L 108.475743 -287.90696 
L 107.485942 -268.338958 
L 106.496142 -284.838567 
L 105.506341 -277.396274 
L 104.516541 -278.267242 
L 103.526741 -268.338958 
L 102.53694 -271.014047 
L 101.54714 -277.396274 
L 100.557339 -253.777397 
L 98.577738 -255.100911 
L 97.587938 -269.735851 
L 96.598137 -269.735851 
L 95.608337 -275.405933 
L 94.618537 -260.825728 
L 93.628736 -268.338958 
L 92.638936 -249.645061 
L 91.649135 -258.887937 
L 90.659335 -278.267242 
L 89.669534 -258.887937 
L 88.679734 -256.756964 
L 87.689933 -209.788275 
L 85.710333 -269.735851 
L 84.720532 -258.887937 
L 83.730732 -274.263905 
L 82.740931 -229.13082 
L 81.751131 -286.624032 
L 80.76133 -264.213983 
L 79.77153 -265.121533 
L 78.781729 -258.887937 
L 77.791929 -194.753431 
L 76.802129 -222.408122 
L 75.812328 -200.612637 
L 74.822528 -189.023247 
L 73.832727 -86.534564 
z
" id="m1d6c44bf9d" style="stroke:#2ca02c;stroke-opacity:0.2;"/>
    </defs>
    <g clip-path="url(#p75250b0943)">
     <use style="fill:#2ca02c;fill-opacity:0.2;stroke:#2ca02c;stroke-opacity:0.2;" x="0" xlink:href="#m1d6c44bf9d" y="345.6"/>
    </g>
   </g>
   <g id="matplotlib.axis_3">
    <g id="ytick_7">
     <g id="line2d_15">
      <defs>
       <path d="M 0 0 
L 3.5 0 
" id="mf1dc053d0f" style="stroke:#000000;stroke-width:0.8;"/>
      </defs>
      <g>
       <use style="stroke:#000000;stroke-width:0.8;" x="414.72" xlink:href="#mf1dc053d0f" y="294.113054"/>
      </g>
     </g>
     <g id="text_16">
      <!-- 0.0 -->
      <g style="fill:#2ca02c;" transform="translate(421.72 297.912273)scale(0.1 -0.1)">
       <use xlink:href="#DejaVuSans-48"/>
       <use x="63.623047" xlink:href="#DejaVuSans-46"/>
       <use x="95.410156" xlink:href="#DejaVuSans-48"/>
      </g>
     </g>
    </g>
    <g id="ytick_8">
     <g id="line2d_16">
      <g>
       <use style="stroke:#000000;stroke-width:0.8;" x="414.72" xlink:href="#mf1dc053d0f" y="246.971312"/>
      </g>
     </g>
     <g id="text_17">
      <!-- 0.2 -->
      <g style="fill:#2ca02c;" transform="translate(421.72 250.770531)scale(0.1 -0.1)">
       <use xlink:href="#DejaVuSans-48"/>
       <use x="63.623047" xlink:href="#DejaVuSans-46"/>
       <use x="95.410156" xlink:href="#DejaVuSans-50"/>
      </g>
     </g>
    </g>
    <g id="ytick_9">
     <g id="line2d_17">
      <g>
       <use style="stroke:#000000;stroke-width:0.8;" x="414.72" xlink:href="#mf1dc053d0f" y="199.829571"/>
      </g>
     </g>
     <g id="text_18">
      <!-- 0.4 -->
      <g style="fill:#2ca02c;" transform="translate(421.72 203.628789)scale(0.1 -0.1)">
       <use xlink:href="#DejaVuSans-48"/>
       <use x="63.623047" xlink:href="#DejaVuSans-46"/>
       <use x="95.410156" xlink:href="#DejaVuSans-52"/>
      </g>
     </g>
    </g>
    <g id="ytick_10">
     <g id="line2d_18">
      <g>
       <use style="stroke:#000000;stroke-width:0.8;" x="414.72" xlink:href="#mf1dc053d0f" y="152.687829"/>
      </g>
     </g>
     <g id="text_19">
      <!-- 0.6 -->
      <g style="fill:#2ca02c;" transform="translate(421.72 156.487048)scale(0.1 -0.1)">
       <use xlink:href="#DejaVuSans-48"/>
       <use x="63.623047" xlink:href="#DejaVuSans-46"/>
       <use x="95.410156" xlink:href="#DejaVuSans-54"/>
      </g>
     </g>
    </g>
    <g id="ytick_11">
     <g id="line2d_19">
      <g>
       <use style="stroke:#000000;stroke-width:0.8;" x="414.72" xlink:href="#mf1dc053d0f" y="105.546087"/>
      </g>
     </g>
     <g id="text_20">
      <!-- 0.8 -->
      <defs>
       <path d="M 31.78125 34.625 
Q 24.75 34.625 20.71875 30.859375 
Q 16.703125 27.09375 16.703125 20.515625 
Q 16.703125 13.921875 20.71875 10.15625 
Q 24.75 6.390625 31.78125 6.390625 
Q 38.8125 6.390625 42.859375 10.171875 
Q 46.921875 13.96875 46.921875 20.515625 
Q 46.921875 27.09375 42.890625 30.859375 
Q 38.875 34.625 31.78125 34.625 
z
M 21.921875 38.8125 
Q 15.578125 40.375 12.03125 44.71875 
Q 8.5 49.078125 8.5 55.328125 
Q 8.5 64.0625 14.71875 69.140625 
Q 20.953125 74.21875 31.78125 74.21875 
Q 42.671875 74.21875 48.875 69.140625 
Q 55.078125 64.0625 55.078125 55.328125 
Q 55.078125 49.078125 51.53125 44.71875 
Q 48 40.375 41.703125 38.8125 
Q 48.828125 37.15625 52.796875 32.3125 
Q 56.78125 27.484375 56.78125 20.515625 
Q 56.78125 9.90625 50.3125 4.234375 
Q 43.84375 -1.421875 31.78125 -1.421875 
Q 19.734375 -1.421875 13.25 4.234375 
Q 6.78125 9.90625 6.78125 20.515625 
Q 6.78125 27.484375 10.78125 32.3125 
Q 14.796875 37.15625 21.921875 38.8125 
z
M 18.3125 54.390625 
Q 18.3125 48.734375 21.84375 45.5625 
Q 25.390625 42.390625 31.78125 42.390625 
Q 38.140625 42.390625 41.71875 45.5625 
Q 45.3125 48.734375 45.3125 54.390625 
Q 45.3125 60.0625 41.71875 63.234375 
Q 38.140625 66.40625 31.78125 66.40625 
Q 25.390625 66.40625 21.84375 63.234375 
Q 18.3125 60.0625 18.3125 54.390625 
z
" id="DejaVuSans-56"/>
      </defs>
      <g style="fill:#2ca02c;" transform="translate(421.72 109.345306)scale(0.1 -0.1)">
       <use xlink:href="#DejaVuSans-48"/>
       <use x="63.623047" xlink:href="#DejaVuSans-46"/>
       <use x="95.410156" xlink:href="#DejaVuSans-56"/>
      </g>
     </g>
    </g>
    <g id="ytick_12">
     <g id="line2d_20">
      <g>
       <use style="stroke:#000000;stroke-width:0.8;" x="414.72" xlink:href="#mf1dc053d0f" y="58.404345"/>
      </g>
     </g>
     <g id="text_21">
      <!-- 1.0 -->
      <g style="fill:#2ca02c;" transform="translate(421.72 62.203564)scale(0.1 -0.1)">
       <use xlink:href="#DejaVuSans-49"/>
       <use x="63.623047" xlink:href="#DejaVuSans-46"/>
       <use x="95.410156" xlink:href="#DejaVuSans-48"/>
      </g>
     </g>
    </g>
    <g id="text_22">
     <!-- response_accuracy -->
     <defs>
      <path d="M 48.78125 52.59375 
L 48.78125 44.1875 
Q 44.96875 46.296875 41.140625 47.34375 
Q 37.3125 48.390625 33.40625 48.390625 
Q 24.65625 48.390625 19.8125 42.84375 
Q 14.984375 37.3125 14.984375 27.296875 
Q 14.984375 17.28125 19.8125 11.734375 
Q 24.65625 6.203125 33.40625 6.203125 
Q 37.3125 6.203125 41.140625 7.25 
Q 44.96875 8.296875 48.78125 10.40625 
L 48.78125 2.09375 
Q 45.015625 0.34375 40.984375 -0.53125 
Q 36.96875 -1.421875 32.421875 -1.421875 
Q 20.0625 -1.421875 12.78125 6.34375 
Q 5.515625 14.109375 5.515625 27.296875 
Q 5.515625 40.671875 12.859375 48.328125 
Q 20.21875 56 33.015625 56 
Q 37.15625 56 41.109375 55.140625 
Q 45.0625 54.296875 48.78125 52.59375 
z
" id="DejaVuSans-99"/>
      <path d="M 32.171875 -5.078125 
Q 28.375 -14.84375 24.75 -17.8125 
Q 21.140625 -20.796875 15.09375 -20.796875 
L 7.90625 -20.796875 
L 7.90625 -13.28125 
L 13.1875 -13.28125 
Q 16.890625 -13.28125 18.9375 -11.515625 
Q 21 -9.765625 23.484375 -3.21875 
L 25.09375 0.875 
L 2.984375 54.6875 
L 12.5 54.6875 
L 29.59375 11.921875 
L 46.6875 54.6875 
L 56.203125 54.6875 
z
" id="DejaVuSans-121"/>
     </defs>
     <g style="fill:#2ca02c;" transform="translate(448.943438 222.406125)rotate(-90)scale(0.1 -0.1)">
      <use xlink:href="#DejaVuSans-114"/>
      <use x="41.082031" xlink:href="#DejaVuSans-101"/>
      <use x="102.605469" xlink:href="#DejaVuSans-115"/>
      <use x="154.705078" xlink:href="#DejaVuSans-112"/>
      <use x="218.181641" xlink:href="#DejaVuSans-111"/>
      <use x="279.363281" xlink:href="#DejaVuSans-110"/>
      <use x="342.742188" xlink:href="#DejaVuSans-115"/>
      <use x="394.841797" xlink:href="#DejaVuSans-101"/>
      <use x="456.365234" xlink:href="#DejaVuSans-95"/>
      <use x="506.365234" xlink:href="#DejaVuSans-97"/>
      <use x="567.644531" xlink:href="#DejaVuSans-99"/>
      <use x="622.625" xlink:href="#DejaVuSans-99"/>
      <use x="677.605469" xlink:href="#DejaVuSans-117"/>
      <use x="740.984375" xlink:href="#DejaVuSans-114"/>
      <use x="782.097656" xlink:href="#DejaVuSans-97"/>
      <use x="843.376953" xlink:href="#DejaVuSans-99"/>
      <use x="898.357422" xlink:href="#DejaVuSans-121"/>
     </g>
    </g>
   </g>
   <g id="line2d_21">
    <path clip-path="url(#p75250b0943)" d="M 73.832727 277.276718 
L 74.822528 191.631007 
L 75.812328 180.322643 
L 76.802129 158.127261 
L 77.791929 186.079896 
L 78.781729 117.331523 
L 79.77153 109.645369 
L 80.76133 110.784059 
L 81.751131 78.900755 
L 82.740931 151.004195 
L 83.730732 97.68913 
L 84.720532 117.331523 
L 85.710333 103.732943 
L 87.689933 171.134597 
L 88.679734 119.893574 
L 89.669534 117.331523 
L 90.659335 92.077018 
L 91.649135 117.331523 
L 92.638936 128.243963 
L 93.628736 105.546087 
L 94.618537 114.974436 
L 95.608337 96.117739 
L 96.598137 103.732943 
L 97.587938 103.732943 
L 98.577738 121.864382 
L 100.557339 123.427438 
L 101.54714 93.324154 
L 102.53694 102.054106 
L 103.526741 105.546087 
L 104.516541 92.077018 
L 105.506341 93.324154 
L 106.496142 81.975216 
L 107.485942 105.546087 
L 108.475743 76.535785 
L 109.465543 68.225542 
L 110.455344 67.470065 
L 111.445144 99.043778 
L 113.424745 103.301242 
L 114.414545 109.645369 
L 115.404346 86.689391 
L 116.394146 89.14896 
L 117.383947 68.225542 
L 118.373747 112.798663 
L 119.363548 67.832694 
L 120.353348 117.331523 
L 121.343149 78.900755 
L 122.332949 82.788005 
L 123.322749 67.470065 
L 124.31255 68.225542 
L 125.30235 87.867934 
L 126.292151 99.397164 
L 127.281951 75.86425 
L 128.271752 68.65255 
L 129.261552 92.077018 
L 130.251353 71.499274 
L 131.241153 68.225542 
L 132.230953 112.798663 
L 134.210554 119.893574 
L 135.200355 99.397164 
L 136.190155 75.240682 
L 137.179956 80.852794 
L 138.169756 97.68913 
L 139.159557 93.324154 
L 140.149357 77.261042 
L 141.139157 58.404345 
L 142.128958 58.404345 
L 143.118758 76.535785 
L 144.108559 85.601504 
L 145.098359 58.404345 
L 147.07796 90.915891 
L 148.067761 58.404345 
L 149.057561 67.134298 
L 150.047361 66.261302 
L 151.037162 75.240682 
L 152.026962 67.134298 
L 153.016763 74.118259 
L 154.006563 74.118259 
L 154.996364 67.470065 
L 155.986164 78.046738 
L 156.975965 58.404345 
L 157.965765 58.404345 
L 159.945366 114.525467 
L 160.935166 68.65255 
L 161.924967 86.689391 
L 162.914767 89.14896 
L 163.904568 68.225542 
L 164.894368 67.470065 
L 165.884169 86.689391 
L 166.873969 83.65885 
L 167.863769 58.404345 
L 168.85357 74.660118 
L 169.84337 58.404345 
L 171.822971 78.046738 
L 172.812772 78.900755 
L 173.802572 75.86425 
L 174.792373 58.404345 
L 175.782173 83.65885 
L 176.771973 84.594202 
L 177.761774 117.331523 
L 178.751574 85.601504 
L 180.731175 109.645369 
L 181.720976 89.14896 
L 182.710776 58.404345 
L 183.700576 69.62857 
L 184.690377 107.510326 
L 185.680177 84.594202 
L 186.669978 67.832694 
L 187.659778 77.261042 
L 188.649579 67.832694 
L 189.639379 67.470065 
L 190.62918 112.798663 
L 191.61898 67.470065 
L 193.598581 82.788005 
L 194.588381 102.054106 
L 195.578182 58.404345 
L 196.567982 89.832173 
L 197.557783 83.65885 
L 198.547583 67.134298 
L 199.537384 89.832173 
L 200.527184 74.118259 
L 201.516984 76.535785 
L 202.506785 78.046738 
L 203.496585 67.470065 
L 204.486386 58.404345 
L 206.465987 69.62857 
L 207.455787 78.900755 
L 208.445588 67.832694 
L 209.435388 68.65255 
L 210.425188 58.404345 
L 211.414989 94.667224 
L 212.404789 86.689391 
L 213.39459 83.65885 
L 214.38439 99.397164 
L 215.374191 58.404345 
L 216.363991 67.470065 
L 217.353792 97.68913 
L 218.343592 78.046738 
L 219.333392 89.14896 
L 220.323193 67.134298 
L 221.312993 78.900755 
L 222.302794 75.240682 
L 223.292594 84.594202 
L 224.282395 97.68913 
L 225.272195 121.864382 
L 227.251796 68.65255 
L 228.241596 89.14896 
L 229.231397 75.240682 
L 230.221197 58.404345 
L 231.210998 68.225542 
L 232.200798 75.86425 
L 233.190599 67.832694 
L 234.180399 77.261042 
L 235.1702 58.404345 
L 236.16 94.667224 
L 237.1498 76.535785 
L 238.139601 76.535785 
L 240.119202 74.660118 
L 241.109002 102.054106 
L 242.098803 67.134298 
L 243.088603 66.261302 
L 244.078404 66.822514 
L 245.068204 58.404345 
L 246.058004 74.118259 
L 247.047805 81.975216 
L 248.037605 58.404345 
L 249.027406 68.225542 
L 250.017206 67.470065 
L 251.007007 82.788005 
L 252.986608 103.301242 
L 253.976408 68.65255 
L 254.966208 67.832694 
L 255.956009 78.900755 
L 256.945809 58.404345 
L 257.93561 76.535785 
L 258.92541 67.832694 
L 259.915211 100.495186 
L 260.905011 68.65255 
L 261.894812 66.532232 
L 262.884612 76.535785 
L 263.874412 68.225542 
L 264.864213 68.225542 
L 265.854013 68.65255 
L 266.843814 58.404345 
L 267.833614 78.900755 
L 270.803016 68.225542 
L 271.792816 76.535785 
L 273.772417 68.65255 
L 274.762217 89.14896 
L 275.752018 66.822514 
L 276.741818 69.62857 
L 277.731619 58.404345 
L 278.721419 75.86425 
L 279.71122 58.404345 
L 280.70102 67.832694 
L 281.69082 86.689391 
L 282.680621 67.470065 
L 283.670421 85.601504 
L 284.660222 67.470065 
L 286.639823 107.171665 
L 287.629623 75.86425 
L 288.619424 75.86425 
L 289.609224 58.404345 
L 291.588825 75.86425 
L 292.578625 89.832173 
L 293.568426 81.975216 
L 294.558226 67.470065 
L 295.548027 87.867934 
L 296.537827 58.404345 
L 297.527627 74.660118 
L 299.507228 69.62857 
L 300.497029 99.397164 
L 301.486829 58.404345 
L 303.46643 78.046738 
L 304.456231 76.535785 
L 305.446031 67.832694 
L 306.435831 66.822514 
L 307.425632 58.404345 
L 308.415432 66.532232 
L 309.405233 58.404345 
L 310.395033 68.225542 
L 311.384834 58.404345 
L 312.374634 58.404345 
L 313.364435 84.594202 
L 314.354235 78.900755 
L 315.344035 75.240682 
L 316.333836 84.594202 
L 317.323636 78.046738 
L 318.313437 85.601504 
L 320.293038 109.645369 
L 322.272639 66.822514 
L 323.262439 58.404345 
L 324.252239 117.331523 
L 325.24204 75.86425 
L 326.23184 77.261042 
L 327.221641 67.832694 
L 328.211441 86.689391 
L 329.201242 58.404345 
L 330.191042 67.470065 
L 331.180843 67.470065 
L 333.160443 74.660118 
L 334.150244 67.134298 
L 335.140044 58.404345 
L 336.129845 58.404345 
L 337.119645 75.240682 
L 338.109446 75.86425 
L 339.099246 66.261302 
L 340.089047 66.261302 
L 341.078847 76.535785 
L 342.068647 58.404345 
L 343.058448 58.404345 
L 344.048248 82.788005 
L 346.027849 69.62857 
L 347.01765 89.14896 
L 348.00745 58.404345 
L 348.997251 58.404345 
L 349.987051 68.225542 
L 350.976851 58.404345 
L 351.966652 77.261042 
L 352.956452 66.822514 
L 353.946253 58.404345 
L 354.936053 58.404345 
L 355.925854 67.470065 
L 356.915654 87.867934 
L 357.905455 87.867934 
L 358.895255 68.65255 
L 359.885055 75.86425 
L 360.874856 89.14896 
L 361.864656 92.077018 
L 362.854457 71.499274 
L 363.844257 58.404345 
L 364.834058 67.470065 
L 366.813659 78.900755 
L 367.803459 78.900755 
L 368.793259 75.240682 
L 369.78306 69.62857 
L 370.77286 87.867934 
L 371.762661 84.594202 
L 372.752461 86.689391 
L 373.742262 77.261042 
L 374.732062 86.689391 
L 375.721863 67.470065 
L 376.711663 85.601504 
L 377.701463 85.601504 
L 379.681064 99.043778 
L 380.670865 58.404345 
L 381.660665 58.404345 
L 382.650466 81.975216 
L 383.640266 66.822514 
L 384.630067 75.86425 
L 385.619867 89.832173 
L 386.609667 81.975216 
L 387.599468 76.535785 
L 388.589268 68.225542 
L 389.579069 58.404345 
L 390.568869 66.532232 
L 392.54847 92.077018 
L 393.538271 58.404345 
L 394.528071 77.261042 
L 395.517871 68.65255 
L 396.507672 68.225542 
L 397.497472 85.601504 
L 398.487273 58.404345 
L 398.487273 58.404345 
" style="fill:none;stroke:#2ca02c;stroke-linecap:square;stroke-width:1.5;"/>
   </g>
   <g id="patch_7">
    <path d="M 57.6 307.584 
L 57.6 41.472 
" style="fill:none;stroke:#000000;stroke-linecap:square;stroke-linejoin:miter;stroke-width:0.8;"/>
   </g>
   <g id="patch_8">
    <path d="M 414.72 307.584 
L 414.72 41.472 
" style="fill:none;stroke:#000000;stroke-linecap:square;stroke-linejoin:miter;stroke-width:0.8;"/>
   </g>
   <g id="patch_9">
    <path d="M 57.6 307.584 
L 414.72 307.584 
" style="fill:none;stroke:#000000;stroke-linecap:square;stroke-linejoin:miter;stroke-width:0.8;"/>
   </g>
   <g id="patch_10">
    <path d="M 57.6 41.472 
L 414.72 41.472 
" style="fill:none;stroke:#000000;stroke-linecap:square;stroke-linejoin:miter;stroke-width:0.8;"/>
   </g>
   <g id="text_23">
    <!-- is_overtraining_stim_1__training_blocks_(0.3*std) -->
    <defs>
     <path d="M 2.984375 54.6875 
L 12.5 54.6875 
L 29.59375 8.796875 
L 46.6875 54.6875 
L 56.203125 54.6875 
L 35.6875 0 
L 23.484375 0 
z
" id="DejaVuSans-118"/>
     <path d="M 45.40625 27.984375 
Q 45.40625 37.75 41.375 43.109375 
Q 37.359375 48.484375 30.078125 48.484375 
Q 22.859375 48.484375 18.828125 43.109375 
Q 14.796875 37.75 14.796875 27.984375 
Q 14.796875 18.265625 18.828125 12.890625 
Q 22.859375 7.515625 30.078125 7.515625 
Q 37.359375 7.515625 41.375 12.890625 
Q 45.40625 18.265625 45.40625 27.984375 
z
M 54.390625 6.78125 
Q 54.390625 -7.171875 48.1875 -13.984375 
Q 42 -20.796875 29.203125 -20.796875 
Q 24.46875 -20.796875 20.265625 -20.09375 
Q 16.0625 -19.390625 12.109375 -17.921875 
L 12.109375 -9.1875 
Q 16.0625 -11.328125 19.921875 -12.34375 
Q 23.78125 -13.375 27.78125 -13.375 
Q 36.625 -13.375 41.015625 -8.765625 
Q 45.40625 -4.15625 45.40625 5.171875 
L 45.40625 9.625 
Q 42.625 4.78125 38.28125 2.390625 
Q 33.9375 0 27.875 0 
Q 17.828125 0 11.671875 7.65625 
Q 5.515625 15.328125 5.515625 27.984375 
Q 5.515625 40.671875 11.671875 48.328125 
Q 17.828125 56 27.875 56 
Q 33.9375 56 38.28125 53.609375 
Q 42.625 51.21875 45.40625 46.390625 
L 45.40625 54.6875 
L 54.390625 54.6875 
z
" id="DejaVuSans-103"/>
     <path d="M 48.6875 27.296875 
Q 48.6875 37.203125 44.609375 42.84375 
Q 40.53125 48.484375 33.40625 48.484375 
Q 26.265625 48.484375 22.1875 42.84375 
Q 18.109375 37.203125 18.109375 27.296875 
Q 18.109375 17.390625 22.1875 11.75 
Q 26.265625 6.109375 33.40625 6.109375 
Q 40.53125 6.109375 44.609375 11.75 
Q 48.6875 17.390625 48.6875 27.296875 
z
M 18.109375 46.390625 
Q 20.953125 51.265625 25.265625 53.625 
Q 29.59375 56 35.59375 56 
Q 45.5625 56 51.78125 48.09375 
Q 58.015625 40.1875 58.015625 27.296875 
Q 58.015625 14.40625 51.78125 6.484375 
Q 45.5625 -1.421875 35.59375 -1.421875 
Q 29.59375 -1.421875 25.265625 0.953125 
Q 20.953125 3.328125 18.109375 8.203125 
L 18.109375 0 
L 9.078125 0 
L 9.078125 75.984375 
L 18.109375 75.984375 
z
" id="DejaVuSans-98"/>
     <path d="M 9.078125 75.984375 
L 18.109375 75.984375 
L 18.109375 31.109375 
L 44.921875 54.6875 
L 56.390625 54.6875 
L 27.390625 29.109375 
L 57.625 0 
L 45.90625 0 
L 18.109375 26.703125 
L 18.109375 0 
L 9.078125 0 
z
" id="DejaVuSans-107"/>
     <path d="M 31 75.875 
Q 24.46875 64.65625 21.28125 53.65625 
Q 18.109375 42.671875 18.109375 31.390625 
Q 18.109375 20.125 21.3125 9.0625 
Q 24.515625 -2 31 -13.1875 
L 23.1875 -13.1875 
Q 15.875 -1.703125 12.234375 9.375 
Q 8.59375 20.453125 8.59375 31.390625 
Q 8.59375 42.28125 12.203125 53.3125 
Q 15.828125 64.359375 23.1875 75.875 
z
" id="DejaVuSans-40"/>
     <path d="M 47.015625 60.890625 
L 29.5 51.421875 
L 47.015625 41.890625 
L 44.1875 37.109375 
L 27.78125 47.015625 
L 27.78125 28.609375 
L 22.21875 28.609375 
L 22.21875 47.015625 
L 5.8125 37.109375 
L 2.984375 41.890625 
L 20.515625 51.421875 
L 2.984375 60.890625 
L 5.8125 65.71875 
L 22.21875 55.8125 
L 22.21875 74.21875 
L 27.78125 74.21875 
L 27.78125 55.8125 
L 44.1875 65.71875 
z
" id="DejaVuSans-42"/>
     <path d="M 45.40625 46.390625 
L 45.40625 75.984375 
L 54.390625 75.984375 
L 54.390625 0 
L 45.40625 0 
L 45.40625 8.203125 
Q 42.578125 3.328125 38.25 0.953125 
Q 33.9375 -1.421875 27.875 -1.421875 
Q 17.96875 -1.421875 11.734375 6.484375 
Q 5.515625 14.40625 5.515625 27.296875 
Q 5.515625 40.1875 11.734375 48.09375 
Q 17.96875 56 27.875 56 
Q 33.9375 56 38.25 53.625 
Q 42.578125 51.265625 45.40625 46.390625 
z
M 14.796875 27.296875 
Q 14.796875 17.390625 18.875 11.75 
Q 22.953125 6.109375 30.078125 6.109375 
Q 37.203125 6.109375 41.296875 11.75 
Q 45.40625 17.390625 45.40625 27.296875 
Q 45.40625 37.203125 41.296875 42.84375 
Q 37.203125 48.484375 30.078125 48.484375 
Q 22.953125 48.484375 18.875 42.84375 
Q 14.796875 37.203125 14.796875 27.296875 
z
" id="DejaVuSans-100"/>
     <path d="M 8.015625 75.875 
L 15.828125 75.875 
Q 23.140625 64.359375 26.78125 53.3125 
Q 30.421875 42.28125 30.421875 31.390625 
Q 30.421875 20.453125 26.78125 9.375 
Q 23.140625 -1.703125 15.828125 -13.1875 
L 8.015625 -13.1875 
Q 14.5 -2 17.703125 9.0625 
Q 20.90625 20.125 20.90625 31.390625 
Q 20.90625 42.671875 17.703125 53.65625 
Q 14.5 64.65625 8.015625 75.875 
z
" id="DejaVuSans-41"/>
    </defs>
    <g transform="translate(88.13625 35.472)scale(0.12 -0.12)">
     <use xlink:href="#DejaVuSans-105"/>
     <use x="27.783203" xlink:href="#DejaVuSans-115"/>
     <use x="79.882812" xlink:href="#DejaVuSans-95"/>
     <use x="129.882812" xlink:href="#DejaVuSans-111"/>
     <use x="191.064453" xlink:href="#DejaVuSans-118"/>
     <use x="250.244141" xlink:href="#DejaVuSans-101"/>
     <use x="311.767578" xlink:href="#DejaVuSans-114"/>
     <use x="352.880859" xlink:href="#DejaVuSans-116"/>
     <use x="392.089844" xlink:href="#DejaVuSans-114"/>
     <use x="433.203125" xlink:href="#DejaVuSans-97"/>
     <use x="494.482422" xlink:href="#DejaVuSans-105"/>
     <use x="522.265625" xlink:href="#DejaVuSans-110"/>
     <use x="585.644531" xlink:href="#DejaVuSans-105"/>
     <use x="613.427734" xlink:href="#DejaVuSans-110"/>
     <use x="676.806641" xlink:href="#DejaVuSans-103"/>
     <use x="740.283203" xlink:href="#DejaVuSans-95"/>
     <use x="790.283203" xlink:href="#DejaVuSans-115"/>
     <use x="842.382812" xlink:href="#DejaVuSans-116"/>
     <use x="881.591797" xlink:href="#DejaVuSans-105"/>
     <use x="909.375" xlink:href="#DejaVuSans-109"/>
     <use x="1006.787109" xlink:href="#DejaVuSans-95"/>
     <use x="1056.787109" xlink:href="#DejaVuSans-49"/>
     <use x="1120.410156" xlink:href="#DejaVuSans-95"/>
     <use x="1170.410156" xlink:href="#DejaVuSans-95"/>
     <use x="1220.410156" xlink:href="#DejaVuSans-116"/>
     <use x="1259.619141" xlink:href="#DejaVuSans-114"/>
     <use x="1300.732422" xlink:href="#DejaVuSans-97"/>
     <use x="1362.011719" xlink:href="#DejaVuSans-105"/>
     <use x="1389.794922" xlink:href="#DejaVuSans-110"/>
     <use x="1453.173828" xlink:href="#DejaVuSans-105"/>
     <use x="1480.957031" xlink:href="#DejaVuSans-110"/>
     <use x="1544.335938" xlink:href="#DejaVuSans-103"/>
     <use x="1607.8125" xlink:href="#DejaVuSans-95"/>
     <use x="1657.8125" xlink:href="#DejaVuSans-98"/>
     <use x="1721.289062" xlink:href="#DejaVuSans-108"/>
     <use x="1749.072266" xlink:href="#DejaVuSans-111"/>
     <use x="1810.253906" xlink:href="#DejaVuSans-99"/>
     <use x="1865.234375" xlink:href="#DejaVuSans-107"/>
     <use x="1923.144531" xlink:href="#DejaVuSans-115"/>
     <use x="1975.244141" xlink:href="#DejaVuSans-95"/>
     <use x="2025.244141" xlink:href="#DejaVuSans-40"/>
     <use x="2064.257812" xlink:href="#DejaVuSans-48"/>
     <use x="2127.880859" xlink:href="#DejaVuSans-46"/>
     <use x="2159.667969" xlink:href="#DejaVuSans-51"/>
     <use x="2223.291016" xlink:href="#DejaVuSans-42"/>
     <use x="2273.291016" xlink:href="#DejaVuSans-115"/>
     <use x="2325.390625" xlink:href="#DejaVuSans-116"/>
     <use x="2364.599609" xlink:href="#DejaVuSans-100"/>
     <use x="2428.076172" xlink:href="#DejaVuSans-41"/>
    </g>
   </g>
  </g>
 </g>
 <defs>
  <clipPath id="p75250b0943">
   <rect height="266.112" width="357.12" x="57.6" y="41.472"/>
  </clipPath>
 </defs>
</svg>
