<?xml version="1.0" encoding="utf-8" standalone="no"?>
<!DOCTYPE svg PUBLIC "-//W3C//DTD SVG 1.1//EN"
  "http://www.w3.org/Graphics/SVG/1.1/DTD/svg11.dtd">
<!-- Created with matplotlib (https://matplotlib.org/) -->
<svg height="345.6pt" version="1.1" viewBox="0 0 460.8 345.6" width="460.8pt" xmlns="http://www.w3.org/2000/svg" xmlns:xlink="http://www.w3.org/1999/xlink">
 <defs>
  <style type="text/css">
*{stroke-linecap:butt;stroke-linejoin:round;}
  </style>
 </defs>
 <g id="figure_1">
  <g id="patch_1">
   <path d="M 0 345.6 
L 460.8 345.6 
L 460.8 0 
L 0 0 
z
" style="fill:#ffffff;"/>
  </g>
  <g id="axes_1">
   <g id="patch_2">
    <path d="M 57.6 307.584 
L 414.72 307.584 
L 414.72 41.472 
L 57.6 41.472 
z
" style="fill:#ffffff;"/>
   </g>
   <g id="PolyCollection_1">
    <defs>
     <path d="M 73.832727 -292.032 
L 73.832727 -214.893147 
L 74.602051 -108.719483 
L 75.371374 -88.38148 
L 76.140698 -93.105874 
L 76.910022 -108.878345 
L 77.679345 -104.877472 
L 78.448669 -108.631 
L 79.217992 -105.100654 
L 79.987316 -103.469258 
L 80.756639 -94.240811 
L 81.525963 -85.871306 
L 82.295287 -80.996756 
L 83.06461 -85.336321 
L 84.603257 -158.914733 
L 85.372581 -111.233936 
L 86.141904 -90.405471 
L 86.911228 -90.413575 
L 87.680551 -89.891942 
L 88.449875 -101.555033 
L 89.219199 -80.078599 
L 89.988522 -102.544726 
L 90.757846 -83.944775 
L 91.527169 -85.543142 
L 92.296493 -84.959319 
L 93.065816 -98.078097 
L 94.604464 -113.876596 
L 95.373787 -102.342119 
L 96.143111 -87.172843 
L 96.912434 -84.177401 
L 97.681758 -77.956521 
L 98.451081 -84.73508 
L 99.220405 -85.507189 
L 99.989729 -91.563231 
L 100.759052 -77.751469 
L 101.528376 -86.319122 
L 102.297699 -88.569369 
L 103.067023 -72.172076 
L 104.60567 -112.406466 
L 105.374994 -92.644048 
L 106.144317 -80.239056 
L 106.913641 -78.887107 
L 107.682964 -83.852675 
L 108.452288 -100.839593 
L 109.221611 -91.882421 
L 109.990935 -127.744004 
L 110.760259 -71.42049 
L 111.529582 -86.668191 
L 112.298906 -79.218192 
L 113.068229 -62.039007 
L 113.837553 -86.811923 
L 114.606876 -90.487043 
L 115.3762 -65.173757 
L 116.145523 -76.870651 
L 116.914847 -98.788391 
L 117.684171 -69.435533 
L 118.453494 -73.671593 
L 119.222818 -77.7922 
L 120.761465 -126.26132 
L 121.530788 -93.800077 
L 122.300112 -96.805354 
L 123.069436 -70.527536 
L 123.838759 -89.353011 
L 124.608083 -88.377998 
L 125.377406 -84.648451 
L 126.14673 -79.570264 
L 126.916053 -75.913654 
L 127.685377 -75.232411 
L 128.454701 -81.604522 
L 129.224024 -82.429476 
L 130.762671 -112.408061 
L 131.531995 -82.610025 
L 132.301318 -85.118612 
L 133.070642 -82.176045 
L 133.839966 -77.56661 
L 134.609289 -76.732801 
L 135.378613 -64.663874 
L 136.147936 -78.120096 
L 136.91726 -79.923841 
L 137.686583 -77.846323 
L 138.455907 -72.124107 
L 139.225231 -69.55676 
L 140.763878 -101.354593 
L 141.533201 -83.399411 
L 142.302525 -84.112366 
L 143.071848 -65.288357 
L 143.841172 -85.206033 
L 144.610495 -81.257109 
L 145.379819 -91.55121 
L 146.149143 -113.127164 
L 146.918466 -83.984551 
L 147.68779 -72.533138 
L 148.457113 -78.064635 
L 149.226437 -52.009039 
L 149.99576 -89.092822 
L 150.765084 -90.142303 
L 151.534408 -68.274936 
L 152.303731 -71.362898 
L 153.073055 -80.097304 
L 153.842378 -70.057269 
L 154.611702 -90.826296 
L 155.381025 -77.343979 
L 156.919673 -117.192977 
L 157.688996 -96.711724 
L 158.45832 -94.72807 
L 159.227643 -74.35908 
L 159.996967 -81.515216 
L 160.76629 -101.804165 
L 161.535614 -82.03034 
L 162.304938 -82.962406 
L 163.074261 -82.34241 
L 163.843585 -77.848235 
L 164.612908 -88.362106 
L 165.382232 -72.709286 
L 166.920879 -107.995131 
L 167.690202 -82.80363 
L 168.459526 -78.394412 
L 169.22885 -72.0305 
L 169.998173 -83.637268 
L 170.767497 -76.438914 
L 171.53682 -93.072178 
L 172.306144 -75.906361 
L 173.075467 -69.359291 
L 173.844791 -68.251401 
L 174.614115 -75.042041 
L 175.383438 -77.739853 
L 176.922085 -96.191463 
L 177.691409 -74.755745 
L 178.460732 -77.143491 
L 179.230056 -75.968812 
L 179.99938 -71.438554 
L 180.768703 -79.093245 
L 181.538027 -73.655092 
L 182.30735 -96.841194 
L 183.076674 -76.976001 
L 183.845997 -84.741503 
L 184.615321 -81.493356 
L 185.384645 -80.455348 
L 186.153968 -77.816138 
L 186.923292 -84.158121 
L 187.692615 -69.31312 
L 188.461939 -69.26506 
L 189.231262 -79.38169 
L 190.000586 -72.768469 
L 190.76991 -80.918987 
L 191.539233 -86.015266 
L 193.07788 -103.250417 
L 193.847204 -74.481077 
L 194.616527 -90.621048 
L 195.385851 -61.965205 
L 196.155174 -84.72888 
L 196.924498 -91.355565 
L 197.693822 -85.517258 
L 198.463145 -79.199732 
L 199.232469 -68.422618 
L 200.001792 -72.618222 
L 200.771116 -65.913148 
L 201.540439 -64.491774 
L 203.079087 -103.750385 
L 203.84841 -72.603351 
L 204.617734 -68.929216 
L 205.387057 -69.998186 
L 206.156381 -63.86873 
L 206.925704 -76.32314 
L 207.695028 -63.441279 
L 208.464352 -71.243918 
L 209.233675 -73.222393 
L 210.002999 -71.553148 
L 210.772322 -72.210798 
L 211.541646 -73.023389 
L 213.080293 -90.45927 
L 213.849617 -83.717413 
L 214.61894 -75.394945 
L 215.388264 -73.243049 
L 216.157587 -78.531037 
L 216.926911 -76.306495 
L 217.696234 -79.423605 
L 218.465558 -107.982836 
L 219.234882 -82.881932 
L 220.004205 -86.992162 
L 220.773529 -72.43885 
L 221.542852 -77.011535 
L 222.312176 -71.487522 
L 223.081499 -73.657985 
L 223.850823 -70.303495 
L 224.620146 -84.640878 
L 225.38947 -83.78212 
L 226.158794 -70.312224 
L 226.928117 -81.269863 
L 227.697441 -81.682495 
L 229.236088 -93.168525 
L 230.005411 -82.977151 
L 230.774735 -72.472088 
L 231.544059 -68.752373 
L 232.313382 -68.117036 
L 233.082706 -81.063971 
L 233.852029 -72.906513 
L 234.621353 -85.276979 
L 235.390676 -74.573423 
L 236.16 -65.846796 
L 236.929324 -74.924349 
L 237.698647 -76.166345 
L 239.237294 -103.53881 
L 240.006618 -78.452758 
L 240.775941 -71.888888 
L 241.545265 -72.767679 
L 242.314589 -72.02523 
L 243.083912 -72.136558 
L 243.853236 -74.487583 
L 244.622559 -68.910819 
L 245.391883 -66.601186 
L 246.161206 -73.453473 
L 246.93053 -78.245891 
L 247.699854 -77.874252 
L 249.238501 -91.107033 
L 250.007824 -72.655887 
L 250.777148 -72.52502 
L 251.546471 -64.882731 
L 252.315795 -75.10447 
L 253.085118 -70.692488 
L 253.854442 -68.645404 
L 254.623766 -84.578853 
L 255.393089 -74.99087 
L 256.162413 -72.105268 
L 256.931736 -63.520935 
L 257.70106 -63.84426 
L 258.470383 -79.251558 
L 259.239707 -75.260977 
L 260.009031 -76.083184 
L 260.778354 -69.206938 
L 261.547678 -65.528853 
L 262.317001 -59.978797 
L 263.086325 -71.815545 
L 263.855648 -74.388497 
L 265.394296 -88.453842 
L 266.163619 -76.210573 
L 266.932943 -68.764423 
L 267.702266 -65.510797 
L 268.47159 -82.625987 
L 269.240913 -68.649934 
L 270.010237 -77.229759 
L 270.779561 -74.573389 
L 271.548884 -74.357334 
L 272.318208 -76.73813 
L 273.087531 -72.078838 
L 273.856855 -68.255513 
L 275.395502 -89.782339 
L 276.164826 -60.24948 
L 276.934149 -73.632778 
L 277.703473 -77.157693 
L 278.472796 -68.362601 
L 279.24212 -76.373749 
L 280.011443 -71.0184 
L 280.780767 -58.147696 
L 281.55009 -63.777173 
L 282.319414 -53.672043 
L 283.088738 -63.920672 
L 283.858061 -70.856884 
L 285.396708 -88.795619 
L 286.166032 -74.995569 
L 286.935355 -68.973232 
L 287.704679 -69.367475 
L 288.474003 -57.399902 
L 289.243326 -50.112 
L 290.01265 -69.018136 
L 290.781973 -89.52638 
L 291.551297 -56.915627 
L 292.32062 -66.545596 
L 293.089944 -63.033903 
L 293.859268 -55.648364 
L 294.628591 -67.77743 
L 295.397915 -84.953539 
L 296.167238 -70.510356 
L 296.936562 -76.403246 
L 297.705885 -68.731556 
L 298.475209 -59.884479 
L 299.244533 -73.330007 
L 300.013856 -76.196447 
L 301.552503 -86.679379 
L 302.321827 -78.833473 
L 303.09115 -72.05476 
L 303.860474 -68.45141 
L 304.629798 -79.950146 
L 305.399121 -75.492225 
L 306.168445 -73.01142 
L 306.937768 -67.510336 
L 307.707092 -65.911727 
L 308.476415 -72.958582 
L 309.245739 -67.236348 
L 310.015062 -67.977027 
L 311.55371 -88.167196 
L 312.323033 -65.814015 
L 313.092357 -63.612642 
L 313.86168 -60.65093 
L 314.631004 -70.44255 
L 315.400327 -75.567517 
L 316.169651 -59.411634 
L 316.938975 -71.479215 
L 317.708298 -57.534448 
L 318.477622 -65.518422 
L 319.246945 -68.190392 
L 320.016269 -64.747571 
L 321.554916 -81.174095 
L 322.32424 -69.994967 
L 323.093563 -72.446185 
L 323.862887 -76.732811 
L 324.63221 -69.36727 
L 325.401534 -67.670738 
L 326.170857 -70.55956 
L 326.940181 -125.095478 
L 327.709505 -106.085692 
L 328.478828 -130.882261 
L 329.248152 -112.992257 
L 330.017475 -109.139568 
L 330.786799 -90.594877 
L 331.556122 -105.515392 
L 332.325446 -108.651275 
L 333.094769 -104.808777 
L 333.864093 -88.532568 
L 334.633417 -103.021954 
L 335.40274 -116.739092 
L 336.172064 -72.469835 
L 337.710711 -120.36194 
L 338.480034 -93.429472 
L 339.249358 -92.407602 
L 340.018682 -113.337277 
L 340.788005 -101.450602 
L 341.557329 -87.544965 
L 342.326652 -99.115432 
L 343.095976 -103.20378 
L 343.865299 -89.134635 
L 344.634623 -79.216294 
L 345.403947 -107.370758 
L 346.17327 -74.338083 
L 347.711917 -92.789979 
L 348.481241 -96.358274 
L 349.250564 -98.044258 
L 350.019888 -98.971323 
L 350.789212 -94.471456 
L 351.558535 -89.001566 
L 352.327859 -72.727805 
L 353.097182 -81.824278 
L 353.866506 -78.180089 
L 354.635829 -85.756911 
L 355.405153 -81.680363 
L 356.174477 -74.428834 
L 357.713124 -99.98719 
L 358.482447 -83.194159 
L 359.251771 -75.574598 
L 360.021094 -80.299258 
L 360.790418 -90.857602 
L 361.559741 -65.076793 
L 362.329065 -85.906662 
L 363.098389 -127.459532 
L 363.867712 -99.618515 
L 364.637036 -128.690033 
L 365.406359 -131.471974 
L 366.175683 -103.943318 
L 366.945006 -90.895493 
L 367.71433 -118.969211 
L 368.483654 -85.076545 
L 369.252977 -100.014445 
L 370.022301 -88.110683 
L 370.791624 -72.638515 
L 371.560948 -93.613853 
L 372.330271 -91.994056 
L 373.868919 -88.880322 
L 374.638242 -89.298945 
L 375.407566 -87.74955 
L 376.176889 -67.110638 
L 376.946213 -86.847603 
L 377.715536 -101.460804 
L 378.48486 -78.075652 
L 379.254184 -79.903977 
L 380.023507 -62.550012 
L 380.792831 -87.217587 
L 381.562154 -58.834616 
L 382.331478 -68.846003 
L 383.870125 -74.365263 
L 384.639449 -87.088407 
L 385.408772 -86.250826 
L 386.178096 -68.30244 
L 386.947419 -92.597878 
L 387.716743 -74.000456 
L 388.486066 -72.06782 
L 389.25539 -66.774148 
L 390.024713 -77.611994 
L 390.794037 -70.586774 
L 391.563361 -84.362802 
L 392.332684 -75.079212 
L 393.871331 -93.98093 
L 394.640655 -102.148425 
L 395.409978 -76.399456 
L 396.179302 -72.154001 
L 396.948626 -72.855421 
L 397.717949 -55.138295 
L 398.487273 -78.978092 
L 398.487273 -108.191045 
L 398.487273 -108.191045 
L 397.717949 -76.480879 
L 396.948626 -112.858836 
L 396.179302 -127.901584 
L 395.409978 -117.655467 
L 394.640655 -150.624182 
L 393.871331 -130.495299 
L 392.332684 -104.669446 
L 391.563361 -146.318185 
L 390.794037 -90.995815 
L 390.024713 -115.284582 
L 389.25539 -91.328603 
L 388.486066 -95.002303 
L 387.716743 -98.101066 
L 386.947419 -113.178547 
L 386.178096 -92.424272 
L 385.408772 -103.174168 
L 384.639449 -122.478992 
L 383.870125 -111.023633 
L 382.331478 -107.283295 
L 381.562154 -92.503206 
L 380.792831 -125.521925 
L 380.023507 -86.406561 
L 379.254184 -128.895723 
L 378.48486 -112.080154 
L 377.715536 -140.038088 
L 376.946213 -118.846279 
L 376.176889 -92.507169 
L 375.407566 -107.218067 
L 374.638242 -109.806045 
L 373.868919 -112.728429 
L 372.330271 -125.24837 
L 371.560948 -126.445222 
L 370.791624 -112.956499 
L 370.022301 -119.921244 
L 369.252977 -131.24669 
L 368.483654 -116.724387 
L 367.71433 -163.092637 
L 366.945006 -112.504354 
L 366.175683 -135.420585 
L 365.406359 -159.738802 
L 364.637036 -179.177098 
L 363.867712 -132.54601 
L 363.098389 -183.557987 
L 362.329065 -111.524486 
L 361.559741 -88.458455 
L 360.790418 -122.6979 
L 360.021094 -100.278422 
L 359.251771 -106.390054 
L 358.482447 -111.355112 
L 357.713124 -125.480489 
L 356.174477 -102.764238 
L 355.405153 -104.666566 
L 354.635829 -117.915772 
L 353.866506 -112.568542 
L 353.097182 -104.085191 
L 352.327859 -97.178268 
L 351.558535 -114.081742 
L 350.789212 -120.970114 
L 350.019888 -129.145971 
L 349.250564 -128.87523 
L 348.481241 -124.527383 
L 347.711917 -128.926419 
L 346.17327 -106.714174 
L 345.403947 -145.268083 
L 344.634623 -110.77559 
L 343.865299 -117.085329 
L 343.095976 -121.441549 
L 342.326652 -148.518011 
L 341.557329 -123.563017 
L 340.788005 -138.649617 
L 340.018682 -137.825391 
L 339.249358 -134.260869 
L 338.480034 -131.28015 
L 337.710711 -162.307324 
L 336.172064 -97.239715 
L 335.40274 -176.953571 
L 334.633417 -151.10735 
L 333.864093 -123.356811 
L 333.094769 -125.969508 
L 332.325446 -143.599094 
L 331.556122 -143.924432 
L 330.786799 -124.378737 
L 330.017475 -154.071221 
L 329.248152 -159.170489 
L 328.478828 -169.462964 
L 327.709505 -152.593629 
L 326.940181 -168.321182 
L 326.170857 -92.32429 
L 325.401534 -86.926244 
L 324.63221 -88.804661 
L 323.862887 -102.14423 
L 323.093563 -100.1074 
L 322.32424 -85.662964 
L 321.554916 -110.823533 
L 320.016269 -83.204718 
L 319.246945 -88.59742 
L 318.477622 -89.073142 
L 317.708298 -93.332986 
L 316.938975 -99.088737 
L 316.169651 -84.944237 
L 315.400327 -111.923699 
L 314.631004 -94.359836 
L 313.86168 -79.28775 
L 313.092357 -87.839032 
L 312.323033 -84.970615 
L 311.55371 -115.572644 
L 310.015062 -95.246921 
L 309.245739 -86.512329 
L 308.476415 -93.491178 
L 307.707092 -96.241202 
L 306.937768 -106.027312 
L 306.168445 -104.974638 
L 305.399121 -94.372261 
L 304.629798 -99.979334 
L 303.860474 -91.808005 
L 303.09115 -94.548242 
L 302.321827 -105.842542 
L 301.552503 -122.256947 
L 300.013856 -100.135158 
L 299.244533 -98.512056 
L 298.475209 -81.182274 
L 297.705885 -93.247438 
L 296.936562 -103.882054 
L 296.167238 -105.107366 
L 295.397915 -112.782244 
L 294.628591 -93.355539 
L 293.859268 -77.577452 
L 293.089944 -83.413989 
L 292.32062 -87.632667 
L 291.551297 -74.495922 
L 290.781973 -115.917319 
L 290.01265 -107.697625 
L 289.243326 -68.60634 
L 288.474003 -77.892695 
L 287.704679 -87.217265 
L 286.935355 -86.886052 
L 286.166032 -105.490404 
L 285.396708 -120.502231 
L 283.858061 -96.791795 
L 283.088738 -82.498067 
L 282.319414 -73.1833 
L 281.55009 -83.410675 
L 280.780767 -96.248274 
L 280.011443 -99.935456 
L 279.24212 -96.790728 
L 278.472796 -93.163093 
L 277.703473 -99.754898 
L 276.934149 -90.703491 
L 276.164826 -80.898482 
L 275.395502 -112.934918 
L 273.856855 -88.983956 
L 273.087531 -96.030771 
L 272.318208 -97.718318 
L 271.548884 -108.152936 
L 270.779561 -93.078602 
L 270.010237 -112.692676 
L 269.240913 -90.600761 
L 268.47159 -112.67058 
L 267.702266 -81.747505 
L 266.932943 -90.530992 
L 266.163619 -102.76641 
L 265.394296 -121.814997 
L 263.855648 -101.983176 
L 263.086325 -97.594783 
L 262.317001 -78.782546 
L 261.547678 -94.47385 
L 260.778354 -90.089408 
L 260.009031 -102.79203 
L 259.239707 -93.738898 
L 258.470383 -104.966457 
L 257.70106 -85.418313 
L 256.931736 -84.574574 
L 256.162413 -98.061506 
L 255.393089 -96.195619 
L 254.623766 -107.023624 
L 253.854442 -90.81258 
L 253.085118 -91.688926 
L 252.315795 -99.488843 
L 251.546471 -83.166338 
L 250.777148 -94.626399 
L 250.007824 -97.087022 
L 249.238501 -111.467185 
L 247.699854 -107.966713 
L 246.93053 -101.48875 
L 246.161206 -103.740563 
L 245.391883 -85.166465 
L 244.622559 -92.530802 
L 243.853236 -106.676277 
L 243.083912 -93.420569 
L 242.314589 -93.091958 
L 241.545265 -94.455431 
L 240.775941 -91.232963 
L 240.006618 -105.738929 
L 239.237294 -136.514496 
L 237.698647 -98.637696 
L 236.929324 -101.672179 
L 236.16 -84.777835 
L 235.390676 -101.491651 
L 234.621353 -109.339402 
L 233.852029 -96.864724 
L 233.082706 -104.196139 
L 232.313382 -92.382686 
L 231.544059 -92.510618 
L 230.774735 -98.242653 
L 230.005411 -109.044422 
L 229.236088 -107.313769 
L 227.697441 -106.098276 
L 226.928117 -100.455969 
L 226.158794 -89.800176 
L 225.38947 -105.169664 
L 224.620146 -117.33422 
L 223.850823 -95.45488 
L 223.081499 -92.604374 
L 222.312176 -94.807865 
L 221.542852 -100.008939 
L 220.773529 -94.807451 
L 220.004205 -110.134703 
L 219.234882 -106.703103 
L 218.465558 -133.638132 
L 217.696234 -96.303651 
L 216.926911 -101.010677 
L 216.157587 -91.759676 
L 215.388264 -92.905318 
L 214.61894 -97.250834 
L 213.849617 -108.592902 
L 213.080293 -119.976774 
L 211.541646 -99.026813 
L 210.772322 -98.712697 
L 210.002999 -91.970963 
L 209.233675 -94.998221 
L 208.464352 -98.414897 
L 207.695028 -83.539008 
L 206.925704 -98.844494 
L 206.156381 -90.686822 
L 205.387057 -94.49012 
L 204.617734 -89.981556 
L 203.84841 -99.812068 
L 203.079087 -127.65498 
L 201.540439 -92.449752 
L 200.771116 -82.806371 
L 200.001792 -101.000952 
L 199.232469 -89.900738 
L 198.463145 -107.806041 
L 197.693822 -108.901723 
L 196.924498 -119.656357 
L 196.155174 -109.587564 
L 195.385851 -85.356948 
L 194.616527 -126.400104 
L 193.847204 -108.384524 
L 193.07788 -130.540652 
L 191.539233 -118.227711 
L 190.76991 -104.000721 
L 190.000586 -93.353529 
L 189.231262 -101.703022 
L 188.461939 -89.745389 
L 187.692615 -93.154687 
L 186.923292 -119.542406 
L 186.153968 -96.84325 
L 185.384645 -100.170224 
L 184.615321 -104.505695 
L 183.845997 -107.973885 
L 183.076674 -111.135929 
L 182.30735 -121.40324 
L 181.538027 -96.727541 
L 180.768703 -108.39187 
L 179.99938 -94.834285 
L 179.230056 -99.535714 
L 178.460732 -96.249974 
L 177.691409 -100.658962 
L 176.922085 -114.503087 
L 175.383438 -98.840163 
L 174.614115 -100.52703 
L 173.844791 -88.369141 
L 173.075467 -90.335548 
L 172.306144 -102.096436 
L 171.53682 -117.098376 
L 170.767497 -98.339006 
L 169.998173 -112.957859 
L 169.22885 -101.301041 
L 168.459526 -101.517576 
L 167.690202 -102.151048 
L 166.920879 -142.896617 
L 165.382232 -92.171458 
L 164.612908 -115.371125 
L 163.843585 -109.698662 
L 163.074261 -105.75028 
L 162.304938 -112.162406 
L 161.535614 -120.075033 
L 160.76629 -132.996553 
L 159.996967 -115.023075 
L 159.227643 -96.813315 
L 158.45832 -113.374644 
L 157.688996 -124.111283 
L 156.919673 -151.55518 
L 155.381025 -114.347764 
L 154.611702 -127.65486 
L 153.842378 -114.451599 
L 153.073055 -109.062801 
L 152.303731 -93.309028 
L 151.534408 -90.126701 
L 150.765084 -117.26003 
L 149.99576 -125.619233 
L 149.226437 -76.077977 
L 148.457113 -103.333196 
L 147.68779 -98.609191 
L 146.918466 -107.179028 
L 146.149143 -135.924091 
L 145.379819 -124.944003 
L 144.610495 -110.6785 
L 143.841172 -112.071308 
L 143.071848 -82.835551 
L 142.302525 -112.854125 
L 141.533201 -108.256763 
L 140.763878 -145.067014 
L 139.225231 -96.036952 
L 138.455907 -91.176429 
L 137.686583 -108.195919 
L 136.91726 -97.382201 
L 136.147936 -106.855619 
L 135.378613 -88.737828 
L 134.609289 -99.210545 
L 133.839966 -100.784354 
L 133.070642 -107.573288 
L 132.301318 -104.927532 
L 131.531995 -102.333681 
L 130.762671 -146.011936 
L 129.224024 -110.172945 
L 128.454701 -102.03836 
L 127.685377 -102.626543 
L 126.916053 -97.173398 
L 126.14673 -108.125309 
L 125.377406 -116.888019 
L 124.608083 -119.558443 
L 123.838759 -118.678642 
L 123.069436 -92.948685 
L 122.300112 -128.546185 
L 121.530788 -131.367119 
L 120.761465 -172.847036 
L 119.222818 -98.687634 
L 118.453494 -105.83246 
L 117.684171 -85.629268 
L 116.914847 -131.712046 
L 116.145523 -106.950911 
L 115.3762 -88.498426 
L 114.606876 -119.176161 
L 113.837553 -107.854331 
L 113.068229 -88.084405 
L 112.298906 -102.052888 
L 111.529582 -112.370138 
L 110.760259 -96.587941 
L 109.990935 -160.075515 
L 109.221611 -120.170831 
L 108.452288 -126.289357 
L 107.682964 -101.636876 
L 106.913641 -104.326641 
L 106.144317 -101.996393 
L 105.374994 -116.733295 
L 104.60567 -146.81718 
L 103.067023 -94.454426 
L 102.297699 -108.204228 
L 101.528376 -120.470869 
L 100.759052 -101.60799 
L 99.989729 -124.16104 
L 99.220405 -121.328443 
L 98.451081 -112.402762 
L 97.681758 -107.882385 
L 96.912434 -118.865047 
L 96.143111 -119.819921 
L 95.373787 -127.243625 
L 94.604464 -156.895873 
L 93.065816 -131.953651 
L 92.296493 -121.186092 
L 91.527169 -110.415114 
L 90.757846 -110.582468 
L 89.988522 -149.080535 
L 89.219199 -110.576572 
L 88.449875 -136.295868 
L 87.680551 -121.273138 
L 86.911228 -120.422414 
L 86.141904 -113.108273 
L 85.372581 -148.473562 
L 84.603257 -190.709706 
L 83.06461 -117.094616 
L 82.295287 -125.223356 
L 81.525963 -119.218908 
L 80.756639 -120.26401 
L 79.987316 -131.684492 
L 79.217992 -130.486307 
L 78.448669 -151.72918 
L 77.679345 -137.488339 
L 76.910022 -155.018885 
L 76.140698 -143.725682 
L 75.371374 -136.221007 
L 74.602051 -161.319716 
L 73.832727 -292.032 
z
" id="m6095de9087" style="stroke:#1f77b4;stroke-opacity:0.2;"/>
    </defs>
    <g clip-path="url(#pfb1b98ac35)">
     <use style="fill:#1f77b4;fill-opacity:0.2;stroke:#1f77b4;stroke-opacity:0.2;" x="0" xlink:href="#m6095de9087" y="345.6"/>
    </g>
   </g>
   <g id="matplotlib.axis_1">
    <g id="xtick_1">
     <g id="line2d_1">
      <defs>
       <path d="M 0 0 
L 0 3.5 
" id="m035792589c" style="stroke:#000000;stroke-width:0.8;"/>
      </defs>
      <g>
       <use style="stroke:#000000;stroke-width:0.8;" x="73.063404" xlink:href="#m035792589c" y="307.584"/>
      </g>
     </g>
     <g id="text_1">
      <!-- 0 -->
      <defs>
       <path d="M 31.78125 66.40625 
Q 24.171875 66.40625 20.328125 58.90625 
Q 16.5 51.421875 16.5 36.375 
Q 16.5 21.390625 20.328125 13.890625 
Q 24.171875 6.390625 31.78125 6.390625 
Q 39.453125 6.390625 43.28125 13.890625 
Q 47.125 21.390625 47.125 36.375 
Q 47.125 51.421875 43.28125 58.90625 
Q 39.453125 66.40625 31.78125 66.40625 
z
M 31.78125 74.21875 
Q 44.046875 74.21875 50.515625 64.515625 
Q 56.984375 54.828125 56.984375 36.375 
Q 56.984375 17.96875 50.515625 8.265625 
Q 44.046875 -1.421875 31.78125 -1.421875 
Q 19.53125 -1.421875 13.0625 8.265625 
Q 6.59375 17.96875 6.59375 36.375 
Q 6.59375 54.828125 13.0625 64.515625 
Q 19.53125 74.21875 31.78125 74.21875 
z
" id="DejaVuSans-48"/>
      </defs>
      <g transform="translate(69.882154 322.182437)scale(0.1 -0.1)">
       <use xlink:href="#DejaVuSans-48"/>
      </g>
     </g>
    </g>
    <g id="xtick_2">
     <g id="line2d_2">
      <g>
       <use style="stroke:#000000;stroke-width:0.8;" x="149.99576" xlink:href="#m035792589c" y="307.584"/>
      </g>
     </g>
     <g id="text_2">
      <!-- 100 -->
      <defs>
       <path d="M 12.40625 8.296875 
L 28.515625 8.296875 
L 28.515625 63.921875 
L 10.984375 60.40625 
L 10.984375 69.390625 
L 28.421875 72.90625 
L 38.28125 72.90625 
L 38.28125 8.296875 
L 54.390625 8.296875 
L 54.390625 0 
L 12.40625 0 
z
" id="DejaVuSans-49"/>
      </defs>
      <g transform="translate(140.45201 322.182437)scale(0.1 -0.1)">
       <use xlink:href="#DejaVuSans-49"/>
       <use x="63.623047" xlink:href="#DejaVuSans-48"/>
       <use x="127.246094" xlink:href="#DejaVuSans-48"/>
      </g>
     </g>
    </g>
    <g id="xtick_3">
     <g id="line2d_3">
      <g>
       <use style="stroke:#000000;stroke-width:0.8;" x="226.928117" xlink:href="#m035792589c" y="307.584"/>
      </g>
     </g>
     <g id="text_3">
      <!-- 200 -->
      <defs>
       <path d="M 19.1875 8.296875 
L 53.609375 8.296875 
L 53.609375 0 
L 7.328125 0 
L 7.328125 8.296875 
Q 12.9375 14.109375 22.625 23.890625 
Q 32.328125 33.6875 34.8125 36.53125 
Q 39.546875 41.84375 41.421875 45.53125 
Q 43.3125 49.21875 43.3125 52.78125 
Q 43.3125 58.59375 39.234375 62.25 
Q 35.15625 65.921875 28.609375 65.921875 
Q 23.96875 65.921875 18.8125 64.3125 
Q 13.671875 62.703125 7.8125 59.421875 
L 7.8125 69.390625 
Q 13.765625 71.78125 18.9375 73 
Q 24.125 74.21875 28.421875 74.21875 
Q 39.75 74.21875 46.484375 68.546875 
Q 53.21875 62.890625 53.21875 53.421875 
Q 53.21875 48.921875 51.53125 44.890625 
Q 49.859375 40.875 45.40625 35.40625 
Q 44.1875 33.984375 37.640625 27.21875 
Q 31.109375 20.453125 19.1875 8.296875 
z
" id="DejaVuSans-50"/>
      </defs>
      <g transform="translate(217.384367 322.182437)scale(0.1 -0.1)">
       <use xlink:href="#DejaVuSans-50"/>
       <use x="63.623047" xlink:href="#DejaVuSans-48"/>
       <use x="127.246094" xlink:href="#DejaVuSans-48"/>
      </g>
     </g>
    </g>
    <g id="xtick_4">
     <g id="line2d_4">
      <g>
       <use style="stroke:#000000;stroke-width:0.8;" x="303.860474" xlink:href="#m035792589c" y="307.584"/>
      </g>
     </g>
     <g id="text_4">
      <!-- 300 -->
      <defs>
       <path d="M 40.578125 39.3125 
Q 47.65625 37.796875 51.625 33 
Q 55.609375 28.21875 55.609375 21.1875 
Q 55.609375 10.40625 48.1875 4.484375 
Q 40.765625 -1.421875 27.09375 -1.421875 
Q 22.515625 -1.421875 17.65625 -0.515625 
Q 12.796875 0.390625 7.625 2.203125 
L 7.625 11.71875 
Q 11.71875 9.328125 16.59375 8.109375 
Q 21.484375 6.890625 26.8125 6.890625 
Q 36.078125 6.890625 40.9375 10.546875 
Q 45.796875 14.203125 45.796875 21.1875 
Q 45.796875 27.640625 41.28125 31.265625 
Q 36.765625 34.90625 28.71875 34.90625 
L 20.21875 34.90625 
L 20.21875 43.015625 
L 29.109375 43.015625 
Q 36.375 43.015625 40.234375 45.921875 
Q 44.09375 48.828125 44.09375 54.296875 
Q 44.09375 59.90625 40.109375 62.90625 
Q 36.140625 65.921875 28.71875 65.921875 
Q 24.65625 65.921875 20.015625 65.03125 
Q 15.375 64.15625 9.8125 62.3125 
L 9.8125 71.09375 
Q 15.4375 72.65625 20.34375 73.4375 
Q 25.25 74.21875 29.59375 74.21875 
Q 40.828125 74.21875 47.359375 69.109375 
Q 53.90625 64.015625 53.90625 55.328125 
Q 53.90625 49.265625 50.4375 45.09375 
Q 46.96875 40.921875 40.578125 39.3125 
z
" id="DejaVuSans-51"/>
      </defs>
      <g transform="translate(294.316724 322.182437)scale(0.1 -0.1)">
       <use xlink:href="#DejaVuSans-51"/>
       <use x="63.623047" xlink:href="#DejaVuSans-48"/>
       <use x="127.246094" xlink:href="#DejaVuSans-48"/>
      </g>
     </g>
    </g>
    <g id="xtick_5">
     <g id="line2d_5">
      <g>
       <use style="stroke:#000000;stroke-width:0.8;" x="380.792831" xlink:href="#m035792589c" y="307.584"/>
      </g>
     </g>
     <g id="text_5">
      <!-- 400 -->
      <defs>
       <path d="M 37.796875 64.3125 
L 12.890625 25.390625 
L 37.796875 25.390625 
z
M 35.203125 72.90625 
L 47.609375 72.90625 
L 47.609375 25.390625 
L 58.015625 25.390625 
L 58.015625 17.1875 
L 47.609375 17.1875 
L 47.609375 0 
L 37.796875 0 
L 37.796875 17.1875 
L 4.890625 17.1875 
L 4.890625 26.703125 
z
" id="DejaVuSans-52"/>
      </defs>
      <g transform="translate(371.249081 322.182437)scale(0.1 -0.1)">
       <use xlink:href="#DejaVuSans-52"/>
       <use x="63.623047" xlink:href="#DejaVuSans-48"/>
       <use x="127.246094" xlink:href="#DejaVuSans-48"/>
      </g>
     </g>
    </g>
    <g id="text_6">
     <!-- num_trial -->
     <defs>
      <path d="M 54.890625 33.015625 
L 54.890625 0 
L 45.90625 0 
L 45.90625 32.71875 
Q 45.90625 40.484375 42.875 44.328125 
Q 39.84375 48.1875 33.796875 48.1875 
Q 26.515625 48.1875 22.3125 43.546875 
Q 18.109375 38.921875 18.109375 30.90625 
L 18.109375 0 
L 9.078125 0 
L 9.078125 54.6875 
L 18.109375 54.6875 
L 18.109375 46.1875 
Q 21.34375 51.125 25.703125 53.5625 
Q 30.078125 56 35.796875 56 
Q 45.21875 56 50.046875 50.171875 
Q 54.890625 44.34375 54.890625 33.015625 
z
" id="DejaVuSans-110"/>
      <path d="M 8.5 21.578125 
L 8.5 54.6875 
L 17.484375 54.6875 
L 17.484375 21.921875 
Q 17.484375 14.15625 20.5 10.265625 
Q 23.53125 6.390625 29.59375 6.390625 
Q 36.859375 6.390625 41.078125 11.03125 
Q 45.3125 15.671875 45.3125 23.6875 
L 45.3125 54.6875 
L 54.296875 54.6875 
L 54.296875 0 
L 45.3125 0 
L 45.3125 8.40625 
Q 42.046875 3.421875 37.71875 1 
Q 33.40625 -1.421875 27.6875 -1.421875 
Q 18.265625 -1.421875 13.375 4.4375 
Q 8.5 10.296875 8.5 21.578125 
z
M 31.109375 56 
z
" id="DejaVuSans-117"/>
      <path d="M 52 44.1875 
Q 55.375 50.25 60.0625 53.125 
Q 64.75 56 71.09375 56 
Q 79.640625 56 84.28125 50.015625 
Q 88.921875 44.046875 88.921875 33.015625 
L 88.921875 0 
L 79.890625 0 
L 79.890625 32.71875 
Q 79.890625 40.578125 77.09375 44.375 
Q 74.3125 48.1875 68.609375 48.1875 
Q 61.625 48.1875 57.5625 43.546875 
Q 53.515625 38.921875 53.515625 30.90625 
L 53.515625 0 
L 44.484375 0 
L 44.484375 32.71875 
Q 44.484375 40.625 41.703125 44.40625 
Q 38.921875 48.1875 33.109375 48.1875 
Q 26.21875 48.1875 22.15625 43.53125 
Q 18.109375 38.875 18.109375 30.90625 
L 18.109375 0 
L 9.078125 0 
L 9.078125 54.6875 
L 18.109375 54.6875 
L 18.109375 46.1875 
Q 21.1875 51.21875 25.484375 53.609375 
Q 29.78125 56 35.6875 56 
Q 41.65625 56 45.828125 52.96875 
Q 50 49.953125 52 44.1875 
z
" id="DejaVuSans-109"/>
      <path d="M 50.984375 -16.609375 
L 50.984375 -23.578125 
L -0.984375 -23.578125 
L -0.984375 -16.609375 
z
" id="DejaVuSans-95"/>
      <path d="M 18.3125 70.21875 
L 18.3125 54.6875 
L 36.8125 54.6875 
L 36.8125 47.703125 
L 18.3125 47.703125 
L 18.3125 18.015625 
Q 18.3125 11.328125 20.140625 9.421875 
Q 21.96875 7.515625 27.59375 7.515625 
L 36.8125 7.515625 
L 36.8125 0 
L 27.59375 0 
Q 17.1875 0 13.234375 3.875 
Q 9.28125 7.765625 9.28125 18.015625 
L 9.28125 47.703125 
L 2.6875 47.703125 
L 2.6875 54.6875 
L 9.28125 54.6875 
L 9.28125 70.21875 
z
" id="DejaVuSans-116"/>
      <path d="M 41.109375 46.296875 
Q 39.59375 47.171875 37.8125 47.578125 
Q 36.03125 48 33.890625 48 
Q 26.265625 48 22.1875 43.046875 
Q 18.109375 38.09375 18.109375 28.8125 
L 18.109375 0 
L 9.078125 0 
L 9.078125 54.6875 
L 18.109375 54.6875 
L 18.109375 46.1875 
Q 20.953125 51.171875 25.484375 53.578125 
Q 30.03125 56 36.53125 56 
Q 37.453125 56 38.578125 55.875 
Q 39.703125 55.765625 41.0625 55.515625 
z
" id="DejaVuSans-114"/>
      <path d="M 9.421875 54.6875 
L 18.40625 54.6875 
L 18.40625 0 
L 9.421875 0 
z
M 9.421875 75.984375 
L 18.40625 75.984375 
L 18.40625 64.59375 
L 9.421875 64.59375 
z
" id="DejaVuSans-105"/>
      <path d="M 34.28125 27.484375 
Q 23.390625 27.484375 19.1875 25 
Q 14.984375 22.515625 14.984375 16.5 
Q 14.984375 11.71875 18.140625 8.90625 
Q 21.296875 6.109375 26.703125 6.109375 
Q 34.1875 6.109375 38.703125 11.40625 
Q 43.21875 16.703125 43.21875 25.484375 
L 43.21875 27.484375 
z
M 52.203125 31.203125 
L 52.203125 0 
L 43.21875 0 
L 43.21875 8.296875 
Q 40.140625 3.328125 35.546875 0.953125 
Q 30.953125 -1.421875 24.3125 -1.421875 
Q 15.921875 -1.421875 10.953125 3.296875 
Q 6 8.015625 6 15.921875 
Q 6 25.140625 12.171875 29.828125 
Q 18.359375 34.515625 30.609375 34.515625 
L 43.21875 34.515625 
L 43.21875 35.40625 
Q 43.21875 41.609375 39.140625 45 
Q 35.0625 48.390625 27.6875 48.390625 
Q 23 48.390625 18.546875 47.265625 
Q 14.109375 46.140625 10.015625 43.890625 
L 10.015625 52.203125 
Q 14.9375 54.109375 19.578125 55.046875 
Q 24.21875 56 28.609375 56 
Q 40.484375 56 46.34375 49.84375 
Q 52.203125 43.703125 52.203125 31.203125 
z
" id="DejaVuSans-97"/>
      <path d="M 9.421875 75.984375 
L 18.40625 75.984375 
L 18.40625 0 
L 9.421875 0 
z
" id="DejaVuSans-108"/>
     </defs>
     <g transform="translate(212.594375 335.860562)scale(0.1 -0.1)">
      <use xlink:href="#DejaVuSans-110"/>
      <use x="63.378906" xlink:href="#DejaVuSans-117"/>
      <use x="126.757812" xlink:href="#DejaVuSans-109"/>
      <use x="224.169922" xlink:href="#DejaVuSans-95"/>
      <use x="274.169922" xlink:href="#DejaVuSans-116"/>
      <use x="313.378906" xlink:href="#DejaVuSans-114"/>
      <use x="354.492188" xlink:href="#DejaVuSans-105"/>
      <use x="382.275391" xlink:href="#DejaVuSans-97"/>
      <use x="443.554688" xlink:href="#DejaVuSans-108"/>
     </g>
    </g>
   </g>
   <g id="matplotlib.axis_2">
    <g id="ytick_1">
     <g id="line2d_6">
      <defs>
       <path d="M 0 0 
L -3.5 0 
" id="m3afe9f5731" style="stroke:#000000;stroke-width:0.8;"/>
      </defs>
      <g>
       <use style="stroke:#000000;stroke-width:0.8;" x="57.6" xlink:href="#m3afe9f5731" y="280.2302"/>
      </g>
     </g>
     <g id="text_7">
      <!-- 0.2 -->
      <defs>
       <path d="M 10.6875 12.40625 
L 21 12.40625 
L 21 0 
L 10.6875 0 
z
" id="DejaVuSans-46"/>
      </defs>
      <g style="fill:#1f77b4;" transform="translate(34.696875 284.029419)scale(0.1 -0.1)">
       <use xlink:href="#DejaVuSans-48"/>
       <use x="63.623047" xlink:href="#DejaVuSans-46"/>
       <use x="95.410156" xlink:href="#DejaVuSans-50"/>
      </g>
     </g>
    </g>
    <g id="ytick_2">
     <g id="line2d_7">
      <g>
       <use style="stroke:#000000;stroke-width:0.8;" x="57.6" xlink:href="#m3afe9f5731" y="234.262691"/>
      </g>
     </g>
     <g id="text_8">
      <!-- 0.3 -->
      <g style="fill:#1f77b4;" transform="translate(34.696875 238.06191)scale(0.1 -0.1)">
       <use xlink:href="#DejaVuSans-48"/>
       <use x="63.623047" xlink:href="#DejaVuSans-46"/>
       <use x="95.410156" xlink:href="#DejaVuSans-51"/>
      </g>
     </g>
    </g>
    <g id="ytick_3">
     <g id="line2d_8">
      <g>
       <use style="stroke:#000000;stroke-width:0.8;" x="57.6" xlink:href="#m3afe9f5731" y="188.295183"/>
      </g>
     </g>
     <g id="text_9">
      <!-- 0.4 -->
      <g style="fill:#1f77b4;" transform="translate(34.696875 192.094401)scale(0.1 -0.1)">
       <use xlink:href="#DejaVuSans-48"/>
       <use x="63.623047" xlink:href="#DejaVuSans-46"/>
       <use x="95.410156" xlink:href="#DejaVuSans-52"/>
      </g>
     </g>
    </g>
    <g id="ytick_4">
     <g id="line2d_9">
      <g>
       <use style="stroke:#000000;stroke-width:0.8;" x="57.6" xlink:href="#m3afe9f5731" y="142.327674"/>
      </g>
     </g>
     <g id="text_10">
      <!-- 0.5 -->
      <defs>
       <path d="M 10.796875 72.90625 
L 49.515625 72.90625 
L 49.515625 64.59375 
L 19.828125 64.59375 
L 19.828125 46.734375 
Q 21.96875 47.46875 24.109375 47.828125 
Q 26.265625 48.1875 28.421875 48.1875 
Q 40.625 48.1875 47.75 41.5 
Q 54.890625 34.8125 54.890625 23.390625 
Q 54.890625 11.625 47.5625 5.09375 
Q 40.234375 -1.421875 26.90625 -1.421875 
Q 22.3125 -1.421875 17.546875 -0.640625 
Q 12.796875 0.140625 7.71875 1.703125 
L 7.71875 11.625 
Q 12.109375 9.234375 16.796875 8.0625 
Q 21.484375 6.890625 26.703125 6.890625 
Q 35.15625 6.890625 40.078125 11.328125 
Q 45.015625 15.765625 45.015625 23.390625 
Q 45.015625 31 40.078125 35.4375 
Q 35.15625 39.890625 26.703125 39.890625 
Q 22.75 39.890625 18.8125 39.015625 
Q 14.890625 38.140625 10.796875 36.28125 
z
" id="DejaVuSans-53"/>
      </defs>
      <g style="fill:#1f77b4;" transform="translate(34.696875 146.126893)scale(0.1 -0.1)">
       <use xlink:href="#DejaVuSans-48"/>
       <use x="63.623047" xlink:href="#DejaVuSans-46"/>
       <use x="95.410156" xlink:href="#DejaVuSans-53"/>
      </g>
     </g>
    </g>
    <g id="ytick_5">
     <g id="line2d_10">
      <g>
       <use style="stroke:#000000;stroke-width:0.8;" x="57.6" xlink:href="#m3afe9f5731" y="96.360165"/>
      </g>
     </g>
     <g id="text_11">
      <!-- 0.6 -->
      <defs>
       <path d="M 33.015625 40.375 
Q 26.375 40.375 22.484375 35.828125 
Q 18.609375 31.296875 18.609375 23.390625 
Q 18.609375 15.53125 22.484375 10.953125 
Q 26.375 6.390625 33.015625 6.390625 
Q 39.65625 6.390625 43.53125 10.953125 
Q 47.40625 15.53125 47.40625 23.390625 
Q 47.40625 31.296875 43.53125 35.828125 
Q 39.65625 40.375 33.015625 40.375 
z
M 52.59375 71.296875 
L 52.59375 62.3125 
Q 48.875 64.0625 45.09375 64.984375 
Q 41.3125 65.921875 37.59375 65.921875 
Q 27.828125 65.921875 22.671875 59.328125 
Q 17.53125 52.734375 16.796875 39.40625 
Q 19.671875 43.65625 24.015625 45.921875 
Q 28.375 48.1875 33.59375 48.1875 
Q 44.578125 48.1875 50.953125 41.515625 
Q 57.328125 34.859375 57.328125 23.390625 
Q 57.328125 12.15625 50.6875 5.359375 
Q 44.046875 -1.421875 33.015625 -1.421875 
Q 20.359375 -1.421875 13.671875 8.265625 
Q 6.984375 17.96875 6.984375 36.375 
Q 6.984375 53.65625 15.1875 63.9375 
Q 23.390625 74.21875 37.203125 74.21875 
Q 40.921875 74.21875 44.703125 73.484375 
Q 48.484375 72.75 52.59375 71.296875 
z
" id="DejaVuSans-54"/>
      </defs>
      <g style="fill:#1f77b4;" transform="translate(34.696875 100.159384)scale(0.1 -0.1)">
       <use xlink:href="#DejaVuSans-48"/>
       <use x="63.623047" xlink:href="#DejaVuSans-46"/>
       <use x="95.410156" xlink:href="#DejaVuSans-54"/>
      </g>
     </g>
    </g>
    <g id="ytick_6">
     <g id="line2d_11">
      <g>
       <use style="stroke:#000000;stroke-width:0.8;" x="57.6" xlink:href="#m3afe9f5731" y="50.392656"/>
      </g>
     </g>
     <g id="text_12">
      <!-- 0.7 -->
      <defs>
       <path d="M 8.203125 72.90625 
L 55.078125 72.90625 
L 55.078125 68.703125 
L 28.609375 0 
L 18.3125 0 
L 43.21875 64.59375 
L 8.203125 64.59375 
z
" id="DejaVuSans-55"/>
      </defs>
      <g style="fill:#1f77b4;" transform="translate(34.696875 54.191875)scale(0.1 -0.1)">
       <use xlink:href="#DejaVuSans-48"/>
       <use x="63.623047" xlink:href="#DejaVuSans-46"/>
       <use x="95.410156" xlink:href="#DejaVuSans-55"/>
      </g>
     </g>
    </g>
    <g id="text_13">
     <!-- response_time -->
     <defs>
      <path d="M 56.203125 29.59375 
L 56.203125 25.203125 
L 14.890625 25.203125 
Q 15.484375 15.921875 20.484375 11.0625 
Q 25.484375 6.203125 34.421875 6.203125 
Q 39.59375 6.203125 44.453125 7.46875 
Q 49.3125 8.734375 54.109375 11.28125 
L 54.109375 2.78125 
Q 49.265625 0.734375 44.1875 -0.34375 
Q 39.109375 -1.421875 33.890625 -1.421875 
Q 20.796875 -1.421875 13.15625 6.1875 
Q 5.515625 13.8125 5.515625 26.8125 
Q 5.515625 40.234375 12.765625 48.109375 
Q 20.015625 56 32.328125 56 
Q 43.359375 56 49.78125 48.890625 
Q 56.203125 41.796875 56.203125 29.59375 
z
M 47.21875 32.234375 
Q 47.125 39.59375 43.09375 43.984375 
Q 39.0625 48.390625 32.421875 48.390625 
Q 24.90625 48.390625 20.390625 44.140625 
Q 15.875 39.890625 15.1875 32.171875 
z
" id="DejaVuSans-101"/>
      <path d="M 44.28125 53.078125 
L 44.28125 44.578125 
Q 40.484375 46.53125 36.375 47.5 
Q 32.28125 48.484375 27.875 48.484375 
Q 21.1875 48.484375 17.84375 46.4375 
Q 14.5 44.390625 14.5 40.28125 
Q 14.5 37.15625 16.890625 35.375 
Q 19.28125 33.59375 26.515625 31.984375 
L 29.59375 31.296875 
Q 39.15625 29.25 43.1875 25.515625 
Q 47.21875 21.78125 47.21875 15.09375 
Q 47.21875 7.46875 41.1875 3.015625 
Q 35.15625 -1.421875 24.609375 -1.421875 
Q 20.21875 -1.421875 15.453125 -0.5625 
Q 10.6875 0.296875 5.421875 2 
L 5.421875 11.28125 
Q 10.40625 8.6875 15.234375 7.390625 
Q 20.0625 6.109375 24.8125 6.109375 
Q 31.15625 6.109375 34.5625 8.28125 
Q 37.984375 10.453125 37.984375 14.40625 
Q 37.984375 18.0625 35.515625 20.015625 
Q 33.0625 21.96875 24.703125 23.78125 
L 21.578125 24.515625 
Q 13.234375 26.265625 9.515625 29.90625 
Q 5.8125 33.546875 5.8125 39.890625 
Q 5.8125 47.609375 11.28125 51.796875 
Q 16.75 56 26.8125 56 
Q 31.78125 56 36.171875 55.265625 
Q 40.578125 54.546875 44.28125 53.078125 
z
" id="DejaVuSans-115"/>
      <path d="M 18.109375 8.203125 
L 18.109375 -20.796875 
L 9.078125 -20.796875 
L 9.078125 54.6875 
L 18.109375 54.6875 
L 18.109375 46.390625 
Q 20.953125 51.265625 25.265625 53.625 
Q 29.59375 56 35.59375 56 
Q 45.5625 56 51.78125 48.09375 
Q 58.015625 40.1875 58.015625 27.296875 
Q 58.015625 14.40625 51.78125 6.484375 
Q 45.5625 -1.421875 35.59375 -1.421875 
Q 29.59375 -1.421875 25.265625 0.953125 
Q 20.953125 3.328125 18.109375 8.203125 
z
M 48.6875 27.296875 
Q 48.6875 37.203125 44.609375 42.84375 
Q 40.53125 48.484375 33.40625 48.484375 
Q 26.265625 48.484375 22.1875 42.84375 
Q 18.109375 37.203125 18.109375 27.296875 
Q 18.109375 17.390625 22.1875 11.75 
Q 26.265625 6.109375 33.40625 6.109375 
Q 40.53125 6.109375 44.609375 11.75 
Q 48.6875 17.390625 48.6875 27.296875 
z
" id="DejaVuSans-112"/>
      <path d="M 30.609375 48.390625 
Q 23.390625 48.390625 19.1875 42.75 
Q 14.984375 37.109375 14.984375 27.296875 
Q 14.984375 17.484375 19.15625 11.84375 
Q 23.34375 6.203125 30.609375 6.203125 
Q 37.796875 6.203125 41.984375 11.859375 
Q 46.1875 17.53125 46.1875 27.296875 
Q 46.1875 37.015625 41.984375 42.703125 
Q 37.796875 48.390625 30.609375 48.390625 
z
M 30.609375 56 
Q 42.328125 56 49.015625 48.375 
Q 55.71875 40.765625 55.71875 27.296875 
Q 55.71875 13.875 49.015625 6.21875 
Q 42.328125 -1.421875 30.609375 -1.421875 
Q 18.84375 -1.421875 12.171875 6.21875 
Q 5.515625 13.875 5.515625 27.296875 
Q 5.515625 40.765625 12.171875 48.375 
Q 18.84375 56 30.609375 56 
z
" id="DejaVuSans-111"/>
     </defs>
     <g style="fill:#1f77b4;" transform="translate(28.339062 211.142844)rotate(-90)scale(0.1 -0.1)">
      <use xlink:href="#DejaVuSans-114"/>
      <use x="41.082031" xlink:href="#DejaVuSans-101"/>
      <use x="102.605469" xlink:href="#DejaVuSans-115"/>
      <use x="154.705078" xlink:href="#DejaVuSans-112"/>
      <use x="218.181641" xlink:href="#DejaVuSans-111"/>
      <use x="279.363281" xlink:href="#DejaVuSans-110"/>
      <use x="342.742188" xlink:href="#DejaVuSans-115"/>
      <use x="394.841797" xlink:href="#DejaVuSans-101"/>
      <use x="456.365234" xlink:href="#DejaVuSans-95"/>
      <use x="506.365234" xlink:href="#DejaVuSans-116"/>
      <use x="545.574219" xlink:href="#DejaVuSans-105"/>
      <use x="573.357422" xlink:href="#DejaVuSans-109"/>
      <use x="670.769531" xlink:href="#DejaVuSans-101"/>
     </g>
    </g>
   </g>
   <g id="line2d_12">
    <path clip-path="url(#pfb1b98ac35)" d="M 73.832727 92.137427 
L 74.602051 210.5804 
L 75.371374 233.298757 
L 76.140698 227.184222 
L 76.910022 213.651385 
L 77.679345 224.417094 
L 78.448669 215.41991 
L 79.217992 227.806519 
L 79.987316 228.023125 
L 80.756639 238.347589 
L 81.525963 243.054893 
L 82.295287 242.489944 
L 83.06461 244.384532 
L 84.603257 170.787781 
L 85.372581 215.746251 
L 86.141904 243.843128 
L 86.911228 240.182006 
L 87.680551 240.01746 
L 88.449875 226.674549 
L 89.219199 250.272414 
L 89.988522 219.78737 
L 90.757846 248.336378 
L 91.527169 247.620872 
L 92.296493 242.527294 
L 93.065816 230.584126 
L 94.604464 210.213765 
L 95.373787 230.807128 
L 96.143111 242.103618 
L 96.912434 244.078776 
L 97.681758 252.680547 
L 99.220405 242.182184 
L 99.989729 237.737864 
L 100.759052 255.92027 
L 101.528376 242.205004 
L 102.297699 247.213201 
L 103.067023 262.286749 
L 104.60567 215.988177 
L 105.374994 240.911329 
L 106.144317 254.482275 
L 106.913641 253.993126 
L 107.682964 252.855225 
L 108.452288 232.035525 
L 109.221611 239.573374 
L 109.990935 201.690241 
L 110.760259 261.595784 
L 111.529582 246.080835 
L 112.298906 254.96446 
L 113.068229 270.538294 
L 113.837553 248.266873 
L 114.606876 240.768398 
L 115.3762 268.763909 
L 116.145523 253.689219 
L 116.914847 230.349781 
L 117.684171 268.067599 
L 118.453494 255.847974 
L 119.222818 257.360083 
L 120.761465 196.045822 
L 121.530788 233.016402 
L 122.300112 232.92423 
L 123.069436 263.86189 
L 123.838759 241.584174 
L 124.608083 241.63178 
L 125.377406 244.831765 
L 126.916053 259.056474 
L 127.685377 256.670523 
L 128.454701 253.778559 
L 129.224024 249.29879 
L 130.762671 216.390002 
L 131.531995 253.128147 
L 132.301318 250.576928 
L 133.070642 250.725333 
L 133.839966 256.424518 
L 134.609289 257.628327 
L 135.378613 268.899149 
L 136.147936 253.112143 
L 136.91726 256.946979 
L 137.686583 252.578879 
L 138.455907 263.949732 
L 139.225231 262.803144 
L 140.763878 222.389196 
L 141.533201 249.771913 
L 142.302525 247.116754 
L 143.071848 271.538046 
L 143.841172 246.96133 
L 144.610495 249.632196 
L 145.379819 237.352394 
L 146.149143 221.074373 
L 146.918466 250.01821 
L 147.68779 260.028835 
L 148.457113 254.901084 
L 149.226437 281.556492 
L 149.99576 238.243972 
L 150.765084 241.898833 
L 151.534408 266.399182 
L 152.303731 263.264037 
L 153.073055 251.019948 
L 153.842378 253.345566 
L 154.611702 236.359422 
L 155.381025 249.754128 
L 156.919673 211.225922 
L 157.688996 235.188496 
L 158.45832 241.548643 
L 159.227643 260.013803 
L 159.996967 247.330854 
L 160.76629 228.199641 
L 161.535614 244.547313 
L 163.074261 251.553655 
L 163.843585 251.826552 
L 164.612908 243.733385 
L 165.382232 263.159628 
L 166.920879 220.154126 
L 167.690202 253.122661 
L 168.459526 255.644006 
L 169.22885 258.934229 
L 169.998173 247.302436 
L 170.767497 258.21104 
L 171.53682 240.514723 
L 172.306144 256.598601 
L 173.075467 265.75258 
L 173.844791 267.289729 
L 174.614115 257.815464 
L 175.383438 257.309992 
L 176.922085 240.252725 
L 177.691409 257.892647 
L 178.460732 258.903267 
L 179.230056 257.847737 
L 179.99938 262.463581 
L 180.768703 251.857442 
L 181.538027 260.408684 
L 182.30735 236.477783 
L 183.076674 251.544035 
L 183.845997 249.242306 
L 184.615321 252.600475 
L 186.153968 258.270306 
L 186.923292 243.749736 
L 187.692615 264.366097 
L 188.461939 266.094775 
L 189.231262 255.057644 
L 190.000586 262.539001 
L 191.539233 243.478512 
L 193.07788 228.704465 
L 193.847204 254.1672 
L 194.616527 237.089424 
L 195.385851 271.938924 
L 196.155174 248.441778 
L 196.924498 240.094039 
L 197.693822 248.39051 
L 198.463145 252.097114 
L 199.232469 266.438322 
L 200.001792 258.790413 
L 200.771116 271.24024 
L 201.540439 267.129237 
L 203.079087 229.897318 
L 203.84841 259.392291 
L 204.617734 266.144614 
L 205.387057 263.355847 
L 206.156381 268.322224 
L 206.925704 258.016183 
L 207.695028 272.109856 
L 208.464352 260.770593 
L 209.233675 261.489693 
L 210.002999 263.837944 
L 210.772322 260.138253 
L 211.541646 259.574899 
L 213.080293 240.381978 
L 214.61894 259.277111 
L 215.388264 262.525817 
L 216.157587 260.454644 
L 216.926911 256.941414 
L 217.696234 257.736372 
L 218.465558 224.789516 
L 219.234882 250.807483 
L 220.004205 247.036567 
L 220.773529 261.97685 
L 221.542852 257.089763 
L 222.312176 262.452307 
L 223.081499 262.468821 
L 223.850823 262.720812 
L 224.620146 244.612451 
L 225.38947 251.124108 
L 226.158794 265.5438 
L 226.928117 254.737084 
L 229.236088 245.358853 
L 230.005411 249.589214 
L 230.774735 260.242629 
L 231.544059 264.968504 
L 232.313382 265.350139 
L 233.082706 252.969945 
L 233.852029 260.714382 
L 234.621353 248.291809 
L 235.390676 257.567463 
L 236.16 270.287685 
L 236.929324 257.301736 
L 237.698647 258.19798 
L 239.237294 225.573347 
L 240.006618 253.504156 
L 240.775941 264.039074 
L 241.545265 261.988445 
L 242.314589 263.041406 
L 243.083912 262.821436 
L 243.853236 255.01807 
L 244.622559 264.87919 
L 245.391883 269.716175 
L 246.161206 257.002982 
L 246.93053 255.732679 
L 247.699854 252.679517 
L 249.238501 244.312891 
L 250.007824 260.728546 
L 250.777148 262.02429 
L 251.546471 271.575465 
L 252.315795 258.303343 
L 253.085118 264.409293 
L 253.854442 265.871008 
L 254.623766 249.798762 
L 255.393089 260.006755 
L 256.162413 260.516613 
L 256.931736 271.552246 
L 257.70106 270.968714 
L 258.470383 253.490992 
L 259.239707 261.100063 
L 260.009031 256.162393 
L 260.778354 265.951827 
L 261.547678 265.598648 
L 262.317001 276.219328 
L 263.086325 260.894836 
L 263.855648 257.414164 
L 265.394296 240.465581 
L 266.163619 256.111509 
L 266.932943 265.952292 
L 267.702266 271.970849 
L 268.47159 247.951716 
L 269.240913 265.974652 
L 270.010237 250.638782 
L 270.779561 261.774004 
L 271.548884 254.344865 
L 272.318208 258.371776 
L 273.087531 261.545196 
L 273.856855 266.980265 
L 275.395502 244.241372 
L 276.164826 275.026019 
L 276.934149 263.431865 
L 277.703473 257.143705 
L 278.472796 264.837153 
L 279.24212 259.017762 
L 280.011443 260.123072 
L 280.780767 268.402015 
L 281.55009 272.006076 
L 282.319414 282.172328 
L 283.858061 261.77566 
L 285.396708 240.951075 
L 286.166032 255.357014 
L 286.935355 267.670358 
L 287.704679 267.30763 
L 288.474003 277.953701 
L 289.243326 286.24083 
L 290.01265 257.24212 
L 290.781973 242.87815 
L 291.551297 279.894226 
L 292.32062 268.510869 
L 293.089944 272.376054 
L 293.859268 278.987092 
L 294.628591 265.033515 
L 295.397915 246.732109 
L 296.167238 257.791139 
L 296.936562 255.45735 
L 298.475209 275.066624 
L 299.244533 259.678968 
L 300.013856 257.434198 
L 301.552503 241.131837 
L 302.321827 253.261993 
L 303.09115 262.298499 
L 303.860474 265.470292 
L 304.629798 255.63526 
L 305.399121 260.667757 
L 306.168445 256.606971 
L 306.937768 258.831176 
L 307.707092 264.523536 
L 308.476415 262.37512 
L 309.245739 268.725661 
L 310.015062 263.988026 
L 311.55371 243.73008 
L 312.323033 270.207685 
L 313.092357 269.874163 
L 313.86168 275.63066 
L 315.400327 251.854392 
L 316.169651 273.422064 
L 316.938975 260.316024 
L 317.708298 270.166283 
L 318.477622 268.304218 
L 319.246945 267.206094 
L 320.016269 271.623856 
L 321.554916 249.601186 
L 322.32424 267.771034 
L 323.093563 259.323207 
L 323.862887 256.16148 
L 324.63221 266.514035 
L 325.401534 268.301509 
L 326.170857 264.158075 
L 326.940181 198.89167 
L 327.709505 216.260339 
L 328.478828 195.427387 
L 329.248152 209.518627 
L 330.017475 213.994606 
L 330.786799 238.113193 
L 331.556122 220.880088 
L 332.325446 219.474816 
L 333.864093 239.655311 
L 335.40274 198.753669 
L 336.172064 260.745225 
L 337.710711 204.265368 
L 338.480034 233.245189 
L 339.249358 232.265765 
L 340.018682 220.018666 
L 340.788005 225.54989 
L 341.557329 240.046009 
L 342.326652 221.783279 
L 343.095976 233.277336 
L 344.634623 250.604058 
L 345.403947 219.28058 
L 346.17327 255.073871 
L 347.711917 234.741801 
L 348.481241 235.157171 
L 349.250564 232.140256 
L 350.019888 231.541353 
L 351.558535 244.058346 
L 352.327859 260.646964 
L 353.097182 252.645266 
L 353.866506 250.225684 
L 354.635829 243.763659 
L 355.405153 252.426535 
L 356.174477 257.003464 
L 357.713124 232.866161 
L 358.482447 248.325364 
L 359.251771 254.617674 
L 360.021094 255.31116 
L 360.790418 238.822249 
L 361.559741 268.832376 
L 362.329065 246.884426 
L 363.098389 190.09124 
L 363.867712 229.517737 
L 364.637036 191.666435 
L 365.406359 199.994612 
L 366.175683 225.918049 
L 366.945006 243.900076 
L 367.71433 204.569076 
L 368.483654 244.699534 
L 369.252977 229.969432 
L 370.791624 252.802493 
L 371.560948 235.570463 
L 372.330271 236.978787 
L 373.868919 244.795624 
L 374.638242 246.047505 
L 375.407566 248.116191 
L 376.176889 265.791097 
L 376.946213 242.753059 
L 377.715536 224.850554 
L 378.48486 250.522097 
L 379.254184 241.20015 
L 380.023507 271.121714 
L 380.792831 239.230244 
L 381.562154 269.931089 
L 382.331478 257.535351 
L 383.870125 252.905552 
L 384.639449 240.8163 
L 385.408772 250.887503 
L 386.178096 265.236644 
L 386.947419 242.711787 
L 387.716743 259.549239 
L 388.486066 262.064939 
L 389.25539 266.548625 
L 390.024713 249.151712 
L 390.794037 264.808706 
L 391.563361 230.259507 
L 392.332684 255.725671 
L 393.871331 233.361885 
L 394.640655 219.213696 
L 395.409978 248.572538 
L 396.179302 245.572207 
L 396.948626 252.742872 
L 397.717949 279.790413 
L 398.487273 252.015432 
L 398.487273 252.015432 
" style="fill:none;stroke:#1f77b4;stroke-linecap:square;stroke-width:1.5;"/>
   </g>
   <g id="patch_3">
    <path d="M 57.6 307.584 
L 57.6 41.472 
" style="fill:none;stroke:#000000;stroke-linecap:square;stroke-linejoin:miter;stroke-width:0.8;"/>
   </g>
   <g id="patch_4">
    <path d="M 414.72 307.584 
L 414.72 41.472 
" style="fill:none;stroke:#000000;stroke-linecap:square;stroke-linejoin:miter;stroke-width:0.8;"/>
   </g>
   <g id="patch_5">
    <path d="M 57.6 307.584 
L 414.72 307.584 
" style="fill:none;stroke:#000000;stroke-linecap:square;stroke-linejoin:miter;stroke-width:0.8;"/>
   </g>
   <g id="patch_6">
    <path d="M 57.6 41.472 
L 414.72 41.472 
" style="fill:none;stroke:#000000;stroke-linecap:square;stroke-linejoin:miter;stroke-width:0.8;"/>
   </g>
  </g>
  <g id="axes_2">
   <g id="PolyCollection_2">
    <defs>
     <path d="M 73.832727 -86.534564 
L 73.832727 -50.112 
L 74.602051 -118.91474 
L 75.371374 -129.942077 
L 76.140698 -152.537356 
L 76.910022 -124.286777 
L 77.679345 -197.649018 
L 78.448669 -206.787729 
L 79.217992 -205.4179 
L 79.987316 -246.774458 
L 80.756639 -160.060789 
L 81.525963 -221.557835 
L 82.295287 -197.649018 
L 83.06461 -213.998262 
L 84.603257 -139.14253 
L 85.372581 -194.655888 
L 86.141904 -197.649018 
L 86.911228 -228.778722 
L 87.680551 -197.649018 
L 88.449875 -185.067013 
L 89.219199 -211.768868 
L 89.988522 -200.425401 
L 90.757846 -223.558589 
L 91.527169 -213.998262 
L 92.296493 -213.998262 
L 93.065816 -192.370324 
L 94.604464 -190.567728 
L 95.373787 -227.155418 
L 96.143111 -216.07774 
L 96.912434 -211.768868 
L 97.681758 -228.778722 
L 98.451081 -227.155418 
L 99.220405 -242.411 
L 99.989729 -211.768868 
L 100.759052 -250.221471 
L 101.528376 -263.244218 
L 102.297699 -264.531356 
L 103.067023 -219.845261 
L 104.60567 -214.53156 
L 105.374994 -206.787729 
L 106.144317 -235.93173 
L 106.913641 -232.636365 
L 107.682964 -263.244218 
L 108.452288 -203.008343 
L 109.221611 -263.910521 
L 109.990935 -197.649018 
L 110.760259 -246.774458 
L 111.529582 -241.27693 
L 112.298906 -264.531356 
L 113.068229 -263.244218 
L 113.837553 -234.346068 
L 114.606876 -219.400302 
L 115.3762 -251.216725 
L 116.145523 -262.526948 
L 116.914847 -228.778722 
L 117.684171 -257.903195 
L 118.453494 -263.244218 
L 119.222818 -203.008343 
L 120.761465 -194.655888 
L 121.530788 -219.400302 
L 122.300112 -252.148036 
L 123.069436 -243.989977 
L 123.838759 -221.557835 
L 124.608083 -227.155418 
L 125.377406 -249.155107 
L 126.14673 -287.195655 
L 126.916053 -287.195655 
L 127.685377 -250.221471 
L 128.454701 -237.406839 
L 129.224024 -287.195655 
L 130.762671 -230.300449 
L 131.531995 -287.195655 
L 132.301318 -265.111443 
L 133.070642 -266.645395 
L 133.839966 -252.148036 
L 134.609289 -265.111443 
L 135.378613 -253.842916 
L 136.147936 -253.842916 
L 136.91726 -264.531356 
L 137.686583 -248.009328 
L 138.455907 -287.195655 
L 139.225231 -287.195655 
L 140.763878 -200.956779 
L 141.533201 -262.526948 
L 142.302525 -235.93173 
L 143.071848 -232.636365 
L 143.841172 -263.244218 
L 144.610495 -264.531356 
L 145.379819 -235.93173 
L 146.149143 -240.070108 
L 146.918466 -287.195655 
L 147.68779 -253.021624 
L 148.457113 -287.195655 
L 149.226437 -263.244218 
L 149.99576 -248.009328 
L 150.765084 -246.774458 
L 151.534408 -251.216725 
L 152.303731 -287.195655 
L 153.073055 -240.070108 
L 153.842378 -238.782968 
L 154.611702 -197.649018 
L 155.381025 -237.406839 
L 156.919673 -206.787729 
L 157.688996 -232.636365 
L 158.45832 -287.195655 
L 159.227643 -260.912553 
L 159.996967 -209.37212 
L 160.76629 -238.782968 
L 161.535614 -263.910521 
L 162.304938 -249.155107 
L 163.074261 -263.910521 
L 163.843585 -264.531356 
L 164.612908 -203.008343 
L 165.382232 -264.531356 
L 166.920879 -241.27693 
L 167.690202 -216.07774 
L 168.459526 -287.195655 
L 169.22885 -231.730161 
L 169.998173 -240.070108 
L 170.767497 -265.111443 
L 171.53682 -231.730161 
L 172.306144 -253.842916 
L 173.075467 -250.221471 
L 173.844791 -248.009328 
L 174.614115 -264.531356 
L 175.383438 -287.195655 
L 176.922085 -260.912553 
L 177.691409 -246.774458 
L 178.460732 -263.910521 
L 179.230056 -262.526948 
L 179.99938 -287.195655 
L 180.768703 -225.41958 
L 181.538027 -235.93173 
L 182.30735 -240.070108 
L 183.076674 -219.400302 
L 183.845997 -287.195655 
L 184.615321 -264.531356 
L 185.384645 -221.557835 
L 186.153968 -248.009328 
L 186.923292 -232.636365 
L 187.692615 -265.111443 
L 188.461939 -246.774458 
L 189.231262 -252.148036 
L 190.000586 -238.782968 
L 190.76991 -221.557835 
L 191.539233 -192.370324 
L 193.07788 -262.526948 
L 193.847204 -232.636365 
L 194.616527 -252.148036 
L 195.385851 -287.195655 
L 196.155174 -263.244218 
L 196.924498 -251.216725 
L 197.693822 -263.910521 
L 198.463145 -249.155107 
L 199.232469 -287.195655 
L 200.001792 -225.41958 
L 200.771116 -250.221471 
L 201.540439 -250.221471 
L 203.079087 -253.021624 
L 203.84841 -216.07774 
L 204.617734 -265.111443 
L 205.387057 -266.645395 
L 206.156381 -265.654861 
L 206.925704 -287.195655 
L 207.695028 -253.842916 
L 208.464352 -242.411 
L 209.233675 -287.195655 
L 210.002999 -263.244218 
L 210.772322 -264.531356 
L 211.541646 -241.27693 
L 213.080293 -214.53156 
L 213.849617 -262.526948 
L 214.61894 -263.910521 
L 215.388264 -246.774458 
L 216.157587 -287.195655 
L 216.926911 -250.221471 
L 217.696234 -263.910521 
L 218.465558 -218.022375 
L 219.234882 -262.526948 
L 220.004205 -266.165148 
L 220.773529 -250.221471 
L 221.542852 -263.244218 
L 222.312176 -263.244218 
L 223.081499 -262.526948 
L 223.850823 -287.195655 
L 224.620146 -246.774458 
L 225.38947 -252.148036 
L 226.158794 -257.903195 
L 226.928117 -263.244218 
L 227.697441 -250.221471 
L 229.236088 -262.526948 
L 230.005411 -232.636365 
L 230.774735 -265.654861 
L 231.544059 -260.912553 
L 232.313382 -287.195655 
L 233.082706 -251.216725 
L 233.852029 -287.195655 
L 234.621353 -263.910521 
L 235.390676 -235.93173 
L 236.16 -264.531356 
L 236.929324 -237.406839 
L 237.698647 -264.531356 
L 239.237294 -209.784021 
L 240.006618 -251.216725 
L 240.775941 -251.216725 
L 241.545265 -287.195655 
L 242.314589 -265.654861 
L 243.083912 -251.216725 
L 243.853236 -231.730161 
L 244.622559 -242.411 
L 245.391883 -264.531356 
L 246.161206 -234.346068 
L 246.93053 -287.195655 
L 247.699854 -253.021624 
L 249.238501 -260.912553 
L 250.007824 -219.400302 
L 250.777148 -287.195655 
L 251.546471 -262.526948 
L 252.315795 -248.009328 
L 253.085118 -250.221471 
L 253.854442 -263.910521 
L 254.623766 -265.654861 
L 255.393089 -287.195655 
L 256.162413 -266.165148 
L 256.931736 -287.195655 
L 257.70106 -263.244218 
L 258.470383 -287.195655 
L 259.239707 -287.195655 
L 260.009031 -238.782968 
L 260.778354 -246.774458 
L 261.547678 -252.148036 
L 262.317001 -238.782968 
L 263.086325 -248.009328 
L 263.855648 -237.406839 
L 265.394296 -206.787729 
L 266.163619 -232.636365 
L 266.932943 -265.654861 
L 267.702266 -287.195655 
L 268.47159 -197.649018 
L 269.240913 -251.216725 
L 270.010237 -249.155107 
L 270.779561 -263.910521 
L 271.548884 -235.93173 
L 272.318208 -287.195655 
L 273.087531 -264.531356 
L 273.856855 -264.531356 
L 275.395502 -253.021624 
L 276.164826 -265.111443 
L 276.934149 -287.195655 
L 277.703473 -287.195655 
L 278.472796 -252.148036 
L 279.24212 -251.216725 
L 280.011443 -266.645395 
L 280.780767 -266.645395 
L 281.55009 -250.221471 
L 282.319414 -287.195655 
L 283.088738 -287.195655 
L 283.858061 -241.27693 
L 285.396708 -260.912553 
L 286.166032 -232.636365 
L 286.935355 -287.195655 
L 287.704679 -287.195655 
L 288.474003 -263.244218 
L 289.243326 -287.195655 
L 290.01265 -249.155107 
L 290.781973 -265.654861 
L 291.551297 -287.195655 
L 292.32062 -287.195655 
L 293.089944 -264.531356 
L 293.859268 -234.346068 
L 294.628591 -234.346068 
L 295.397915 -262.526948 
L 296.167238 -251.216725 
L 296.936562 -232.636365 
L 297.705885 -228.778722 
L 298.475209 -257.903195 
L 299.244533 -287.195655 
L 300.013856 -264.531356 
L 301.552503 -246.774458 
L 302.321827 -246.774458 
L 303.09115 -252.148036 
L 303.860474 -260.912553 
L 304.629798 -234.346068 
L 305.399121 -238.782968 
L 306.168445 -235.93173 
L 306.937768 -249.155107 
L 307.707092 -235.93173 
L 308.476415 -264.531356 
L 309.245739 -237.406839 
L 310.015062 -237.406839 
L 311.55371 -219.845261 
L 312.323033 -287.195655 
L 313.092357 -287.195655 
L 313.86168 -242.411 
L 314.631004 -265.654861 
L 315.400327 -251.216725 
L 316.169651 -231.730161 
L 316.938975 -242.411 
L 317.708298 -250.221471 
L 318.477622 -263.244218 
L 319.246945 -287.195655 
L 320.016269 -266.165148 
L 321.554916 -228.778722 
L 322.32424 -287.195655 
L 323.093563 -249.155107 
L 323.862887 -262.526948 
L 324.63221 -263.244218 
L 325.401534 -237.406839 
L 326.170857 -287.195655 
L 326.940181 -111.128465 
L 327.709505 -148.994097 
L 328.478828 -170.96984 
L 329.248152 -161.058898 
L 330.017475 -175.29184 
L 330.786799 -140.978826 
L 331.556122 -182.92118 
L 332.325446 -187.905607 
L 333.094769 -169.1315 
L 333.864093 -169.1315 
L 334.633417 -140.978826 
L 335.40274 -179.892016 
L 336.172064 -175.29184 
L 337.710711 -161.058898 
L 338.480034 -84.278445 
L 339.249358 -161.058898 
L 340.018682 -133.984994 
L 340.788005 -140.236859 
L 341.557329 -203.008343 
L 342.326652 -158.270207 
L 343.095976 -203.008343 
L 343.865299 -218.642935 
L 344.634623 -175.29184 
L 345.403947 -184.078452 
L 346.17327 -158.270207 
L 347.711917 -140.978826 
L 348.481241 -236.68234 
L 349.250564 -162.136472 
L 350.019888 -205.4179 
L 350.789212 -125.024034 
L 351.558535 -238.782968 
L 352.327859 -256.692175 
L 353.097182 -187.905607 
L 353.866506 -193.069705 
L 354.635829 -187.905607 
L 355.405153 -207.671429 
L 356.174477 -197.649018 
L 357.713124 -253.842916 
L 358.482447 -218.642935 
L 359.251771 -240.683062 
L 360.021094 -197.649018 
L 360.790418 -166.245509 
L 361.559741 -205.4179 
L 362.329065 -207.671429 
L 363.098389 -184.078452 
L 363.867712 -92.369744 
L 364.637036 -133.984994 
L 365.406359 -121.108992 
L 366.175683 -221.557835 
L 366.945006 -185.649708 
L 367.71433 -171.530979 
L 368.483654 -175.29184 
L 369.252977 -228.778722 
L 370.022301 -187.905607 
L 370.791624 -185.649708 
L 371.560948 -208.744477 
L 372.330271 -221.557835 
L 373.868919 -161.058898 
L 374.638242 -245.439143 
L 375.407566 -175.29184 
L 376.176889 -287.195655 
L 376.946213 -179.892016 
L 377.715536 -203.008343 
L 378.48486 -197.649018 
L 379.254184 -225.41958 
L 380.023507 -170.211876 
L 380.792831 -205.4179 
L 381.562154 -211.768868 
L 382.331478 -193.069705 
L 383.870125 -170.211876 
L 384.639449 -236.68234 
L 385.408772 -225.41958 
L 386.178096 -175.29184 
L 386.947419 -182.033308 
L 387.716743 -175.29184 
L 388.486066 -170.211876 
L 389.25539 -187.905607 
L 390.024713 -193.069705 
L 390.794037 -200.956779 
L 391.563361 -169.1315 
L 392.332684 -164.571292 
L 393.871331 -175.29184 
L 394.640655 -185.649708 
L 395.409978 -115.819923 
L 396.179302 -180.76051 
L 396.948626 -166.245509 
L 397.717949 -175.29184 
L 398.487273 -187.905607 
L 398.487273 -251.795011 
L 398.487273 -251.795011 
L 397.717949 -241.96033 
L 396.948626 -234.465699 
L 396.179302 -246.312856 
L 395.409978 -185.645513 
L 394.640655 -250.089419 
L 393.871331 -241.96033 
L 392.332684 -233.038485 
L 391.563361 -236.896446 
L 390.794037 -261.192287 
L 390.024713 -255.610293 
L 389.25539 -251.795011 
L 388.486066 -237.796815 
L 387.716743 -241.96033 
L 386.947419 -247.306488 
L 386.178096 -241.96033 
L 385.408772 -276.445973 
L 384.639449 -282.248096 
L 383.870125 -237.796815 
L 382.331478 -255.610293 
L 381.562154 -268.338958 
L 380.792831 -264.213983 
L 380.023507 -237.796815 
L 379.254184 -276.445973 
L 378.48486 -258.887937 
L 377.715536 -262.594332 
L 376.946213 -245.630635 
L 376.176889 -287.195655 
L 375.407566 -241.96033 
L 374.638242 -286.096037 
L 373.868919 -230.003415 
L 372.330271 -274.263905 
L 371.560948 -266.40106 
L 370.791624 -250.089419 
L 370.022301 -251.795011 
L 369.252977 -278.267242 
L 368.483654 -241.96033 
L 367.71433 -238.889054 
L 366.945006 -250.089419 
L 366.175683 -274.263905 
L 365.406359 -191.383752 
L 364.637036 -204.697606 
L 363.867712 -157.92209 
L 363.098389 -248.887632 
L 362.329065 -265.701862 
L 361.559741 -264.213983 
L 360.790418 -234.465699 
L 360.021094 -258.887937 
L 359.251771 -284.085361 
L 358.482447 -272.557065 
L 357.713124 -289.120565 
L 356.174477 -258.887937 
L 355.405153 -265.701862 
L 354.635829 -251.795011 
L 353.866506 -255.610293 
L 353.097182 -251.795011 
L 352.327859 -289.968698 
L 351.558535 -283.228628 
L 350.789212 -195.527127 
L 350.019888 -264.213983 
L 349.250564 -230.940446 
L 348.481241 -282.248096 
L 347.711917 -211.568992 
L 346.17327 -227.554135 
L 345.403947 -248.887632 
L 344.634623 -241.96033 
L 343.865299 -272.557065 
L 343.095976 -262.594332 
L 342.326652 -227.554135 
L 341.557329 -262.594332 
L 340.788005 -210.851463 
L 340.018682 -204.697606 
L 339.249358 -230.003415 
L 338.480034 -147.263834 
L 337.710711 -230.003415 
L 336.172064 -241.96033 
L 335.40274 -245.630635 
L 334.633417 -211.568992 
L 333.864093 -236.896446 
L 333.094769 -236.896446 
L 332.325446 -251.795011 
L 331.556122 -247.995263 
L 330.786799 -211.568992 
L 330.017475 -241.96033 
L 329.248152 -230.003415 
L 328.478828 -238.425373 
L 327.709505 -219.152092 
L 326.940181 -180.412393 
L 326.170857 -287.195655 
L 325.401534 -282.590153 
L 324.63221 -291.504699 
L 323.862887 -291.367952 
L 323.093563 -287.522809 
L 322.32424 -287.195655 
L 321.554916 -278.267242 
L 320.016269 -291.970388 
L 319.246945 -287.195655 
L 318.477622 -291.504699 
L 317.708298 -287.90696 
L 316.938975 -284.838567 
L 316.169651 -279.805493 
L 315.400327 -288.254775 
L 314.631004 -291.900112 
L 313.86168 -284.838567 
L 313.092357 -287.195655 
L 312.323033 -287.195655 
L 311.55371 -273.267183 
L 310.015062 -282.590153 
L 309.245739 -282.590153 
L 308.476415 -291.728514 
L 307.707092 -281.889489 
L 306.937768 -287.522809 
L 306.168445 -281.889489 
L 305.399121 -283.228628 
L 304.629798 -281.118064 
L 303.860474 -291.030307 
L 303.09115 -288.5706 
L 302.321827 -286.624032 
L 301.552503 -286.624032 
L 300.013856 -291.728514 
L 299.244533 -287.195655 
L 298.475209 -290.298258 
L 297.705885 -278.267242 
L 296.936562 -280.265716 
L 296.167238 -288.254775 
L 295.397915 -291.367952 
L 294.628591 -281.118064 
L 293.859268 -281.118064 
L 293.089944 -291.728514 
L 292.32062 -287.195655 
L 291.551297 -287.195655 
L 290.781973 -291.900112 
L 290.01265 -287.522809 
L 289.243326 -287.195655 
L 288.474003 -291.504699 
L 287.704679 -287.195655 
L 286.935355 -287.195655 
L 286.166032 -280.265716 
L 285.396708 -291.030307 
L 283.858061 -284.34706 
L 283.088738 -287.195655 
L 282.319414 -287.195655 
L 281.55009 -287.90696 
L 280.780767 -292.032 
L 280.011443 -292.032 
L 279.24212 -288.254775 
L 278.472796 -288.5706 
L 277.703473 -287.195655 
L 276.934149 -287.195655 
L 276.164826 -291.819961 
L 275.395502 -288.858139 
L 273.856855 -291.728514 
L 273.087531 -291.728514 
L 272.318208 -287.195655 
L 271.548884 -281.889489 
L 270.779561 -291.624092 
L 270.010237 -287.522809 
L 269.240913 -288.254775 
L 268.47159 -258.887937 
L 267.702266 -287.195655 
L 266.932943 -291.900112 
L 266.163619 -280.265716 
L 265.394296 -265.121533 
L 263.855648 -282.590153 
L 263.086325 -287.097196 
L 262.317001 -283.228628 
L 261.547678 -288.5706 
L 260.778354 -286.624032 
L 260.009031 -283.228628 
L 259.239707 -287.195655 
L 258.470383 -287.195655 
L 257.70106 -291.504699 
L 256.931736 -287.195655 
L 256.162413 -291.970388 
L 255.393089 -287.195655 
L 254.623766 -291.900112 
L 253.854442 -291.624092 
L 253.085118 -287.90696 
L 252.315795 -287.097196 
L 251.546471 -291.367952 
L 250.777148 -287.195655 
L 250.007824 -273.005369 
L 249.238501 -291.030307 
L 247.699854 -288.858139 
L 246.93053 -287.195655 
L 246.161206 -281.118064 
L 245.391883 -291.728514 
L 244.622559 -284.838567 
L 243.853236 -279.805493 
L 243.083912 -288.254775 
L 242.314589 -291.900112 
L 241.545265 -287.195655 
L 240.775941 -288.254775 
L 240.006618 -288.254775 
L 239.237294 -267.07265 
L 237.698647 -291.728514 
L 236.929324 -282.590153 
L 236.16 -291.728514 
L 235.390676 -281.889489 
L 234.621353 -291.624092 
L 233.852029 -287.195655 
L 233.082706 -288.254775 
L 232.313382 -287.195655 
L 231.544059 -291.030307 
L 230.774735 -291.900112 
L 230.005411 -280.265716 
L 229.236088 -291.367952 
L 227.697441 -287.90696 
L 226.928117 -291.504699 
L 226.158794 -290.298258 
L 225.38947 -288.5706 
L 224.620146 -286.624032 
L 223.850823 -287.195655 
L 223.081499 -291.367952 
L 222.312176 -291.504699 
L 221.542852 -291.504699 
L 220.773529 -287.90696 
L 220.004205 -291.970388 
L 219.234882 -291.367952 
L 218.465558 -272.187253 
L 217.696234 -291.624092 
L 216.926911 -287.90696 
L 216.157587 -287.195655 
L 215.388264 -286.624032 
L 214.61894 -291.624092 
L 213.849617 -291.367952 
L 213.080293 -270.065955 
L 211.541646 -284.34706 
L 210.772322 -291.728514 
L 210.002999 -291.504699 
L 209.233675 -287.195655 
L 208.464352 -284.838567 
L 207.695028 -289.120565 
L 206.925704 -287.195655 
L 206.156381 -291.900112 
L 205.387057 -292.032 
L 204.617734 -291.819961 
L 203.84841 -271.014047 
L 203.079087 -288.858139 
L 201.540439 -287.90696 
L 200.771116 -287.90696 
L 200.001792 -276.445973 
L 199.232469 -287.195655 
L 198.463145 -287.522809 
L 197.693822 -291.624092 
L 196.924498 -288.254775 
L 196.155174 -291.504699 
L 195.385851 -287.195655 
L 194.616527 -288.5706 
L 193.847204 -280.265716 
L 193.07788 -291.367952 
L 191.539233 -255.100911 
L 190.76991 -274.263905 
L 190.000586 -283.228628 
L 189.231262 -288.5706 
L 188.461939 -286.624032 
L 187.692615 -291.819961 
L 186.923292 -280.265716 
L 186.153968 -287.097196 
L 185.384645 -274.263905 
L 184.615321 -291.728514 
L 183.845997 -287.195655 
L 183.076674 -273.005369 
L 182.30735 -283.812192 
L 181.538027 -281.889489 
L 180.768703 -276.445973 
L 179.99938 -287.195655 
L 179.230056 -291.367952 
L 178.460732 -291.624092 
L 177.691409 -286.624032 
L 176.922085 -291.030307 
L 175.383438 -287.195655 
L 174.614115 -291.728514 
L 173.844791 -287.097196 
L 173.075467 -287.90696 
L 172.306144 -289.120565 
L 171.53682 -279.805493 
L 170.767497 -291.819961 
L 169.998173 -283.812192 
L 169.22885 -279.805493 
L 168.459526 -287.195655 
L 167.690202 -271.014047 
L 166.920879 -284.34706 
L 165.382232 -291.728514 
L 164.612908 -262.594332 
L 163.843585 -291.728514 
L 163.074261 -291.624092 
L 162.304938 -287.522809 
L 161.535614 -291.624092 
L 160.76629 -283.228628 
L 159.996967 -266.807227 
L 159.227643 -291.030307 
L 158.45832 -287.195655 
L 157.688996 -280.265716 
L 156.919673 -265.121533 
L 155.381025 -282.590153 
L 154.611702 -258.887937 
L 153.842378 -283.228628 
L 153.073055 -283.812192 
L 152.303731 -287.195655 
L 151.534408 -288.254775 
L 150.765084 -286.624032 
L 149.99576 -287.097196 
L 149.226437 -291.504699 
L 148.457113 -287.195655 
L 147.68779 -288.858139 
L 146.918466 -287.195655 
L 146.149143 -283.812192 
L 145.379819 -281.889489 
L 144.610495 -291.728514 
L 143.841172 -291.504699 
L 143.071848 -280.265716 
L 142.302525 -281.889489 
L 141.533201 -291.367952 
L 140.763878 -261.192287 
L 139.225231 -287.195655 
L 138.455907 -287.195655 
L 137.686583 -287.097196 
L 136.91726 -291.728514 
L 136.147936 -289.120565 
L 135.378613 -289.120565 
L 134.609289 -291.819961 
L 133.839966 -288.5706 
L 133.070642 -292.032 
L 132.301318 -291.819961 
L 131.531995 -287.195655 
L 130.762671 -279.067768 
L 129.224024 -287.195655 
L 128.454701 -282.590153 
L 127.685377 -287.90696 
L 126.916053 -287.195655 
L 126.14673 -287.195655 
L 125.377406 -287.522809 
L 124.608083 -277.396274 
L 123.838759 -274.263905 
L 123.069436 -285.504436 
L 122.300112 -288.5706 
L 121.530788 -273.005369 
L 120.761465 -256.756964 
L 119.222818 -262.594332 
L 118.453494 -291.504699 
L 117.684171 -290.298258 
L 116.914847 -278.267242 
L 116.145523 -291.367952 
L 115.3762 -288.254775 
L 114.606876 -273.005369 
L 113.837553 -281.118064 
L 113.068229 -291.504699 
L 112.298906 -291.728514 
L 111.529582 -284.34706 
L 110.760259 -286.624032 
L 109.990935 -258.887937 
L 109.221611 -291.624092 
L 108.452288 -262.594332 
L 107.682964 -291.504699 
L 106.913641 -280.265716 
L 106.144317 -281.889489 
L 105.374994 -265.121533 
L 104.60567 -270.065955 
L 103.067023 -273.267183 
L 102.297699 -291.728514 
L 101.528376 -291.504699 
L 100.759052 -287.90696 
L 99.989729 -268.338958 
L 99.220405 -284.838567 
L 98.451081 -277.396274 
L 97.681758 -278.267242 
L 96.912434 -268.338958 
L 96.143111 -271.014047 
L 95.373787 -277.396274 
L 94.604464 -253.777397 
L 93.065816 -255.100911 
L 92.296493 -269.735851 
L 91.527169 -269.735851 
L 90.757846 -275.405933 
L 89.988522 -260.825728 
L 89.219199 -268.338958 
L 88.449875 -249.645061 
L 87.680551 -258.887937 
L 86.911228 -278.267242 
L 86.141904 -258.887937 
L 85.372581 -256.756964 
L 84.603257 -209.788275 
L 83.06461 -269.735851 
L 82.295287 -258.887937 
L 81.525963 -274.263905 
L 80.756639 -229.13082 
L 79.987316 -286.624032 
L 79.217992 -264.213983 
L 78.448669 -265.121533 
L 77.679345 -258.887937 
L 76.910022 -194.753431 
L 76.140698 -222.408122 
L 75.371374 -200.612637 
L 74.602051 -189.023247 
L 73.832727 -86.534564 
z
" id="mc45bc80428" style="stroke:#2ca02c;stroke-opacity:0.2;"/>
    </defs>
    <g clip-path="url(#pfb1b98ac35)">
     <use style="fill:#2ca02c;fill-opacity:0.2;stroke:#2ca02c;stroke-opacity:0.2;" x="0" xlink:href="#mc45bc80428" y="345.6"/>
    </g>
   </g>
   <g id="matplotlib.axis_3">
    <g id="ytick_7">
     <g id="line2d_13">
      <defs>
       <path d="M 0 0 
L 3.5 0 
" id="m680a5cb395" style="stroke:#000000;stroke-width:0.8;"/>
      </defs>
      <g>
       <use style="stroke:#000000;stroke-width:0.8;" x="414.72" xlink:href="#m680a5cb395" y="294.113054"/>
      </g>
     </g>
     <g id="text_14">
      <!-- 0.0 -->
      <g style="fill:#2ca02c;" transform="translate(421.72 297.912273)scale(0.1 -0.1)">
       <use xlink:href="#DejaVuSans-48"/>
       <use x="63.623047" xlink:href="#DejaVuSans-46"/>
       <use x="95.410156" xlink:href="#DejaVuSans-48"/>
      </g>
     </g>
    </g>
    <g id="ytick_8">
     <g id="line2d_14">
      <g>
       <use style="stroke:#000000;stroke-width:0.8;" x="414.72" xlink:href="#m680a5cb395" y="246.971312"/>
      </g>
     </g>
     <g id="text_15">
      <!-- 0.2 -->
      <g style="fill:#2ca02c;" transform="translate(421.72 250.770531)scale(0.1 -0.1)">
       <use xlink:href="#DejaVuSans-48"/>
       <use x="63.623047" xlink:href="#DejaVuSans-46"/>
       <use x="95.410156" xlink:href="#DejaVuSans-50"/>
      </g>
     </g>
    </g>
    <g id="ytick_9">
     <g id="line2d_15">
      <g>
       <use style="stroke:#000000;stroke-width:0.8;" x="414.72" xlink:href="#m680a5cb395" y="199.829571"/>
      </g>
     </g>
     <g id="text_16">
      <!-- 0.4 -->
      <g style="fill:#2ca02c;" transform="translate(421.72 203.628789)scale(0.1 -0.1)">
       <use xlink:href="#DejaVuSans-48"/>
       <use x="63.623047" xlink:href="#DejaVuSans-46"/>
       <use x="95.410156" xlink:href="#DejaVuSans-52"/>
      </g>
     </g>
    </g>
    <g id="ytick_10">
     <g id="line2d_16">
      <g>
       <use style="stroke:#000000;stroke-width:0.8;" x="414.72" xlink:href="#m680a5cb395" y="152.687829"/>
      </g>
     </g>
     <g id="text_17">
      <!-- 0.6 -->
      <g style="fill:#2ca02c;" transform="translate(421.72 156.487048)scale(0.1 -0.1)">
       <use xlink:href="#DejaVuSans-48"/>
       <use x="63.623047" xlink:href="#DejaVuSans-46"/>
       <use x="95.410156" xlink:href="#DejaVuSans-54"/>
      </g>
     </g>
    </g>
    <g id="ytick_11">
     <g id="line2d_17">
      <g>
       <use style="stroke:#000000;stroke-width:0.8;" x="414.72" xlink:href="#m680a5cb395" y="105.546087"/>
      </g>
     </g>
     <g id="text_18">
      <!-- 0.8 -->
      <defs>
       <path d="M 31.78125 34.625 
Q 24.75 34.625 20.71875 30.859375 
Q 16.703125 27.09375 16.703125 20.515625 
Q 16.703125 13.921875 20.71875 10.15625 
Q 24.75 6.390625 31.78125 6.390625 
Q 38.8125 6.390625 42.859375 10.171875 
Q 46.921875 13.96875 46.921875 20.515625 
Q 46.921875 27.09375 42.890625 30.859375 
Q 38.875 34.625 31.78125 34.625 
z
M 21.921875 38.8125 
Q 15.578125 40.375 12.03125 44.71875 
Q 8.5 49.078125 8.5 55.328125 
Q 8.5 64.0625 14.71875 69.140625 
Q 20.953125 74.21875 31.78125 74.21875 
Q 42.671875 74.21875 48.875 69.140625 
Q 55.078125 64.0625 55.078125 55.328125 
Q 55.078125 49.078125 51.53125 44.71875 
Q 48 40.375 41.703125 38.8125 
Q 48.828125 37.15625 52.796875 32.3125 
Q 56.78125 27.484375 56.78125 20.515625 
Q 56.78125 9.90625 50.3125 4.234375 
Q 43.84375 -1.421875 31.78125 -1.421875 
Q 19.734375 -1.421875 13.25 4.234375 
Q 6.78125 9.90625 6.78125 20.515625 
Q 6.78125 27.484375 10.78125 32.3125 
Q 14.796875 37.15625 21.921875 38.8125 
z
M 18.3125 54.390625 
Q 18.3125 48.734375 21.84375 45.5625 
Q 25.390625 42.390625 31.78125 42.390625 
Q 38.140625 42.390625 41.71875 45.5625 
Q 45.3125 48.734375 45.3125 54.390625 
Q 45.3125 60.0625 41.71875 63.234375 
Q 38.140625 66.40625 31.78125 66.40625 
Q 25.390625 66.40625 21.84375 63.234375 
Q 18.3125 60.0625 18.3125 54.390625 
z
" id="DejaVuSans-56"/>
      </defs>
      <g style="fill:#2ca02c;" transform="translate(421.72 109.345306)scale(0.1 -0.1)">
       <use xlink:href="#DejaVuSans-48"/>
       <use x="63.623047" xlink:href="#DejaVuSans-46"/>
       <use x="95.410156" xlink:href="#DejaVuSans-56"/>
      </g>
     </g>
    </g>
    <g id="ytick_12">
     <g id="line2d_18">
      <g>
       <use style="stroke:#000000;stroke-width:0.8;" x="414.72" xlink:href="#m680a5cb395" y="58.404345"/>
      </g>
     </g>
     <g id="text_19">
      <!-- 1.0 -->
      <g style="fill:#2ca02c;" transform="translate(421.72 62.203564)scale(0.1 -0.1)">
       <use xlink:href="#DejaVuSans-49"/>
       <use x="63.623047" xlink:href="#DejaVuSans-46"/>
       <use x="95.410156" xlink:href="#DejaVuSans-48"/>
      </g>
     </g>
    </g>
    <g id="text_20">
     <!-- response_accuracy -->
     <defs>
      <path d="M 48.78125 52.59375 
L 48.78125 44.1875 
Q 44.96875 46.296875 41.140625 47.34375 
Q 37.3125 48.390625 33.40625 48.390625 
Q 24.65625 48.390625 19.8125 42.84375 
Q 14.984375 37.3125 14.984375 27.296875 
Q 14.984375 17.28125 19.8125 11.734375 
Q 24.65625 6.203125 33.40625 6.203125 
Q 37.3125 6.203125 41.140625 7.25 
Q 44.96875 8.296875 48.78125 10.40625 
L 48.78125 2.09375 
Q 45.015625 0.34375 40.984375 -0.53125 
Q 36.96875 -1.421875 32.421875 -1.421875 
Q 20.0625 -1.421875 12.78125 6.34375 
Q 5.515625 14.109375 5.515625 27.296875 
Q 5.515625 40.671875 12.859375 48.328125 
Q 20.21875 56 33.015625 56 
Q 37.15625 56 41.109375 55.140625 
Q 45.0625 54.296875 48.78125 52.59375 
z
" id="DejaVuSans-99"/>
      <path d="M 32.171875 -5.078125 
Q 28.375 -14.84375 24.75 -17.8125 
Q 21.140625 -20.796875 15.09375 -20.796875 
L 7.90625 -20.796875 
L 7.90625 -13.28125 
L 13.1875 -13.28125 
Q 16.890625 -13.28125 18.9375 -11.515625 
Q 21 -9.765625 23.484375 -3.21875 
L 25.09375 0.875 
L 2.984375 54.6875 
L 12.5 54.6875 
L 29.59375 11.921875 
L 46.6875 54.6875 
L 56.203125 54.6875 
z
" id="DejaVuSans-121"/>
     </defs>
     <g style="fill:#2ca02c;" transform="translate(448.943438 222.406125)rotate(-90)scale(0.1 -0.1)">
      <use xlink:href="#DejaVuSans-114"/>
      <use x="41.082031" xlink:href="#DejaVuSans-101"/>
      <use x="102.605469" xlink:href="#DejaVuSans-115"/>
      <use x="154.705078" xlink:href="#DejaVuSans-112"/>
      <use x="218.181641" xlink:href="#DejaVuSans-111"/>
      <use x="279.363281" xlink:href="#DejaVuSans-110"/>
      <use x="342.742188" xlink:href="#DejaVuSans-115"/>
      <use x="394.841797" xlink:href="#DejaVuSans-101"/>
      <use x="456.365234" xlink:href="#DejaVuSans-95"/>
      <use x="506.365234" xlink:href="#DejaVuSans-97"/>
      <use x="567.644531" xlink:href="#DejaVuSans-99"/>
      <use x="622.625" xlink:href="#DejaVuSans-99"/>
      <use x="677.605469" xlink:href="#DejaVuSans-117"/>
      <use x="740.984375" xlink:href="#DejaVuSans-114"/>
      <use x="782.097656" xlink:href="#DejaVuSans-97"/>
      <use x="843.376953" xlink:href="#DejaVuSans-99"/>
      <use x="898.357422" xlink:href="#DejaVuSans-121"/>
     </g>
    </g>
   </g>
   <g id="line2d_19">
    <path clip-path="url(#pfb1b98ac35)" d="M 73.832727 277.276718 
L 74.602051 191.631007 
L 75.371374 180.322643 
L 76.140698 158.127261 
L 76.910022 186.079896 
L 77.679345 117.331523 
L 78.448669 109.645369 
L 79.217992 110.784059 
L 79.987316 78.900755 
L 80.756639 151.004195 
L 81.525963 97.68913 
L 82.295287 117.331523 
L 83.06461 103.732943 
L 84.603257 171.134597 
L 85.372581 119.893574 
L 86.141904 117.331523 
L 86.911228 92.077018 
L 87.680551 117.331523 
L 88.449875 128.243963 
L 89.219199 105.546087 
L 89.988522 114.974436 
L 90.757846 96.117739 
L 91.527169 103.732943 
L 92.296493 103.732943 
L 93.065816 121.864382 
L 94.604464 123.427438 
L 95.373787 93.324154 
L 96.143111 102.054106 
L 96.912434 105.546087 
L 97.681758 92.077018 
L 98.451081 93.324154 
L 99.220405 81.975216 
L 99.989729 105.546087 
L 100.759052 76.535785 
L 101.528376 68.225542 
L 102.297699 67.470065 
L 103.067023 99.043778 
L 104.60567 103.301242 
L 105.374994 109.645369 
L 106.144317 86.689391 
L 106.913641 89.14896 
L 107.682964 68.225542 
L 108.452288 112.798663 
L 109.221611 67.832694 
L 109.990935 117.331523 
L 110.760259 78.900755 
L 111.529582 82.788005 
L 112.298906 67.470065 
L 113.068229 68.225542 
L 113.837553 87.867934 
L 114.606876 99.397164 
L 115.3762 75.86425 
L 116.145523 68.65255 
L 116.914847 92.077018 
L 117.684171 71.499274 
L 118.453494 68.225542 
L 119.222818 112.798663 
L 120.761465 119.893574 
L 121.530788 99.397164 
L 122.300112 75.240682 
L 123.069436 80.852794 
L 123.838759 97.68913 
L 124.608083 93.324154 
L 125.377406 77.261042 
L 126.14673 58.404345 
L 126.916053 58.404345 
L 127.685377 76.535785 
L 128.454701 85.601504 
L 129.224024 58.404345 
L 130.762671 90.915891 
L 131.531995 58.404345 
L 132.301318 67.134298 
L 133.070642 66.261302 
L 133.839966 75.240682 
L 134.609289 67.134298 
L 135.378613 74.118259 
L 136.147936 74.118259 
L 136.91726 67.470065 
L 137.686583 78.046738 
L 138.455907 58.404345 
L 139.225231 58.404345 
L 140.763878 114.525467 
L 141.533201 68.65255 
L 142.302525 86.689391 
L 143.071848 89.14896 
L 143.841172 68.225542 
L 144.610495 67.470065 
L 145.379819 86.689391 
L 146.149143 83.65885 
L 146.918466 58.404345 
L 147.68779 74.660118 
L 148.457113 58.404345 
L 149.99576 78.046738 
L 150.765084 78.900755 
L 151.534408 75.86425 
L 152.303731 58.404345 
L 153.073055 83.65885 
L 153.842378 84.594202 
L 154.611702 117.331523 
L 155.381025 85.601504 
L 156.919673 109.645369 
L 157.688996 89.14896 
L 158.45832 58.404345 
L 159.227643 69.62857 
L 159.996967 107.510326 
L 160.76629 84.594202 
L 161.535614 67.832694 
L 162.304938 77.261042 
L 163.074261 67.832694 
L 163.843585 67.470065 
L 164.612908 112.798663 
L 165.382232 67.470065 
L 166.920879 82.788005 
L 167.690202 102.054106 
L 168.459526 58.404345 
L 169.22885 89.832173 
L 169.998173 83.65885 
L 170.767497 67.134298 
L 171.53682 89.832173 
L 172.306144 74.118259 
L 173.075467 76.535785 
L 173.844791 78.046738 
L 175.383438 58.404345 
L 176.922085 69.62857 
L 177.691409 78.900755 
L 178.460732 67.832694 
L 179.230056 68.65255 
L 179.99938 58.404345 
L 180.768703 94.667224 
L 181.538027 86.689391 
L 182.30735 83.65885 
L 183.076674 99.397164 
L 183.845997 58.404345 
L 184.615321 67.470065 
L 185.384645 97.68913 
L 186.153968 78.046738 
L 186.923292 89.14896 
L 187.692615 67.134298 
L 188.461939 78.900755 
L 189.231262 75.240682 
L 190.000586 84.594202 
L 190.76991 97.68913 
L 191.539233 121.864382 
L 193.07788 68.65255 
L 193.847204 89.14896 
L 194.616527 75.240682 
L 195.385851 58.404345 
L 196.155174 68.225542 
L 196.924498 75.86425 
L 197.693822 67.832694 
L 198.463145 77.261042 
L 199.232469 58.404345 
L 200.001792 94.667224 
L 200.771116 76.535785 
L 201.540439 76.535785 
L 203.079087 74.660118 
L 203.84841 102.054106 
L 204.617734 67.134298 
L 205.387057 66.261302 
L 206.156381 66.822514 
L 206.925704 58.404345 
L 207.695028 74.118259 
L 208.464352 81.975216 
L 209.233675 58.404345 
L 210.002999 68.225542 
L 210.772322 67.470065 
L 211.541646 82.788005 
L 213.080293 103.301242 
L 213.849617 68.65255 
L 214.61894 67.832694 
L 215.388264 78.900755 
L 216.157587 58.404345 
L 216.926911 76.535785 
L 217.696234 67.832694 
L 218.465558 100.495186 
L 219.234882 68.65255 
L 220.004205 66.532232 
L 220.773529 76.535785 
L 221.542852 68.225542 
L 222.312176 68.225542 
L 223.081499 68.65255 
L 223.850823 58.404345 
L 224.620146 78.900755 
L 226.928117 68.225542 
L 227.697441 76.535785 
L 229.236088 68.65255 
L 230.005411 89.14896 
L 230.774735 66.822514 
L 231.544059 69.62857 
L 232.313382 58.404345 
L 233.082706 75.86425 
L 233.852029 58.404345 
L 234.621353 67.832694 
L 235.390676 86.689391 
L 236.16 67.470065 
L 236.929324 85.601504 
L 237.698647 67.470065 
L 239.237294 107.171665 
L 240.006618 75.86425 
L 240.775941 75.86425 
L 241.545265 58.404345 
L 243.083912 75.86425 
L 243.853236 89.832173 
L 244.622559 81.975216 
L 245.391883 67.470065 
L 246.161206 87.867934 
L 246.93053 58.404345 
L 247.699854 74.660118 
L 249.238501 69.62857 
L 250.007824 99.397164 
L 250.777148 58.404345 
L 252.315795 78.046738 
L 253.085118 76.535785 
L 253.854442 67.832694 
L 254.623766 66.822514 
L 255.393089 58.404345 
L 256.162413 66.532232 
L 256.931736 58.404345 
L 257.70106 68.225542 
L 258.470383 58.404345 
L 259.239707 58.404345 
L 260.009031 84.594202 
L 260.778354 78.900755 
L 261.547678 75.240682 
L 262.317001 84.594202 
L 263.086325 78.046738 
L 263.855648 85.601504 
L 265.394296 109.645369 
L 266.932943 66.822514 
L 267.702266 58.404345 
L 268.47159 117.331523 
L 269.240913 75.86425 
L 270.010237 77.261042 
L 270.779561 67.832694 
L 271.548884 86.689391 
L 272.318208 58.404345 
L 273.087531 67.470065 
L 273.856855 67.470065 
L 275.395502 74.660118 
L 276.164826 67.134298 
L 276.934149 58.404345 
L 277.703473 58.404345 
L 278.472796 75.240682 
L 279.24212 75.86425 
L 280.011443 66.261302 
L 280.780767 66.261302 
L 281.55009 76.535785 
L 282.319414 58.404345 
L 283.088738 58.404345 
L 283.858061 82.788005 
L 285.396708 69.62857 
L 286.166032 89.14896 
L 286.935355 58.404345 
L 287.704679 58.404345 
L 288.474003 68.225542 
L 289.243326 58.404345 
L 290.01265 77.261042 
L 290.781973 66.822514 
L 291.551297 58.404345 
L 292.32062 58.404345 
L 293.089944 67.470065 
L 293.859268 87.867934 
L 294.628591 87.867934 
L 295.397915 68.65255 
L 296.167238 75.86425 
L 296.936562 89.14896 
L 297.705885 92.077018 
L 298.475209 71.499274 
L 299.244533 58.404345 
L 300.013856 67.470065 
L 301.552503 78.900755 
L 302.321827 78.900755 
L 303.09115 75.240682 
L 303.860474 69.62857 
L 304.629798 87.867934 
L 305.399121 84.594202 
L 306.168445 86.689391 
L 306.937768 77.261042 
L 307.707092 86.689391 
L 308.476415 67.470065 
L 309.245739 85.601504 
L 310.015062 85.601504 
L 311.55371 99.043778 
L 312.323033 58.404345 
L 313.092357 58.404345 
L 313.86168 81.975216 
L 314.631004 66.822514 
L 315.400327 75.86425 
L 316.169651 89.832173 
L 316.938975 81.975216 
L 317.708298 76.535785 
L 318.477622 68.225542 
L 319.246945 58.404345 
L 320.016269 66.532232 
L 321.554916 92.077018 
L 322.32424 58.404345 
L 323.093563 77.261042 
L 323.862887 68.65255 
L 324.63221 68.225542 
L 325.401534 85.601504 
L 326.170857 58.404345 
L 326.940181 199.829571 
L 327.709505 161.526906 
L 328.478828 140.902394 
L 329.248152 150.068843 
L 330.017475 136.973915 
L 330.786799 169.326091 
L 331.556122 130.141779 
L 332.325446 125.749691 
L 333.094769 142.586027 
L 333.864093 142.586027 
L 334.633417 169.326091 
L 335.40274 132.838675 
L 336.172064 136.973915 
L 337.710711 150.068843 
L 338.480034 229.828861 
L 339.249358 150.068843 
L 340.018682 176.2587 
L 340.788005 170.055839 
L 341.557329 112.798663 
L 342.326652 152.687829 
L 343.095976 112.798663 
L 343.865299 100 
L 344.634623 136.973915 
L 345.403947 129.116958 
L 346.17327 152.687829 
L 347.711917 169.326091 
L 348.481241 86.134782 
L 349.250564 149.061541 
L 350.019888 110.784059 
L 350.789212 185.324419 
L 351.558535 84.594202 
L 352.327859 72.269564 
L 353.097182 125.749691 
L 353.866506 121.260001 
L 354.635829 125.749691 
L 355.405153 108.913354 
L 356.174477 117.331523 
L 357.713124 74.118259 
L 358.482447 100 
L 359.251771 83.215788 
L 360.021094 117.331523 
L 360.790418 145.244396 
L 361.559741 110.784059 
L 362.329065 108.913354 
L 363.098389 129.116958 
L 363.867712 220.454083 
L 364.637036 176.2587 
L 365.406359 189.353628 
L 366.175683 97.68913 
L 366.945006 127.730436 
L 367.71433 140.389983 
L 368.483654 136.973915 
L 369.252977 92.077018 
L 370.022301 125.749691 
L 370.791624 127.730436 
L 371.560948 108.027232 
L 372.330271 97.68913 
L 373.868919 150.068843 
L 374.638242 79.83241 
L 375.407566 136.973915 
L 376.176889 58.404345 
L 376.946213 132.838675 
L 377.715536 112.798663 
L 378.48486 117.331523 
L 379.254184 94.667224 
L 380.023507 141.595654 
L 380.792831 110.784059 
L 381.562154 105.546087 
L 382.331478 121.260001 
L 383.870125 141.595654 
L 384.639449 86.134782 
L 385.408772 94.667224 
L 386.178096 136.973915 
L 386.947419 130.930102 
L 387.716743 136.973915 
L 388.486066 141.595654 
L 389.25539 125.749691 
L 390.024713 121.260001 
L 390.794037 114.525467 
L 391.563361 142.586027 
L 392.332684 146.795111 
L 393.871331 136.973915 
L 394.640655 127.730436 
L 395.409978 194.867282 
L 396.179302 132.063317 
L 396.948626 145.244396 
L 397.717949 136.973915 
L 398.487273 125.749691 
L 398.487273 125.749691 
" style="fill:none;stroke:#2ca02c;stroke-linecap:square;stroke-width:1.5;"/>
   </g>
   <g id="patch_7">
    <path d="M 57.6 307.584 
L 57.6 41.472 
" style="fill:none;stroke:#000000;stroke-linecap:square;stroke-linejoin:miter;stroke-width:0.8;"/>
   </g>
   <g id="patch_8">
    <path d="M 414.72 307.584 
L 414.72 41.472 
" style="fill:none;stroke:#000000;stroke-linecap:square;stroke-linejoin:miter;stroke-width:0.8;"/>
   </g>
   <g id="patch_9">
    <path d="M 57.6 307.584 
L 414.72 307.584 
" style="fill:none;stroke:#000000;stroke-linecap:square;stroke-linejoin:miter;stroke-width:0.8;"/>
   </g>
   <g id="patch_10">
    <path d="M 57.6 41.472 
L 414.72 41.472 
" style="fill:none;stroke:#000000;stroke-linecap:square;stroke-linejoin:miter;stroke-width:0.8;"/>
   </g>
   <g id="text_21">
    <!-- is_overtraining_stim_1__all_blocks_(0.3*std) -->
    <defs>
     <path d="M 2.984375 54.6875 
L 12.5 54.6875 
L 29.59375 8.796875 
L 46.6875 54.6875 
L 56.203125 54.6875 
L 35.6875 0 
L 23.484375 0 
z
" id="DejaVuSans-118"/>
     <path d="M 45.40625 27.984375 
Q 45.40625 37.75 41.375 43.109375 
Q 37.359375 48.484375 30.078125 48.484375 
Q 22.859375 48.484375 18.828125 43.109375 
Q 14.796875 37.75 14.796875 27.984375 
Q 14.796875 18.265625 18.828125 12.890625 
Q 22.859375 7.515625 30.078125 7.515625 
Q 37.359375 7.515625 41.375 12.890625 
Q 45.40625 18.265625 45.40625 27.984375 
z
M 54.390625 6.78125 
Q 54.390625 -7.171875 48.1875 -13.984375 
Q 42 -20.796875 29.203125 -20.796875 
Q 24.46875 -20.796875 20.265625 -20.09375 
Q 16.0625 -19.390625 12.109375 -17.921875 
L 12.109375 -9.1875 
Q 16.0625 -11.328125 19.921875 -12.34375 
Q 23.78125 -13.375 27.78125 -13.375 
Q 36.625 -13.375 41.015625 -8.765625 
Q 45.40625 -4.15625 45.40625 5.171875 
L 45.40625 9.625 
Q 42.625 4.78125 38.28125 2.390625 
Q 33.9375 0 27.875 0 
Q 17.828125 0 11.671875 7.65625 
Q 5.515625 15.328125 5.515625 27.984375 
Q 5.515625 40.671875 11.671875 48.328125 
Q 17.828125 56 27.875 56 
Q 33.9375 56 38.28125 53.609375 
Q 42.625 51.21875 45.40625 46.390625 
L 45.40625 54.6875 
L 54.390625 54.6875 
z
" id="DejaVuSans-103"/>
     <path d="M 48.6875 27.296875 
Q 48.6875 37.203125 44.609375 42.84375 
Q 40.53125 48.484375 33.40625 48.484375 
Q 26.265625 48.484375 22.1875 42.84375 
Q 18.109375 37.203125 18.109375 27.296875 
Q 18.109375 17.390625 22.1875 11.75 
Q 26.265625 6.109375 33.40625 6.109375 
Q 40.53125 6.109375 44.609375 11.75 
Q 48.6875 17.390625 48.6875 27.296875 
z
M 18.109375 46.390625 
Q 20.953125 51.265625 25.265625 53.625 
Q 29.59375 56 35.59375 56 
Q 45.5625 56 51.78125 48.09375 
Q 58.015625 40.1875 58.015625 27.296875 
Q 58.015625 14.40625 51.78125 6.484375 
Q 45.5625 -1.421875 35.59375 -1.421875 
Q 29.59375 -1.421875 25.265625 0.953125 
Q 20.953125 3.328125 18.109375 8.203125 
L 18.109375 0 
L 9.078125 0 
L 9.078125 75.984375 
L 18.109375 75.984375 
z
" id="DejaVuSans-98"/>
     <path d="M 9.078125 75.984375 
L 18.109375 75.984375 
L 18.109375 31.109375 
L 44.921875 54.6875 
L 56.390625 54.6875 
L 27.390625 29.109375 
L 57.625 0 
L 45.90625 0 
L 18.109375 26.703125 
L 18.109375 0 
L 9.078125 0 
z
" id="DejaVuSans-107"/>
     <path d="M 31 75.875 
Q 24.46875 64.65625 21.28125 53.65625 
Q 18.109375 42.671875 18.109375 31.390625 
Q 18.109375 20.125 21.3125 9.0625 
Q 24.515625 -2 31 -13.1875 
L 23.1875 -13.1875 
Q 15.875 -1.703125 12.234375 9.375 
Q 8.59375 20.453125 8.59375 31.390625 
Q 8.59375 42.28125 12.203125 53.3125 
Q 15.828125 64.359375 23.1875 75.875 
z
" id="DejaVuSans-40"/>
     <path d="M 47.015625 60.890625 
L 29.5 51.421875 
L 47.015625 41.890625 
L 44.1875 37.109375 
L 27.78125 47.015625 
L 27.78125 28.609375 
L 22.21875 28.609375 
L 22.21875 47.015625 
L 5.8125 37.109375 
L 2.984375 41.890625 
L 20.515625 51.421875 
L 2.984375 60.890625 
L 5.8125 65.71875 
L 22.21875 55.8125 
L 22.21875 74.21875 
L 27.78125 74.21875 
L 27.78125 55.8125 
L 44.1875 65.71875 
z
" id="DejaVuSans-42"/>
     <path d="M 45.40625 46.390625 
L 45.40625 75.984375 
L 54.390625 75.984375 
L 54.390625 0 
L 45.40625 0 
L 45.40625 8.203125 
Q 42.578125 3.328125 38.25 0.953125 
Q 33.9375 -1.421875 27.875 -1.421875 
Q 17.96875 -1.421875 11.734375 6.484375 
Q 5.515625 14.40625 5.515625 27.296875 
Q 5.515625 40.1875 11.734375 48.09375 
Q 17.96875 56 27.875 56 
Q 33.9375 56 38.25 53.625 
Q 42.578125 51.265625 45.40625 46.390625 
z
M 14.796875 27.296875 
Q 14.796875 17.390625 18.875 11.75 
Q 22.953125 6.109375 30.078125 6.109375 
Q 37.203125 6.109375 41.296875 11.75 
Q 45.40625 17.390625 45.40625 27.296875 
Q 45.40625 37.203125 41.296875 42.84375 
Q 37.203125 48.484375 30.078125 48.484375 
Q 22.953125 48.484375 18.875 42.84375 
Q 14.796875 37.203125 14.796875 27.296875 
z
" id="DejaVuSans-100"/>
     <path d="M 8.015625 75.875 
L 15.828125 75.875 
Q 23.140625 64.359375 26.78125 53.3125 
Q 30.421875 42.28125 30.421875 31.390625 
Q 30.421875 20.453125 26.78125 9.375 
Q 23.140625 -1.703125 15.828125 -13.1875 
L 8.015625 -13.1875 
Q 14.5 -2 17.703125 9.0625 
Q 20.90625 20.125 20.90625 31.390625 
Q 20.90625 42.671875 17.703125 53.65625 
Q 14.5 64.65625 8.015625 75.875 
z
" id="DejaVuSans-41"/>
    </defs>
    <g transform="translate(104.369063 35.472)scale(0.12 -0.12)">
     <use xlink:href="#DejaVuSans-105"/>
     <use x="27.783203" xlink:href="#DejaVuSans-115"/>
     <use x="79.882812" xlink:href="#DejaVuSans-95"/>
     <use x="129.882812" xlink:href="#DejaVuSans-111"/>
     <use x="191.064453" xlink:href="#DejaVuSans-118"/>
     <use x="250.244141" xlink:href="#DejaVuSans-101"/>
     <use x="311.767578" xlink:href="#DejaVuSans-114"/>
     <use x="352.880859" xlink:href="#DejaVuSans-116"/>
     <use x="392.089844" xlink:href="#DejaVuSans-114"/>
     <use x="433.203125" xlink:href="#DejaVuSans-97"/>
     <use x="494.482422" xlink:href="#DejaVuSans-105"/>
     <use x="522.265625" xlink:href="#DejaVuSans-110"/>
     <use x="585.644531" xlink:href="#DejaVuSans-105"/>
     <use x="613.427734" xlink:href="#DejaVuSans-110"/>
     <use x="676.806641" xlink:href="#DejaVuSans-103"/>
     <use x="740.283203" xlink:href="#DejaVuSans-95"/>
     <use x="790.283203" xlink:href="#DejaVuSans-115"/>
     <use x="842.382812" xlink:href="#DejaVuSans-116"/>
     <use x="881.591797" xlink:href="#DejaVuSans-105"/>
     <use x="909.375" xlink:href="#DejaVuSans-109"/>
     <use x="1006.787109" xlink:href="#DejaVuSans-95"/>
     <use x="1056.787109" xlink:href="#DejaVuSans-49"/>
     <use x="1120.410156" xlink:href="#DejaVuSans-95"/>
     <use x="1170.410156" xlink:href="#DejaVuSans-95"/>
     <use x="1220.410156" xlink:href="#DejaVuSans-97"/>
     <use x="1281.689453" xlink:href="#DejaVuSans-108"/>
     <use x="1309.472656" xlink:href="#DejaVuSans-108"/>
     <use x="1337.255859" xlink:href="#DejaVuSans-95"/>
     <use x="1387.255859" xlink:href="#DejaVuSans-98"/>
     <use x="1450.732422" xlink:href="#DejaVuSans-108"/>
     <use x="1478.515625" xlink:href="#DejaVuSans-111"/>
     <use x="1539.697266" xlink:href="#DejaVuSans-99"/>
     <use x="1594.677734" xlink:href="#DejaVuSans-107"/>
     <use x="1652.587891" xlink:href="#DejaVuSans-115"/>
     <use x="1704.6875" xlink:href="#DejaVuSans-95"/>
     <use x="1754.6875" xlink:href="#DejaVuSans-40"/>
     <use x="1793.701172" xlink:href="#DejaVuSans-48"/>
     <use x="1857.324219" xlink:href="#DejaVuSans-46"/>
     <use x="1889.111328" xlink:href="#DejaVuSans-51"/>
     <use x="1952.734375" xlink:href="#DejaVuSans-42"/>
     <use x="2002.734375" xlink:href="#DejaVuSans-115"/>
     <use x="2054.833984" xlink:href="#DejaVuSans-116"/>
     <use x="2094.042969" xlink:href="#DejaVuSans-100"/>
     <use x="2157.519531" xlink:href="#DejaVuSans-41"/>
    </g>
   </g>
  </g>
 </g>
 <defs>
  <clipPath id="pfb1b98ac35">
   <rect height="266.112" width="357.12" x="57.6" y="41.472"/>
  </clipPath>
 </defs>
</svg>
