t-test for param: v (mean) (group is_overtraining_stim : 0 (mean:4.227) vs group is_overtraining_stim: 1 (mean: 3.810)): t-value=1.508, p-val=0.143 < 0.05 ? (significant: False)
t-test for param: v (std) (group is_overtraining_stim : 0 (mean:0.687) vs group is_overtraining_stim: 1 (mean: 0.602)): t-value=2.690, p-val=0.012 < 0.05 ? (significant: True)
t-test for param: t (mean) (group is_overtraining_stim : 0 (mean:0.095) vs group is_overtraining_stim: 1 (mean: 0.088)): t-value=0.856, p-val=0.400 < 0.05 ? (significant: False)
t-test for param: t (std) (group is_overtraining_stim : 0 (mean:0.015) vs group is_overtraining_stim: 1 (mean: 0.014)): t-value=0.602, p-val=0.552 < 0.05 ? (significant: False)
t-test for param: a (mean) (group is_overtraining_stim : 0 (mean:1.198) vs group is_overtraining_stim: 1 (mean: 1.226)): t-value=-1.509, p-val=0.143 < 0.05 ? (significant: False)
t-test for param: a (std) (group is_overtraining_stim : 0 (mean:0.112) vs group is_overtraining_stim: 1 (mean: 0.109)): t-value=0.597, p-val=0.555 < 0.05 ? (significant: False)
t-test for param: alpha (mean) (group is_overtraining_stim : 0 (mean:-0.315) vs group is_overtraining_stim: 1 (mean: 0.126)): t-value=-23.622, p-val=0.000 < 0.05 ? (significant: True)
t-test for param: alpha (std) (group is_overtraining_stim : 0 (mean:0.533) vs group is_overtraining_stim: 1 (mean: 0.534)): t-value=-0.132, p-val=0.896 < 0.05 ? (significant: False)
