                       mean         std       2.5q         25q        50q        75q      97.5q       mc err
a(0)               0.952443   0.0319272   0.892783    0.931465   0.951253   0.972068    1.02004   0.00132073
a(1)                 1.1755   0.0351467    1.11013     1.15021    1.17494    1.19818    1.24278   0.00188995
a_std              0.166164   0.0256374   0.124325    0.147137   0.163298   0.183594   0.221222   0.00197357
a_subj(0).0        0.823717   0.0502581   0.729096    0.789346   0.822194   0.856324   0.927242   0.00171823
a_subj(0).1        0.964579   0.0646181   0.847433    0.919397    0.96089    1.00693    1.10659   0.00225462
a_subj(0).2        0.817032   0.0513127   0.721614    0.783836   0.815001   0.847671   0.928797   0.00193248
a_subj(0).3        0.912666   0.0687681   0.787801    0.864539   0.910412   0.959418    1.04984    0.0025635
a_subj(0).4         1.00629   0.0664519   0.887926    0.960104    1.00282    1.05086    1.14058   0.00247817
a_subj(0).5        0.994776   0.0696475   0.866013    0.946066   0.990854    1.04045    1.14638   0.00263497
a_subj(0).6         1.04548   0.0757132    0.90768    0.994027    1.04033    1.09172    1.21249    0.0030036
a_subj(0).7        0.959899   0.0667694   0.843062    0.912649   0.955328    1.00212    1.09971   0.00266411
a_subj(0).8         1.11686   0.0857841   0.966324     1.05386    1.11329    1.17227    1.30098   0.00380049
a_subj(0).9        0.968409   0.0802038   0.821768    0.914077    0.96478    1.02017    1.12907   0.00378466
a_subj(0).10       0.890938    0.054123   0.787778    0.854763   0.889378   0.927856    1.00499   0.00177648
a_subj(0).11       0.860448   0.0601203   0.748135    0.818434   0.858146   0.898311   0.989002   0.00232904
a_subj(0).12         1.0106   0.0689506   0.877745    0.963153    1.00884     1.0556    1.15192    0.0027214
a_subj(0).13       0.890326   0.0524587   0.792108    0.854368   0.888275   0.923409    1.00537   0.00184092
a_subj(0).14       0.993686   0.0728891   0.863829    0.942057   0.990561    1.03901     1.1514   0.00338076
a_subj(0).15       0.890756   0.0721389   0.757991    0.840095   0.888787   0.937421    1.03759   0.00313847
a_subj(0).16       0.920407   0.0526036   0.824209    0.884441    0.91761   0.954245    1.03267   0.00166954
a_subj(0).17       0.904424   0.0580841   0.799259       0.863   0.901433   0.943979    1.01722   0.00200002
a_subj(0).18       0.898511    0.059658   0.787343    0.855532   0.896527   0.939068    1.01735    0.0022028
a_subj(0).19        1.02033   0.0742139   0.895576    0.967521    1.01315    1.06831    1.17902   0.00360639
a_subj(0).20        0.93112   0.0645404   0.812952    0.888111   0.928598   0.969291    1.06606    0.0024083
a_subj(0).21        0.91814   0.0631341   0.798895    0.873747   0.917376   0.959992    1.04669   0.00220621
a_subj(0).22       0.870505   0.0561032   0.769376     0.83266   0.866879   0.905753   0.991972   0.00204466
a_subj(0).23       0.852473   0.0730473   0.729515    0.798867   0.845755   0.896655    1.02244   0.00403973
a_subj(0).24       0.961319   0.0781825   0.827363    0.905419   0.957571    1.00987    1.13404   0.00354644
a_subj(0).25       0.949082   0.0769108   0.811905    0.895415   0.945818   0.999963    1.10743   0.00325409
a_subj(0).26         0.7618   0.0479596   0.669132    0.729683   0.762951   0.793107   0.857613   0.00178074
a_subj(0).27       0.976187   0.0753015   0.841768    0.923706   0.969948    1.02394    1.14047   0.00310873
a_subj(0).28       0.983319   0.0694097   0.860278    0.933546   0.981099    1.02807    1.13375   0.00235851
a_subj(0).29       0.925675   0.0617667   0.813492    0.882668   0.922825   0.967293    1.05014   0.00218989
a_subj(0).30       0.908923   0.0733045   0.766685    0.858927   0.911173   0.961974    1.04708   0.00425831
a_subj(0).31       0.916338   0.0539828   0.823529    0.878266   0.913828   0.950849    1.02836   0.00173154
a_subj(0).32       0.953278   0.0588191   0.846498    0.912053   0.950952   0.991472    1.08525   0.00183984
a_subj(1).0         1.14275    0.056057    1.04389     1.10454    1.14015    1.17894    1.25939   0.00258526
a_subj(1).1         1.22375   0.0658163    1.10847     1.17735    1.22162    1.26572    1.36245   0.00325209
a_subj(1).2        0.872483   0.0366477   0.805089     0.84761    0.87124   0.896406   0.946039   0.00146134
a_subj(1).3         1.70577    0.210608    1.33913     1.54542    1.69435    1.85888    2.12999    0.0187323
a_subj(1).4         1.35298   0.0826947    1.20879     1.29548    1.34268    1.40441    1.53636   0.00457761
a_subj(1).5         1.11339   0.0591135    1.00645     1.07363    1.11072    1.14815    1.23649   0.00301711
a_subj(1).6         1.62769    0.156659     1.3611     1.51483     1.6156    1.72929    1.97064    0.0123782
a_subj(1).7         1.02921   0.0426909   0.950013     1.00015    1.02884    1.05718    1.11705   0.00166256
a_subj(1).8         1.50173    0.126013    1.29903      1.4141    1.48918    1.57584    1.78961   0.00892796
a_subj(1).9         1.33744    0.126446    1.14393     1.25212    1.31833    1.40119    1.65917   0.00986079
a_subj(1).10       0.968661   0.0411702   0.890595    0.940174   0.966271   0.995808    1.05211   0.00183308
a_subj(1).11        1.09609   0.0678705    0.98049     1.04572    1.09158    1.14089    1.23699   0.00407231
a_subj(1).12         1.3252    0.104246    1.14358     1.25172     1.3167    1.38942    1.56571   0.00769999
a_subj(1).13        1.05887   0.0530443   0.963706     1.02028    1.05443    1.09459    1.17642   0.00252119
a_subj(1).14        1.32675     0.10055    1.15818     1.25688    1.31845    1.38564     1.5389   0.00697741
a_subj(1).15       0.858438   0.0364093   0.792425    0.832952    0.85702    0.88223   0.935779   0.00157803
a_subj(1).16        0.98647   0.0459757   0.904262     0.95449   0.983716    1.01641    1.07926   0.00204705
a_subj(1).17       0.910484   0.0370723   0.843128    0.883849    0.90801   0.934011    0.98848   0.00154865
a_subj(1).18        1.07626     0.05129   0.982145     1.03997    1.07447    1.11104    1.17878   0.00230123
a_subj(1).19        1.49843    0.160195    1.24584       1.378    1.47438    1.58803     1.8723     0.013265
a_subj(1).20        1.20342   0.0818986    1.06705     1.14432    1.19745      1.254    1.38946   0.00543161
a_subj(1).21          1.066   0.0658904   0.951956     1.01938    1.06269    1.10601    1.21065   0.00376984
a_subj(1).22        1.10914   0.0468419    1.01803     1.07759    1.10687    1.14062    1.20294   0.00191474
a_subj(1).23        1.26861   0.0881271    1.11533     1.20619    1.26239    1.32495     1.4649   0.00584694
a_subj(1).24        1.00827   0.0465001   0.925794    0.978061    1.00749    1.03905    1.10411    0.0019034
a_subj(1).25        1.23761     0.08712    1.08715     1.17584     1.2329     1.2875     1.4258   0.00547853
a_subj(1).26        1.27968     0.11119    1.09208     1.20497     1.2652    1.34098    1.56508   0.00826072
a_subj(1).27        1.26086    0.148923    1.05116     1.15667    1.23561    1.32641     1.6576    0.0125365
a_subj(1).28         1.1254   0.0478956    1.03387     1.09177    1.12546    1.15682    1.22404   0.00199242
a_subj(1).29        1.17884   0.0767342    1.04295     1.12335    1.17679    1.22928    1.33043   0.00446907
a_subj(1).30        1.17119   0.0677574     1.0457     1.12517    1.16604    1.21501    1.32105   0.00371559
a_subj(1).31         1.1213   0.0614512    1.01627     1.07883    1.11775    1.15818    1.26565   0.00291195
a_subj(1).32        1.21547   0.0777707    1.08161      1.1628    1.20825    1.26071    1.38358   0.00439019
v(0)                1.86781    0.220108    1.44913     1.72809    1.86495    2.01853    2.31772   0.00859997
v(1)                4.08499    0.229454    3.66302     3.92889    4.07764     4.2276    4.57215    0.0106772
v_std               1.14097    0.136953   0.889206      1.0488    1.13215    1.23024    1.42668   0.00804558
v_subj(0).0        0.106561    0.487961   -1.03641   -0.124312   0.144846   0.407507   0.881864    0.0236485
v_subj(0).1         2.33379    0.446449    1.51371     2.03408    2.31553    2.61537    3.26935    0.0165072
v_subj(0).2        0.936987    0.350769   0.330934    0.704222   0.910403    1.13937    1.63992     0.012563
v_subj(0).3         2.63963    0.495379    1.69189     2.32429    2.60717    2.93788    3.67166    0.0162733
v_subj(0).4         1.77973    0.304743    1.20827     1.56449    1.78297    1.99643    2.36599   0.00890858
v_subj(0).5         2.06229    0.414116    1.36768     1.79621     2.0251    2.27547    3.09788    0.0197339
v_subj(0).6         1.99418     0.30334    1.38687     1.78945     1.9879    2.18506    2.62264   0.00947261
v_subj(0).7         2.00931     0.35063    1.33943     1.76859    1.99861    2.23719    2.69688    0.0100449
v_subj(0).8         2.52082    0.401294    1.80282      2.2593    2.48853    2.74185    3.40768    0.0165554
v_subj(0).9         2.70005    0.367114    1.97713     2.45039    2.70436    2.94341    3.44131    0.0113945
v_subj(0).10       0.961957    0.302729   0.390159    0.752561   0.959494    1.16418     1.5832   0.00793839
v_subj(0).11        1.53729    0.656301   0.560775     1.08111     1.4406    1.86091    3.16014    0.0364591
v_subj(0).12        1.86655    0.349167    1.24478     1.64273    1.86305    2.06311    2.56272    0.0118703
v_subj(0).13       0.964432    0.370937   0.315667    0.716527   0.954205    1.17305     1.6964    0.0121493
v_subj(0).14         2.0618    0.343415    1.40912     1.84221    2.05798    2.27969    2.75822     0.011164
v_subj(0).15        2.79796    0.546757    1.88102     2.43222    2.73465    3.09573    4.03613    0.0278102
v_subj(0).16        1.14795    0.317499   0.570954    0.933502    1.13997    1.34926    1.73807   0.00897159
v_subj(0).17        1.91831    0.357853    1.28901     1.69499    1.89103    2.12944    2.65416    0.0139103
v_subj(0).18        2.16287    0.355224    1.44618     1.93296    2.15308    2.39621    2.87678    0.0102353
v_subj(0).19        1.86465    0.329036    1.20887     1.64643    1.86419    2.08399    2.51531   0.00839196
v_subj(0).20        2.21673    0.357765    1.52398     1.96801    2.21768    2.44571    2.93794    0.0119595
v_subj(0).21        1.89317    0.353344    1.19366     1.65647    1.88451    2.12084    2.60855    0.0108573
v_subj(0).22       0.853318    0.440866  0.0802716    0.562838   0.830694    1.11622    1.66939    0.0136269
v_subj(0).23        3.06258    0.549425    2.06926     2.68267    3.02132     3.3998    4.28834    0.0224968
v_subj(0).24          2.507    0.522061     1.6659     2.15105    2.46151    2.76566    3.91187    0.0259923
v_subj(0).25        2.71873    0.375625    2.00024     2.46114    2.71821    2.95272    3.50854    0.0142142
v_subj(0).26        1.76282    0.457785   0.887677     1.44796    1.76139    2.06745    2.68501    0.0133986
v_subj(0).27        2.65917    0.387701    1.89411     2.40753    2.64954    2.91504    3.45134    0.0133015
v_subj(0).28        2.30114     0.36231      1.591     2.07134     2.2973    2.51805    3.09695    0.0133411
v_subj(0).29        2.00807    0.476891    1.25405     1.69641    1.96067    2.23177    3.09457    0.0221272
v_subj(0).30        1.53308    0.311897   0.939858     1.31971    1.52428    1.73733    2.20329   0.00983621
v_subj(0).31       0.575879    0.371441 -0.0685454    0.324129   0.565684   0.783498    1.31122    0.0119781
v_subj(0).32        1.09167     0.30428   0.485175    0.887876    1.09379     1.2962    1.68699    0.0081724
v_subj(1).0         3.88396    0.752849    2.78661     3.32715    3.73363    4.32694    5.67247    0.0623686
v_subj(1).1         2.72109    0.289071    2.23587     2.52883     2.6885    2.87501    3.46627    0.0163952
v_subj(1).2         3.12512    0.328576    2.58868     2.90725    3.07637    3.28557    3.88215    0.0162098
v_subj(1).3         5.67134    0.483891    4.75996     5.36103    5.65638    5.96608    6.59876     0.037556
v_subj(1).4         3.12595    0.232463    2.70051     2.96591    3.11855    3.27201    3.60808    0.0105923
v_subj(1).5         4.04584    0.556791    3.12296     3.63572    3.99432     4.3734    5.25317    0.0378252
v_subj(1).6           6.664    0.606155    5.50975     6.26374    6.66608    7.08636    7.80413    0.0446139
v_subj(1).7         3.31564    0.376625    2.64828      3.0552    3.28279      3.543    4.15984    0.0202232
v_subj(1).8         4.64206    0.776063    3.49362     4.00342    4.47493    5.25448    6.18569    0.0664046
v_subj(1).9         4.10958    0.541528    3.17295     3.70866    4.05732    4.46271    5.30202    0.0396424
v_subj(1).10        3.56109    0.458461    2.85075     3.21999    3.49785    3.82131    4.58226    0.0299743
v_subj(1).11        3.00655    0.214535    2.60114     2.85827    3.00852    3.14511    3.44962   0.00870034
v_subj(1).12        5.77012    0.538781    4.73999     5.39438    5.77673    6.15193     6.7799    0.0359481
v_subj(1).13        3.32709    0.229267    2.88781     3.17373    3.32675    3.47898    3.79245    0.0092992
v_subj(1).14        4.74656    0.484985     3.9583     4.39617    4.69329    5.01794    5.94825    0.0331114
v_subj(1).15        2.71194    0.219556    2.30349     2.56567    2.70073     2.8469    3.18387    0.0067022
v_subj(1).16        2.88548    0.304004    2.37435     2.67782     2.8397    3.07423    3.55847    0.0156193
v_subj(1).17        1.72055     0.16999    1.38614     1.60347    1.72131    1.84075    2.05316   0.00562691
v_subj(1).18        3.10368    0.290015     2.5889     2.90664    3.07041    3.28446    3.74677    0.0155172
v_subj(1).19        4.22119    0.510419    3.36632     3.84912    4.16507    4.54926    5.33792    0.0371524
v_subj(1).20         5.3912    0.587494    4.29469     4.97701    5.38876    5.80177    6.54456    0.0408276
v_subj(1).21        5.69549    0.528704    4.68513     5.32289    5.69857    6.06521    6.71871    0.0293718
v_subj(1).22        4.63587     1.04126    2.61315     3.88779    4.66341    5.40415      6.538    0.0880391
v_subj(1).23        7.12863    0.892402    5.43868     6.50756    7.17216    7.71492     8.9255    0.0703784
v_subj(1).24        2.87112    0.252261    2.43613     2.70728    2.85332    3.01497     3.3872     0.010359
v_subj(1).25        3.88579    0.368205    3.21626     3.63989    3.86835    4.11269    4.71482    0.0218089
v_subj(1).26        5.16921    0.519554    4.20511     4.79156    5.13434    5.49557    6.19745    0.0364941
v_subj(1).27        4.68761    0.441045    3.90897      4.3832    4.65063    4.96035    5.66693    0.0315226
v_subj(1).28        3.10791     0.51794    2.31817     2.73492    3.02763    3.40853    4.36173    0.0338104
v_subj(1).29         5.7231    0.745437    4.43963     5.19734    5.65832     6.1541    7.42076    0.0545784
v_subj(1).30        3.52671    0.241844    3.07281     3.35925    3.52356    3.67579    4.03149    0.0104704
v_subj(1).31        2.73793    0.254074    2.25724      2.5696    2.72259    2.91011    3.25543    0.0120067
v_subj(1).32        4.11674    0.413999    3.46103     3.82554    4.08496     4.3459    5.04603    0.0275108
t(0)                0.12363  0.00730348   0.109598    0.118625   0.123538   0.128428    0.13846  0.000225842
t(1)              0.0904746  0.00661362  0.0775021    0.086002  0.0904044  0.0947375   0.104009  0.000236156
t_std             0.0417388  0.00468973  0.0335073   0.0385321  0.0414175  0.0445776  0.0521318  0.000188932
t_subj(0).0       0.0698656   0.0114839  0.0537474   0.0621259  0.0663358  0.0754251  0.0960368  0.000543893
t_subj(0).1       0.0877065  0.00778026  0.0717255   0.0829454  0.0877078  0.0926627   0.102765  0.000272564
t_subj(0).2       0.0897723  0.00706698  0.0767915   0.0857194  0.0893983  0.0928605   0.106487   0.00027151
t_subj(0).3        0.179651   0.0102744   0.158159    0.171918   0.181937   0.187677   0.194977  0.000387207
t_subj(0).4       0.0722855  0.00690132   0.056639   0.0684401  0.0729919  0.0768945  0.0841208  0.000245288
t_subj(0).5        0.170618  0.00715397   0.154024    0.166107   0.171396   0.175543   0.182558    0.0002464
t_subj(0).6       0.0975597    0.007849  0.0794402   0.0928457  0.0983596   0.103115    0.11084  0.000307341
t_subj(0).7        0.113996   0.0075048  0.0981619    0.109974   0.114301   0.117801    0.13157  0.000314249
t_subj(0).8       0.0615317  0.00767285  0.0454237    0.056957  0.0620753  0.0669043   0.074597  0.000324367
t_subj(0).9         0.13448   0.0110433    0.11601    0.126858   0.132507     0.1424   0.156373  0.000536932
t_subj(0).10      0.0763059  0.00961599  0.0600815   0.0689617  0.0745465  0.0843381  0.0924374  0.000333713
t_subj(0).11       0.139776  0.00906868   0.123259      0.1342   0.138874   0.143677   0.160372   0.00035373
t_subj(0).12       0.107797  0.00847179  0.0908046    0.103163   0.107737   0.112111   0.127617  0.000305893
t_subj(0).13       0.160809  0.00669655   0.146196    0.156731   0.161683   0.165419   0.171686  0.000237015
t_subj(0).14      0.0806079   0.0156474  0.0466641   0.0703865  0.0823064  0.0928085   0.109392  0.000760486
t_subj(0).15       0.213947   0.0087577    0.19901    0.210269   0.214208   0.217525   0.239255  0.000414869
t_subj(0).16      0.0928927   0.0065009  0.0785437   0.0890937  0.0932329  0.0972118   0.105301  0.000201683
t_subj(0).17        0.13763  0.00614935   0.124471    0.133936   0.138233   0.141867   0.148123  0.000192381
t_subj(0).18       0.152472  0.00553774   0.140255    0.149246   0.152938    0.15627    0.16195  0.000203077
t_subj(0).19      0.0854987   0.0136149  0.0546846   0.0777553  0.0898544  0.0956416   0.102647  0.000682917
t_subj(0).20      0.0630607  0.00594152  0.0519171   0.0597128  0.0631093  0.0666899  0.0747524  0.000209556
t_subj(0).21       0.141484   0.0068119   0.126832    0.137587    0.14197   0.145693   0.154351  0.000233635
t_subj(0).22      0.0945991  0.00641306  0.0787654   0.0910128  0.0953038   0.099205   0.104712  0.000216243
t_subj(0).23       0.135846   0.0121913   0.100121    0.134235   0.139318   0.143157   0.148501  0.000887693
t_subj(0).24       0.134811  0.00904605   0.113032    0.130899    0.13648   0.140789   0.147566  0.000412507
t_subj(0).25       0.193854  0.00636613   0.179608    0.190122   0.194602   0.198419    0.20436  0.000250655
t_subj(0).26       0.191911  0.00490765   0.181248    0.188901   0.192179    0.19519    0.20049  0.000168024
t_subj(0).27       0.180753  0.00648702   0.166662    0.176924   0.181143   0.185037   0.191217  0.000261274
t_subj(0).28       0.131896  0.00762522   0.115187    0.127911   0.132592   0.136633   0.146246  0.000260815
t_subj(0).29       0.104125  0.00838876   0.082187    0.100602   0.105477   0.109022   0.116241  0.000324612
t_subj(0).30       0.146041   0.0186042     0.1202    0.132714   0.138301   0.167305    0.17859   0.00136783
t_subj(0).31       0.109233  0.00729699  0.0931618    0.105072    0.11019   0.114524   0.120716  0.000262482
t_subj(0).32       0.118134  0.00744922   0.100936    0.113851   0.118895   0.123409   0.130128  0.000277141
t_subj(1).0       0.0749969  0.00641183  0.0622142   0.0701378  0.0754728  0.0798099  0.0867734  0.000271888
t_subj(1).1       0.0733283   0.0101033  0.0521505   0.0670135   0.072619  0.0817132  0.0900809  0.000501153
t_subj(1).2       0.0622411  0.00257994  0.0567685   0.0605807  0.0624216  0.0641388  0.0668174  9.20166e-05
t_subj(1).3        0.094767   0.0106283  0.0746318   0.0873532  0.0947554   0.101554   0.115973  0.000877162
t_subj(1).4        0.056603  0.00536873  0.0446669   0.0533773  0.0569306  0.0602159  0.0659078  0.000275946
t_subj(1).5        0.157285   0.0045787   0.148324      0.1541   0.157442     0.1602   0.166428  0.000208365
t_subj(1).6       0.0758297  0.00894981  0.0561557   0.0700076    0.07707  0.0822804  0.0906994  0.000643215
t_subj(1).7       0.0400159  0.00298934  0.0335332   0.0381647  0.0401951  0.0420656  0.0454618   0.00010801
t_subj(1).8       0.0534543  0.00871067  0.0343471   0.0479955  0.0541306  0.0590781  0.0696285  0.000544528
t_subj(1).9        0.087163   0.0093921   0.066016   0.0814265  0.0887439  0.0939056   0.100827  0.000670759
t_subj(1).10      0.0611787  0.00315406  0.0546789    0.059208   0.061405  0.0633578  0.0666437  0.000144444
t_subj(1).11       0.108465  0.00687539  0.0943528    0.103229   0.109672   0.113942   0.118792  0.000386216
t_subj(1).12      0.0842319  0.00571123  0.0718531   0.0806449  0.0848605  0.0882123  0.0941988  0.000386609
t_subj(1).13       0.124854  0.00365498   0.117221    0.122594   0.124904   0.127204    0.13194   0.00014504
t_subj(1).14      0.0367042   0.0054657  0.0250989   0.0332914  0.0371083  0.0403614  0.0463933   0.00032885
t_subj(1).15       0.215586  0.00265763   0.209633    0.214018   0.215905   0.217466   0.219916  0.000107937
t_subj(1).16      0.0866145  0.00668941  0.0704437    0.083139  0.0879167  0.0914132  0.0965183  0.000304265
t_subj(1).17      0.0909605  0.00558995  0.0765513   0.0892474  0.0924224  0.0945586  0.0983163  0.000269109
t_subj(1).18       0.073947  0.00453688  0.0660487   0.0714949  0.0738251  0.0759492  0.0871056  0.000216361
t_subj(1).19       0.069561   0.0116313  0.0413642   0.0626525  0.0718492   0.078302  0.0870073  0.000907082
t_subj(1).20      0.0396411  0.00412406  0.0306368   0.0370649  0.0398341  0.0427152  0.0466829  0.000240383
t_subj(1).21       0.102448  0.00333474  0.0949022    0.100563   0.102649    0.10473   0.108369  0.000172349
t_subj(1).22      0.0310834  0.00519887  0.0209636   0.0277469  0.0308239  0.0344683  0.0413975  0.000205787
t_subj(1).23      0.0758985  0.00684766  0.0633607   0.0712306  0.0752876  0.0803138  0.0896822  0.000394376
t_subj(1).24      0.0805626   0.0045888  0.0722029   0.0772418  0.0802466  0.0838903  0.0894536  0.000183742
t_subj(1).25       0.114431   0.0063923   0.100757    0.110664   0.114316   0.118147   0.128177   0.00033666
t_subj(1).26        0.10598  0.00558065  0.0931184    0.102893   0.106636   0.109751   0.115127  0.000376686
t_subj(1).27       0.158854  0.00772826   0.140756    0.155153   0.160377   0.164009   0.169787  0.000619438
t_subj(1).28      0.0773722  0.00416327  0.0681137    0.074771  0.0776675  0.0802537   0.084967  0.000153283
t_subj(1).29      0.0525311  0.00448564  0.0427683   0.0497765   0.052776  0.0557148  0.0601442   0.00023863
t_subj(1).30      0.0778148  0.00458833  0.0671857   0.0751811   0.078247  0.0808537  0.0856596  0.000226418
t_subj(1).31      0.0769515  0.00773612  0.0564814   0.0735994  0.0786459  0.0819884  0.0876742   0.00039653
t_subj(1).32         0.1086  0.00443706  0.0988778    0.105918    0.10898   0.111642   0.116324  0.000223321
alpha(0)            1.80321     1.24398  0.0617453      0.9455    1.55082       2.38    5.02513     0.109344
alpha(1)          -0.898817    0.375189   -1.59712    -1.15936  -0.919561  -0.662367 -0.0919608    0.0176198
alpha_std           1.77117    0.340343    1.23518     1.52323    1.73013    1.97786    2.50549    0.0239703
alpha_subj(0).0     1.56045     2.49386   -3.26218 -0.00887613    1.67388    3.17096    6.34387     0.156115
alpha_subj(0).1     1.70849     2.16959   -1.79423   0.0351755    1.58473    3.18758    6.29169     0.120546
alpha_subj(0).2     1.53746     2.27192   -2.82716    0.048186    1.55085     2.9773    6.26315     0.126689
alpha_subj(0).3     1.71838     2.15544   -1.83978    0.175308    1.59435    3.11634    6.60027     0.123391
alpha_subj(0).4     2.92345     1.73102   0.154038     1.68633    2.67848    3.87558    6.83175    0.0894454
alpha_subj(0).5     1.59517      2.1436   -2.12985   0.0167576    1.37691    2.99652    6.04345     0.132988
alpha_subj(0).6     2.54988     1.71085  -0.276224     1.35874    2.27737    3.53208    6.60549    0.0942921
alpha_subj(0).7     2.23214     1.91598  -0.939048    0.891234    2.06883    3.34864    6.60419     0.104286
alpha_subj(0).8     1.78121     1.92094   -1.20688     0.42023    1.46892    2.95397    6.38069     0.109339
alpha_subj(0).9     2.30136     1.75585  -0.587211     1.02342    2.12658    3.36931    6.29745    0.0885164
alpha_subj(0).10    2.22668     1.84207   -0.82786    0.927494    2.04903    3.33502    6.37504    0.0990808
alpha_subj(0).11 -0.0246857     2.70061   -3.46275    -2.24041  -0.813339    1.93839    6.02491     0.184563
alpha_subj(0).12    2.61254     1.71382  -0.267323     1.43767      2.504    3.68761    6.40404    0.0959431
alpha_subj(0).13     1.8363     2.16441   -2.20707    0.357208    1.75264    3.24898    6.41241     0.123541
alpha_subj(0).14    2.58333     1.90023  -0.823922      1.3241    2.49803    3.80537    6.68302     0.103708
alpha_subj(0).15   0.877082     2.36492   -2.15309     -1.0528   0.358921    2.47576    6.34916     0.155478
alpha_subj(0).16    1.53447      2.2235   -2.31796  -0.0581828    1.38608    2.92648    6.36973     0.120822
alpha_subj(0).17    1.92419     2.02186   -2.07347     0.59911    1.87828    3.19771    6.05903     0.109771
alpha_subj(0).18    1.92427     1.91826   -1.21575    0.572842    1.68005    3.12866    6.04271     0.113947
alpha_subj(0).19    2.32367     1.81448  -0.812452     1.04847    2.10185    3.47044    6.26852    0.0981543
alpha_subj(0).20    2.11803     1.93922  -0.848795    0.708732    1.79234    3.30861    6.50009     0.108944
alpha_subj(0).21    2.16851     1.96149   -1.29793     0.76869    2.07697    3.44914    6.51439     0.107809
alpha_subj(0).22    1.77225     2.25779   -2.64822    0.331314    1.73961    3.26894    6.14895     0.125596
alpha_subj(0).23    1.12077     2.27783   -2.05903   -0.783361   0.703392    2.67852      6.051     0.142509
alpha_subj(0).24   0.646017     2.30814   -2.40673    -1.13605   0.058371     2.1564    5.88208      0.15988
alpha_subj(0).25    1.99141     1.91369  -0.942824    0.554721    1.77027    3.12415    6.59531     0.118786
alpha_subj(0).26    1.55734     2.26806    -2.2397   -0.128724    1.41417    3.01571    6.38524     0.135624
alpha_subj(0).27    1.81528     1.83991  -0.886951    0.432875    1.50075    2.88104    6.30198     0.109072
alpha_subj(0).28    1.80427     1.96926   -1.40348    0.351595    1.59215    2.96044    6.24046     0.116258
alpha_subj(0).29   0.830524     2.28455   -2.45791   -0.858691   0.392858    2.11098    6.08831     0.140703
alpha_subj(0).30    2.06665     2.06189   -1.61551    0.630319    1.96994    3.34768     6.8406     0.111956
alpha_subj(0).31    1.67215     2.29248   -3.03995    0.178515    1.60609    3.16379    6.39618      0.12737
alpha_subj(0).32    2.30925     1.95143   -1.04007    0.940975    2.15784    3.47268    6.56396     0.108874
alpha_subj(1).0    -2.75182     0.69601   -3.99663    -3.25827   -2.74389   -2.28675   -1.33392    0.0560824
alpha_subj(1).1    -1.01825    0.973026   -2.57747    -1.63861   -1.14156  -0.559259     1.3872    0.0477464
alpha_subj(1).2    -1.14812     1.10767    -2.9106    -1.86427   -1.27728  -0.564465    1.34467    0.0449222
alpha_subj(1).3    0.371888    0.741161  -0.925699   -0.126514   0.326049   0.787707    2.01307    0.0447431
alpha_subj(1).4     1.44279     1.04155   -0.10486    0.708624    1.25881    1.99729    3.96362    0.0450987
alpha_subj(1).5    -2.80824    0.465737   -3.68417    -3.12554   -2.83553   -2.49222   -1.85347    0.0309524
alpha_subj(1).6      -1.193    0.387294   -1.93737     -1.4641   -1.19885  -0.944233  -0.426966     0.021138
alpha_subj(1).7    -1.96023    0.561068   -2.95399    -2.33674   -1.98407   -1.61737  -0.772834    0.0294698
alpha_subj(1).8    0.289434     1.54425   -1.79428   -0.971082  -0.133838    1.44336     3.5638     0.124598
alpha_subj(1).9    -1.44318    0.730606   -2.53055    -1.94989   -1.55367   -1.05681   0.280104    0.0474398
alpha_subj(1).10   -2.22533    0.598578   -3.30762    -2.61443   -2.24842    -1.8758  -0.951186    0.0347394
alpha_subj(1).11    1.18389    0.955205  -0.267578    0.509146    1.01872     1.6991    3.54173    0.0354068
alpha_subj(1).12   -1.00509    0.525726   -1.75936    -1.33904   -1.04903  -0.740977  0.0347617    0.0281035
alpha_subj(1).13    1.14543     1.01037  -0.322529     0.48222    0.96761    1.65662    3.62643    0.0387894
alpha_subj(1).14  -0.229085    0.889562   -1.94752   -0.830833  -0.235117   0.302491    1.60395    0.0537156
alpha_subj(1).15   0.261507     1.30259   -1.75767   -0.693438  0.0728913    1.07325    3.22502    0.0456172
alpha_subj(1).16   -1.41361     1.05338   -2.69402    -2.08019    -1.6589   -1.06588    1.57749    0.0478347
alpha_subj(1).17    1.27401     1.11397  -0.397032    0.482375    1.12311    1.90428    3.81032    0.0398367
alpha_subj(1).18  -0.346366     1.28109   -2.13732    -1.21961  -0.646246   0.274613    2.90081    0.0623758
alpha_subj(1).19   -0.44211    0.811103   -1.85474   -0.985918  -0.534292  0.0367561    1.37627    0.0510733
alpha_subj(1).20   -1.22867    0.904003   -2.27612    -1.82892   -1.46563  -0.890558    1.27593     0.057779
alpha_subj(1).21   -1.41007    0.449839   -2.17398    -1.70649   -1.43789   -1.17704  -0.471453    0.0233723
alpha_subj(1).22   -4.09366    0.572257   -4.82711    -4.50418   -4.21335   -3.83462   -2.47325     0.048397
alpha_subj(1).23   -3.41311    0.375279   -3.98417    -3.67709   -3.47905   -3.19126   -2.54236    0.0297808
alpha_subj(1).24  -0.714793     0.88331   -2.14824    -1.23853  -0.818448  -0.357877    1.45351    0.0346258
alpha_subj(1).25  -0.400771     1.43712   -2.09393    -1.37603  -0.865988   0.216866    3.09741     0.082999
alpha_subj(1).26  -0.781972    0.567015   -1.67647    -1.15796  -0.853686   -0.48217   0.539855    0.0332015
alpha_subj(1).27   0.753441     1.08149   -1.18484   0.0118101   0.686813    1.39743    3.05766    0.0570436
alpha_subj(1).28   -3.16099    0.478149    -4.1463     -3.4862   -3.13773   -2.83266   -2.24617    0.0309809
alpha_subj(1).29   -2.73546    0.434437   -3.61614    -3.01364     -2.705   -2.43374   -1.93004    0.0314159
alpha_subj(1).30    0.21829     1.07584   -1.31011   -0.492049  0.0308274   0.662527    3.03578    0.0417711
alpha_subj(1).31  -0.292994     1.09435     -2.062    -1.05148  -0.397007   0.334451    2.22127    0.0471934
alpha_subj(1).32  -0.612088     0.99663   -2.11058    -1.22639  -0.774353  -0.182866    2.08097    0.0563217
DIC: -13287.087790
deviance: -13459.939575
pD: 172.851785