param,mean,std,2.5q,25q,50q,75q,97.5q,mc err
a(1),2.58092,0.200935,2.19211,2.44364,2.57354,2.71693,2.97229,0.00772099
a(3),3.27588,0.216993,2.85186,3.128,3.2682,3.41737,3.71863,0.0078797
a_std,1.18535,0.132947,0.948165,1.09224,1.17472,1.26561,1.47469,0.00600781
a_subj(1).0,3.05427,0.397568,2.26679,2.76355,3.08156,3.36686,3.72552,0.0346343
a_subj(1).1,2.18835,0.425893,1.44245,1.89414,2.14762,2.4651,3.06361,0.036111
a_subj(1).2,1.43302,0.215419,1.1081,1.27551,1.4026,1.55644,1.95413,0.0180488
a_subj(1).3,2.80622,0.40252,2.11477,2.52696,2.74941,3.06735,3.66233,0.0364728
a_subj(1).4,2.82857,0.358545,2.16721,2.59523,2.81098,3.03123,3.60576,0.0307059
a_subj(1).5,1.05312,0.0750691,0.91541,1.00062,1.04921,1.10491,1.20263,0.00364901
a_subj(1).6,3.41624,0.204017,3.03454,3.27965,3.41079,3.5461,3.8279,0.0129772
a_subj(1).7,4.47634,0.904703,2.99539,3.78633,4.43564,5.07503,6.50315,0.0885535
a_subj(1).8,3.83237,0.617991,2.71363,3.38733,3.80211,4.24458,5.24195,0.05799
a_subj(1).9,2.99022,0.329027,2.21804,2.79631,3.02288,3.22326,3.55018,0.0267487
a_subj(1).10,1.797,0.202828,1.40131,1.66521,1.78984,1.91627,2.22499,0.0163204
a_subj(1).11,3.84857,0.318728,3.23614,3.63376,3.84546,4.04969,4.4792,0.0249439
a_subj(1).12,2.58704,0.319146,2.03917,2.37797,2.5571,2.75769,3.39809,0.0278966
a_subj(1).13,2.27136,0.290642,1.72203,2.07926,2.26016,2.45731,2.8839,0.0230758
a_subj(1).14,2.03091,0.152965,1.75789,1.92095,2.02503,2.12823,2.34495,0.00915514
a_subj(1).15,3.60292,0.313444,2.97991,3.38414,3.60798,3.82224,4.1892,0.026673
a_subj(1).16,1.89697,0.250278,1.44848,1.70612,1.87615,2.07827,2.38496,0.0202925
a_subj(1).17,1.04985,0.0845972,0.907675,0.992484,1.03912,1.09995,1.24118,0.00492476
a_subj(1).18,1.7229,0.257629,1.24669,1.54317,1.71677,1.89831,2.25019,0.0207354
a_subj(1).19,2.98562,0.343794,2.25689,2.79522,3.03709,3.21996,3.5288,0.0292606
a_subj(1).20,2.18137,0.316304,1.62806,1.95272,2.15925,2.3938,2.82361,0.025657
a_subj(1).21,2.66066,0.15689,2.37406,2.55007,2.6572,2.76762,2.99812,0.0105007
a_subj(1).22,2.68063,0.3963,1.84066,2.45687,2.69669,2.93505,3.50194,0.0350156
a_subj(1).23,1.40998,0.139053,1.17875,1.31178,1.39884,1.49498,1.72641,0.00848599
a_subj(1).24,1.78658,0.244655,1.33519,1.62712,1.75328,1.9392,2.28412,0.0217217
a_subj(1).25,4.00083,0.404692,3.28267,3.70765,3.97918,4.27311,4.85335,0.035922
a_subj(1).26,1.29727,0.247514,0.943652,1.12253,1.24906,1.42643,1.89758,0.0204374
a_subj(1).27,2.44499,0.151656,2.1503,2.34012,2.45018,2.55091,2.73762,0.00986391
a_subj(3).0,1.48833,0.0939073,1.30332,1.42508,1.48561,1.5521,1.66691,0.00574431
a_subj(3).1,6.02755,0.440218,5.01498,5.77823,6.09646,6.31575,6.78444,0.0403263
a_subj(3).2,5.40962,0.369737,4.6136,5.16595,5.44093,5.683,6.05016,0.0334178
a_subj(3).3,2.99632,0.503745,2.12562,2.62062,2.92697,3.3811,4.01684,0.0477831
a_subj(3).4,2.75752,0.13854,2.47139,2.67669,2.76431,2.84426,3.00955,0.010185
a_subj(3).5,3.86944,0.275757,3.30816,3.68747,3.88372,4.05947,4.3685,0.0216447
a_subj(3).6,3.94477,0.244084,3.39563,3.7963,3.96476,4.1118,4.36438,0.0174106
a_subj(3).7,1.73734,0.241899,1.34593,1.55234,1.71496,1.89372,2.2397,0.0211835
a_subj(3).8,5.27843,1.4412,3.05203,4.19538,4.93272,6.31769,8.14131,0.142447
a_subj(3).9,3.5475,0.251957,3.06613,3.37397,3.5499,3.72153,4.02824,0.0185749
a_subj(3).10,2.41355,0.303218,1.85618,2.1957,2.38897,2.62593,3.05357,0.0270707
a_subj(3).11,2.62453,0.134734,2.38264,2.5299,2.61933,2.70999,2.91398,0.00797654
a_subj(3).12,2.69022,0.14932,2.39611,2.59026,2.68764,2.78682,2.97664,0.0096972
a_subj(3).13,4.51207,0.799064,3.18339,3.94571,4.39725,5.03,6.57064,0.0786038
a_subj(3).14,3.51665,0.21437,3.07817,3.38558,3.51832,3.66043,3.92777,0.0173634
a_subj(3).15,3.7538,0.20512,3.36353,3.61589,3.75199,3.89053,4.1849,0.0149241
a_subj(3).16,2.86337,0.170167,2.49863,2.75831,2.86676,2.97887,3.17865,0.0138353
a_subj(3).17,2.06013,0.240982,1.65099,1.88601,2.05118,2.21156,2.5738,0.0208036
a_subj(3).18,1.51973,0.0708516,1.38661,1.4694,1.51994,1.56889,1.66051,0.00329429
a_subj(3).19,3.57421,0.378061,2.69715,3.32802,3.60954,3.85682,4.19629,0.0339806
a_subj(3).20,2.66709,0.167346,2.3212,2.55657,2.6692,2.7865,2.97801,0.0109999
a_subj(3).21,4.52753,0.217734,4.11428,4.37467,4.54228,4.67805,4.94827,0.0176572
a_subj(3).22,4.37049,0.239677,3.91707,4.19598,4.36592,4.54426,4.83965,0.0191151
a_subj(3).23,4.60017,0.300999,3.95202,4.40744,4.61637,4.79567,5.1674,0.0251564
a_subj(3).24,5.73578,1.6991,3.1963,3.93745,6.21465,7.33082,7.87708,0.16902
a_subj(3).25,3.51203,0.254393,2.85462,3.38545,3.55353,3.67679,3.92034,0.0222555
a_subj(3).26,2.4259,0.134873,2.17018,2.33214,2.42014,2.51233,2.7052,0.00817999
a_subj(3).27,2.08199,0.103091,1.8807,2.01272,2.0783,2.14996,2.29315,0.00596369
v(1),6.88388,0.625018,5.60939,6.47566,6.89422,7.31987,8.07988,0.0200009
v(3),10.8856,0.653356,9.60669,10.4529,10.8574,11.3182,12.2297,0.020707
v_std,3.40404,0.339603,2.80945,3.16432,3.38182,3.62137,4.12753,0.0131132
v_subj(1).0,5.31963,0.451451,4.37715,5.02059,5.34344,5.65191,6.10914,0.0343096
v_subj(1).1,6.6487,1.06874,4.65907,5.87557,6.66,7.41984,8.68604,0.0796105
v_subj(1).2,8.1578,1.00519,6.23965,7.42873,8.12689,8.87064,10.0755,0.0741224
v_subj(1).3,8.73495,0.789504,6.96115,8.27878,8.77483,9.22205,10.2632,0.0621823
v_subj(1).4,5.4877,0.489462,4.59719,5.17264,5.46788,5.79377,6.57005,0.0362795
v_subj(1).5,2.5134,0.340305,1.90328,2.29124,2.48743,2.70372,3.30952,0.0150724
v_subj(1).6,5.22432,0.312072,4.64995,5.01339,5.20424,5.41515,5.86707,0.0184237
v_subj(1).7,8.2302,0.72082,6.78123,7.72007,8.26524,8.70261,9.64713,0.0654482
v_subj(1).8,9.0118,1.17033,6.76819,8.17185,9.06144,9.8532,11.2461,0.105185
v_subj(1).9,9.32111,0.777499,7.80592,8.79584,9.33022,9.87111,10.788,0.0513881
v_subj(1).10,8.71642,0.842805,7.01929,8.17159,8.70316,9.32457,10.3753,0.059717
v_subj(1).11,6.08908,0.480484,5.19756,5.75316,6.06957,6.41102,7.01627,0.0361219
v_subj(1).12,12.4855,0.926534,10.6974,11.8559,12.4856,13.1471,14.3236,0.0665933
v_subj(1).13,8.52339,0.881956,6.95835,7.89762,8.49202,9.08901,10.4056,0.064314
v_subj(1).14,6.03687,0.573193,4.9475,5.66158,6.04257,6.40663,7.21353,0.0339713
v_subj(1).15,6.03888,0.477945,5.15883,5.69084,6.04434,6.3462,7.04441,0.0405562
v_subj(1).16,5.04339,1.03667,3.00405,4.35079,4.99945,5.8414,6.94032,0.0889773
v_subj(1).17,5.80214,0.591409,4.72094,5.38674,5.79759,6.19757,6.97615,0.0300966
v_subj(1).18,10.2807,0.971763,8.46665,9.61313,10.3038,10.9297,12.2379,0.0638298
v_subj(1).19,5.08598,0.49373,4.04862,4.76684,5.13887,5.42754,5.9326,0.038992
v_subj(1).20,9.10924,1.00315,7.02988,8.42789,9.13976,9.78442,11.0184,0.0722198
v_subj(1).21,5.5148,0.359778,4.8376,5.27042,5.52415,5.75029,6.26521,0.023735
v_subj(1).22,9.00587,0.777767,7.56276,8.46612,9.00231,9.54567,10.489,0.0549711
v_subj(1).23,3.84435,0.730291,2.54478,3.30868,3.82093,4.31291,5.37982,0.0507025
v_subj(1).24,10.0109,0.898414,8.31649,9.38282,9.95359,10.6492,11.7886,0.0709433
v_subj(1).25,6.37501,0.616422,5.3317,5.91954,6.31938,6.79777,7.62603,0.0538544
v_subj(1).26,7.25699,1.39369,4.78309,6.23376,7.23497,8.18878,10.0994,0.0977971
v_subj(1).27,5.19989,0.478797,4.43588,4.89377,5.15415,5.41817,6.3528,0.0372584
v_subj(3).0,4.98094,0.582895,4.07396,4.59898,4.92886,5.25967,6.40222,0.046302
v_subj(3).1,16.8225,0.982271,14.915,16.1661,16.8995,17.4842,18.7512,0.0859396
v_subj(3).2,18.6862,1.04395,16.7496,17.9282,18.6523,19.4163,20.702,0.0890074
v_subj(3).3,9.04928,0.86422,7.33027,8.46634,9.05564,9.67587,10.6792,0.0726601
v_subj(3).4,11.6162,0.586832,10.5014,11.2165,11.6151,12.0181,12.7512,0.0404388
v_subj(3).5,6.71565,0.793853,5.39428,6.11055,6.60935,7.3066,8.27374,0.0697018
v_subj(3).6,12.05,0.748513,10.4157,11.5461,12.0993,12.5834,13.4335,0.0522248
v_subj(3).7,11.1677,0.927357,9.48409,10.5222,11.1189,11.7777,12.9943,0.0714209
v_subj(3).8,17.3172,1.79426,14.0879,15.9881,17.25,18.5869,21.1304,0.169169
v_subj(3).9,11.0131,0.806255,9.40698,10.4468,10.9999,11.5654,12.5474,0.0580355
v_subj(3).10,10.8528,0.863712,9.0959,10.2424,10.8891,11.4228,12.5107,0.0687453
v_subj(3).11,8.98568,0.53557,7.96194,8.61457,8.9831,9.32959,10.0807,0.0308257
v_subj(3).12,4.98327,0.426953,4.3369,4.71644,4.93408,5.16927,6.23007,0.0336478
v_subj(3).13,17.8784,1.2378,15.655,17.0112,17.8655,18.7319,20.4436,0.113242
v_subj(3).14,9.77427,0.82064,8.13939,9.2231,9.78714,10.2954,11.5385,0.070825
v_subj(3).15,12.317,0.690389,10.9832,11.8496,12.3007,12.7973,13.7377,0.0501521
v_subj(3).16,13.0331,0.745598,11.6344,12.4935,13.0402,13.539,14.4916,0.0559685
v_subj(3).17,7.75339,0.826888,6.07595,7.1858,7.73805,8.36208,9.33406,0.0657658
v_subj(3).18,4.08018,0.456882,3.48422,3.82262,4.00519,4.20749,5.5462,0.0360675
v_subj(3).19,8.60168,0.766875,7.02589,8.11456,8.60645,9.11489,10.1328,0.0633093
v_subj(3).20,6.90215,0.595112,5.69949,6.52367,6.9075,7.29801,8.09485,0.0414188
v_subj(3).21,14.4828,0.73002,13.0707,13.9681,14.5198,15.0112,15.8414,0.0594282
v_subj(3).22,13.5981,0.739517,12.1709,13.1217,13.5663,14.1154,15.046,0.0576754
v_subj(3).23,13.2726,0.861276,11.468,12.6856,13.307,13.8487,14.9298,0.0712722
v_subj(3).24,17.9425,1.94427,14.5321,16.0376,18.5373,19.5506,20.8116,0.18844
v_subj(3).25,14.162,0.760319,12.6797,13.6266,14.1649,14.6985,15.59,0.0589929
v_subj(3).26,8.11353,0.54346,7.0965,7.74622,8.08223,8.47216,9.20035,0.0338555
v_subj(3).27,10.6471,0.603815,9.49328,10.247,10.6169,11.0348,11.8799,0.0344612
t(1),0.18324,0.0546654,0.0976858,0.141173,0.17611,0.217306,0.309447,0.00468102
t(3),0.0990154,0.0369987,0.0442662,0.0701842,0.0922346,0.12482,0.182188,0.00333202
t_std,0.343273,0.139124,0.149235,0.236546,0.313365,0.428713,0.661098,0.0127955
t_subj(1).0,0.0251312,0.0211233,6.10968e-06,0.00511548,0.0233138,0.0406465,0.067708,0.0017634
t_subj(1).1,0.115113,0.0326009,0.0459005,0.0952533,0.114489,0.138571,0.17425,0.00251433
t_subj(1).2,0.214239,0.010644,0.188091,0.208225,0.215882,0.221984,0.229732,0.000841076
t_subj(1).3,0.0466521,0.02473,0.000131842,0.0280252,0.0495871,0.0644785,0.0906611,0.00215675
t_subj(1).4,0.0683213,0.0215248,0.0219374,0.0564433,0.0699574,0.0821167,0.108627,0.00176318
t_subj(1).5,0.157144,0.011443,0.138122,0.148509,0.157349,0.164288,0.184467,0.000593857
t_subj(1).6,0.00366848,0.00558306,6.85177e-08,6.33504e-05,0.00101383,0.0051557,0.0202288,0.000311814
t_subj(1).7,0.0775174,0.0360711,0.00239236,0.0516899,0.080608,0.104796,0.141488,0.00347131
t_subj(1).8,0.128999,0.0287744,0.0663761,0.110603,0.13192,0.14952,0.178781,0.00259866
t_subj(1).9,0.0178717,0.0229901,2.37937e-06,0.000785753,0.00826628,0.0256786,0.085289,0.00194224
t_subj(1).10,0.161599,0.0101224,0.139708,0.155055,0.161974,0.168098,0.181642,0.000704904
t_subj(1).11,0.00513498,0.00870569,1.10293e-12,5.85632e-05,0.00143851,0.0063642,0.0294406,0.000581787
t_subj(1).12,0.175855,0.0155453,0.139203,0.167569,0.177021,0.184891,0.203157,0.00130087
t_subj(1).13,0.180973,0.0172705,0.148929,0.169244,0.180469,0.191882,0.2176,0.00121631
t_subj(1).14,0.00138168,0.00247818,1.98849e-09,2.01197e-05,0.000323469,0.00155584,0.00920594,0.000143957
t_subj(1).15,0.00608306,0.00956924,1.97817e-07,0.000103397,0.00182262,0.00814112,0.0357937,0.000693009
t_subj(1).16,0.00337872,0.00853254,3.46775e-14,9.77875e-07,0.000367335,0.00249654,0.0348603,0.000681878
t_subj(1).17,0.190945,0.00576696,0.178179,0.187551,0.191608,0.195029,0.200145,0.000313517
t_subj(1).18,0.201162,0.0149715,0.17047,0.191433,0.200402,0.211211,0.229583,0.00114481
t_subj(1).19,0.00650921,0.0133253,5.6435e-14,1.65511e-05,0.000729667,0.00632022,0.0525421,0.00113506
t_subj(1).20,0.160984,0.0173915,0.122779,0.150135,0.16225,0.173288,0.192036,0.00132358
t_subj(1).21,0.00183802,0.00282525,6.60622e-08,3.85855e-05,0.000537345,0.00257825,0.0105425,0.000161621
t_subj(1).22,0.0966218,0.0350495,0.0404759,0.074674,0.09119,0.11232,0.193286,0.00310376
t_subj(1).23,0.0856502,0.0163104,0.0535483,0.0733959,0.0864915,0.0976694,0.114701,0.000825984
t_subj(1).24,0.178475,0.0123754,0.153571,0.1711,0.179003,0.185756,0.206904,0.00104664
t_subj(1).25,0.00656664,0.0160141,8.24252e-08,6.94066e-05,0.000825229,0.00409119,0.0717179,0.00142457
t_subj(1).26,0.214426,0.014074,0.181127,0.207013,0.217114,0.224385,0.234549,0.00110564
t_subj(1).27,0.00162737,0.00255615,3.69546e-07,5.26891e-05,0.000494794,0.00227468,0.00838012,0.000141851
t_subj(3).0,0.000275219,0.000941518,3.43542e-32,3.64353e-20,6.61709e-09,3.50552e-05,0.00326526,6.23947e-05
t_subj(3).1,0.00525408,0.0118999,1.8175e-11,2.8186e-07,4.12882e-05,0.00254662,0.0460356,0.00110076
t_subj(3).2,0.00372183,0.00869655,6.72112e-14,2.70113e-08,1.00736e-05,0.00151543,0.0339391,0.000792441
t_subj(3).3,0.0456143,0.0271344,4.98084e-06,0.0252487,0.0490993,0.0659963,0.0939385,0.00254053
t_subj(3).4,0.000629735,0.00315699,4.46683e-19,1.61898e-12,3.89513e-09,7.0076e-06,0.00738434,0.00028267
t_subj(3).5,0.00437886,0.00823454,5.64263e-13,1.40409e-06,0.000285618,0.0045671,0.0298448,0.000624182
t_subj(3).6,0.0011415,0.00459521,8.88268e-30,7.01316e-18,1.33783e-08,6.26951e-05,0.014246,0.000346284
t_subj(3).7,0.183564,0.0115234,0.160506,0.176367,0.184105,0.192043,0.20392,0.000974351
t_subj(3).8,0.102355,0.0550999,2.44475e-10,0.0654722,0.113832,0.144845,0.187291,0.00542553
t_subj(3).9,0.00131772,0.00384246,1.02871e-15,1.14962e-09,5.725e-06,0.000552777,0.011673,0.000257672
t_subj(3).10,0.160374,0.0159269,0.125228,0.150094,0.161539,0.171154,0.188231,0.00134856
t_subj(3).11,0.000528791,0.00125421,4.31738e-10,1.03091e-06,2.16532e-05,0.000326074,0.00492788,8.49087e-05
t_subj(3).12,0.00114989,0.00275357,3.78717e-22,1.28041e-07,7.65803e-05,0.000885258,0.00913084,0.000177428
t_subj(3).13,0.0845808,0.0303677,6.30003e-05,0.0669558,0.0878871,0.105773,0.134392,0.00295597
t_subj(3).14,0.000888904,0.00295802,5.78982e-20,4.30311e-14,6.95249e-09,8.90074e-05,0.0103292,0.000216772
t_subj(3).15,0.000719153,0.00279566,1.23382e-16,4.70024e-11,1.70047e-07,5.41902e-05,0.00831498,0.000167405
t_subj(3).16,0.00132889,0.00440013,3.28684e-16,4.08283e-12,1.744e-08,6.47229e-05,0.0175323,0.00038792
t_subj(3).17,0.109639,0.012265,0.0830331,0.102154,0.110362,0.118635,0.130986,0.000978677
t_subj(3).18,0.000318248,0.00112754,3.71331e-21,3.71534e-12,9.55664e-07,4.49233e-05,0.00356538,6.28504e-05
t_subj(3).19,0.0146038,0.0182819,1.56893e-12,5.94251e-05,0.00469266,0.0267556,0.0594238,0.00160804
t_subj(3).20,0.00186366,0.00429982,1.8581e-12,7.72394e-07,4.03067e-05,0.00117158,0.0147117,0.000307108
t_subj(3).21,0.000643958,0.00224938,5.47472e-22,6.12256e-18,1.32007e-12,2.06264e-05,0.00765019,0.000163729
t_subj(3).22,0.00167934,0.00508958,9.79519e-15,3.98676e-08,8.40457e-06,0.000441994,0.0171805,0.000351879
t_subj(3).23,0.00144139,0.00394765,7.24039e-14,1.0639e-08,1.00881e-05,0.000638462,0.0156812,0.000274442
t_subj(3).24,0.0672131,0.0649759,1.37376e-11,3.09053e-05,0.0551499,0.134183,0.168791,0.00646304
t_subj(3).25,0.00459427,0.00923553,1.55144e-17,1.89562e-09,6.3256e-05,0.00367083,0.0354009,0.000849217
t_subj(3).26,0.000202779,0.000830951,4.79685e-19,6.09494e-15,1.84721e-08,6.70473e-06,0.00237699,5.47954e-05
t_subj(3).27,0.000487056,0.00126387,2.5896e-13,1.0082e-07,1.38047e-05,0.000289818,0.00451222,8.1989e-05
alpha(1),0.142904,0.508914,-0.794771,-0.19364,0.108668,0.467205,1.25616,0.0205758
alpha(3),1.14827,0.547532,0.133493,0.768892,1.10487,1.47991,2.33249,0.0230051
alpha_std,2.35771,0.394264,1.72125,2.07756,2.32364,2.58771,3.27166,0.0222757
alpha_subj(1).0,2.43262,1.56641,-0.103318,1.33569,2.24687,3.33476,6.10929,0.051469
alpha_subj(1).1,-0.842367,0.554022,-1.66587,-1.23097,-0.922267,-0.565891,0.592685,0.0281124
alpha_subj(1).2,-1.6288,0.372736,-2.31738,-1.87765,-1.64209,-1.39391,-0.836796,0.0173998
alpha_subj(1).3,-1.64299,0.272308,-2.14087,-1.83327,-1.6643,-1.4797,-1.07671,0.0147903
alpha_subj(1).4,2.4016,1.3311,0.663273,1.46509,2.11638,3.02912,5.87224,0.0602864
alpha_subj(1).5,-0.0880355,1.53404,-2.21366,-1.13664,-0.436126,0.595121,3.8875,0.0623639
alpha_subj(1).6,3.76793,1.45902,1.54971,2.7163,3.55571,4.63159,7.11071,0.0463035
alpha_subj(1).7,3.12055,1.31967,1.15669,2.18923,2.94138,3.81344,6.31235,0.048858
alpha_subj(1).8,0.621566,1.07439,-0.841703,-0.0865353,0.364925,1.107,3.37197,0.0906149
alpha_subj(1).9,-1.26385,0.28807,-1.85811,-1.45112,-1.26037,-1.07898,-0.715544,0.00970454
alpha_subj(1).10,-2.22997,0.247285,-2.70017,-2.39146,-2.24001,-2.07635,-1.69746,0.0105038
alpha_subj(1).11,2.80325,1.26805,1.01167,1.89878,2.52108,3.45531,5.86554,0.0538276
alpha_subj(1).12,-1.02404,0.275521,-1.5833,-1.21029,-1.01507,-0.839544,-0.47666,0.00881206
alpha_subj(1).13,-1.45047,0.326259,-2.04802,-1.67285,-1.4634,-1.21752,-0.811296,0.0171201
alpha_subj(1).14,-2.37225,0.237127,-2.82301,-2.53264,-2.37976,-2.21267,-1.86495,0.00809701
alpha_subj(1).15,3.12901,1.37651,0.716608,2.2058,2.99949,3.93284,6.19697,0.0655548
alpha_subj(1).16,-1.38176,1.31258,-2.53861,-2.14162,-1.78908,-1.22786,2.61946,0.107784
alpha_subj(1).17,-1.89791,0.376647,-2.56817,-2.14728,-1.91686,-1.67169,-1.1167,0.015586
alpha_subj(1).18,-0.777343,0.464422,-1.7206,-1.07773,-0.758143,-0.474897,0.209249,0.014233
alpha_subj(1).19,2.66375,1.39149,0.610188,1.63676,2.46266,3.45241,5.85951,0.0520221
alpha_subj(1).20,-1.37309,0.388288,-2.04571,-1.64207,-1.41279,-1.14263,-0.479692,0.0216437
alpha_subj(1).21,1.9284,1.42782,0.0459181,0.980257,1.61593,2.50696,5.59284,0.0592109
alpha_subj(1).22,-1.83404,0.229095,-2.29275,-1.99201,-1.83728,-1.67823,-1.38614,0.00850013
alpha_subj(1).23,-1.49072,1.48797,-2.89916,-2.32325,-1.96012,-1.3396,3.33363,0.0912648
alpha_subj(1).24,-1.4787,0.257397,-1.96958,-1.64834,-1.48498,-1.3142,-0.970581,0.008123
alpha_subj(1).25,2.5394,1.45371,0.548144,1.46844,2.23757,3.38741,6.22121,0.0538554
alpha_subj(1).26,-0.671523,1.14495,-2.04007,-1.38712,-0.971567,-0.372352,2.54452,0.0621365
alpha_subj(1).27,2.04017,1.52937,-0.658723,1.07061,1.83398,2.90062,5.63391,0.089685
alpha_subj(3).0,0.812153,1.35642,-1.66107,-0.00898042,0.627849,1.46684,3.96346,0.0798205
alpha_subj(3).1,2.70663,1.68399,0.478454,1.47569,2.3456,3.5549,6.98335,0.0585915
alpha_subj(3).2,2.70025,1.56253,0.515371,1.5923,2.4104,3.5425,6.44884,0.0588472
alpha_subj(3).3,-1.00743,0.356881,-1.65839,-1.25608,-1.00629,-0.787072,-0.239356,0.023164
alpha_subj(3).4,2.12777,1.77523,-0.400291,0.837857,1.84185,3.10507,6.41637,0.0537904
alpha_subj(3).5,1.3962,1.45442,-0.478725,0.317222,1.06866,2.18006,4.82199,0.115717
alpha_subj(3).6,2.86959,1.63244,0.457921,1.65128,2.62105,3.85653,6.64042,0.058822
alpha_subj(3).7,-1.49604,0.312517,-2.13159,-1.69504,-1.49439,-1.29031,-0.868477,0.0108364
alpha_subj(3).8,2.66268,1.66762,0.202865,1.48835,2.37537,3.5562,6.84083,0.0594278
alpha_subj(3).9,2.69852,1.66555,0.0995675,1.54562,2.42705,3.59312,6.94149,0.047906
alpha_subj(3).10,-1.61075,0.29313,-2.17384,-1.80977,-1.6122,-1.42448,-1.00222,0.016279
alpha_subj(3).11,-1.61039,0.315065,-2.20881,-1.82284,-1.60971,-1.40702,-0.980784,0.0100411
alpha_subj(3).12,2.07014,1.51209,-0.557479,1.14202,1.82713,2.78477,5.89519,0.0792783
alpha_subj(3).13,2.95337,1.64592,0.662918,1.75281,2.65155,3.83343,6.9524,0.0515841
alpha_subj(3).14,-0.65176,0.34013,-1.26582,-0.87914,-0.671963,-0.438343,0.0638104,0.0270355
alpha_subj(3).15,2.69435,1.68907,0.285288,1.45006,2.4093,3.67118,6.91183,0.0573794
alpha_subj(3).16,-1.21291,0.269634,-1.72355,-1.39747,-1.2293,-1.02772,-0.665793,0.00752276
alpha_subj(3).17,-1.39519,0.360237,-2.01657,-1.6364,-1.42594,-1.20242,-0.605509,0.0239922
alpha_subj(3).18,2.54996,2.06455,-1.71171,1.44894,2.52605,3.80392,6.80539,0.122732
alpha_subj(3).19,-0.666701,0.371587,-1.3345,-0.91853,-0.694629,-0.428337,0.117485,0.0252007
alpha_subj(3).20,-0.934439,0.354451,-1.56634,-1.18174,-0.943524,-0.713391,-0.207997,0.0210699
alpha_subj(3).21,2.9917,1.59483,0.533765,1.8743,2.7414,3.86765,6.64977,0.054377
alpha_subj(3).22,3.31594,1.59455,0.927429,2.1785,3.08784,4.13757,7.19142,0.0556628
alpha_subj(3).23,3.23521,1.63689,0.760361,2.03706,3.03218,4.15073,6.96767,0.0551745
alpha_subj(3).24,3.64963,1.65022,1.12659,2.5276,3.42981,4.48027,7.78952,0.0604042
alpha_subj(3).25,2.82433,1.73241,0.267431,1.56418,2.53496,3.75147,6.9846,0.0583881
alpha_subj(3).26,-2.30712,0.189834,-2.68363,-2.43589,-2.31043,-2.18399,-1.9204,0.00608726
alpha_subj(3).27,1.85133,1.7682,-0.551477,0.518597,1.54477,2.819,6.30004,0.0611694
DIC:,-16398.212090,,,,,,,
deviance:,-16555.959806,,,,,,,
pD:,157.747716,,,,,,,
