                     mean          std         2.5q          25q          50q          75q        97.5q       mc err
a(1)              4.21339     0.329027      3.61013      3.99282       4.2004      4.42556      4.88267     0.012782
a(3)              4.04468     0.317745      3.44752      3.83996      4.03216      4.24624      4.68726    0.0126662
a_std             1.77094     0.205538       1.4389      1.63234      1.74736      1.89052      2.22796    0.0096785
a_subj(1).0        3.9318      0.25362      3.41487      3.76448      3.94007      4.09555      4.43847    0.0177568
a_subj(1).1       5.29426     0.460516      4.43736      4.98147       5.2811      5.60427      6.22797    0.0354803
a_subj(1).2       5.73001      1.54322      2.77568      4.52168       6.0539      7.05471      7.85588     0.152564
a_subj(1).3       4.09737      0.25083      3.60181      3.92524      4.09429       4.2611      4.59704    0.0196616
a_subj(1).4        4.6915     0.331476      3.96934      4.48536      4.71157      4.92408       5.2636    0.0274479
a_subj(1).5       1.03884    0.0707156     0.900789     0.989121      1.03722      1.08383       1.1899   0.00345512
a_subj(1).6       3.61148     0.223404      3.21229      3.45238      3.59702      3.75737      4.08116    0.0155113
a_subj(1).7       6.44251     0.467768      5.37364      6.18563      6.43446      6.73392      7.29804    0.0428913
a_subj(1).8       7.42206     0.689366      5.90676      6.98065      7.46909       7.9322      8.61685    0.0647966
a_subj(1).9       4.08322     0.303516      3.51469      3.86137       4.0892      4.30095      4.64551    0.0236717
a_subj(1).10      5.71992     0.923594        3.207      5.57695      5.98908      6.33851      6.71815    0.0908041
a_subj(1).11      4.18859     0.363218       3.5557      3.95135      4.14468      4.40311      4.99425    0.0290857
a_subj(1).12      6.73713      1.16809       3.7149      6.09194      7.09048       7.5279      8.26464     0.115232
a_subj(1).13      6.39797     0.646523      5.34021       5.9083       6.3545      6.84091      7.78483    0.0598739
a_subj(1).14       3.6337     0.378064      2.91429       3.3523      3.65782       3.8884      4.40435    0.0330305
a_subj(1).15        4.084     0.258219      3.61928      3.89937      4.07099      4.25465      4.63889    0.0211935
a_subj(1).16      2.46534     0.250358      1.84754      2.32491      2.50647      2.63633      2.85978    0.0199234
a_subj(1).17      5.01695     0.315815      4.36624      4.81482      5.02894      5.21893      5.65341    0.0261051
a_subj(1).18      5.33845      1.61366      2.71568      3.68067      5.82496      6.83507       7.4737     0.159883
a_subj(1).19      3.31312       0.2359      2.82932      3.15281      3.31973      3.48092      3.76073    0.0161584
a_subj(1).20      6.23235     0.425349      5.43887      5.93974      6.20106      6.53579      7.08171     0.035381
a_subj(1).21      2.70858      0.14848      2.42184      2.60916      2.71052      2.81189      2.98713    0.0095309
a_subj(1).22      5.70379     0.448195      4.81037      5.38517      5.69783      6.02323      6.54727    0.0379684
a_subj(1).23      3.71025     0.291022       3.1583      3.51133      3.70348      3.90692      4.29576    0.0221788
a_subj(1).24      5.63045     0.948968      2.99512      5.13075      5.98464       6.3016      6.70431    0.0933386
a_subj(1).25      1.16872    0.0769139        1.031      1.11318      1.16199       1.2203      1.33059   0.00419864
a_subj(1).26      5.42938      1.07142      2.94784      4.92662       5.6867      6.19811      6.97077     0.102311
a_subj(1).27      2.54866     0.149114      2.26024      2.44558      2.54783      2.65581      2.83155   0.00974931
a_subj(3).0       1.39251    0.0786811      1.24881      1.33868       1.3886      1.44611      1.55684    0.0040582
a_subj(3).1       6.30289     0.278572      5.79315      6.10101      6.29484      6.48034       6.8726    0.0224762
a_subj(3).2       5.63619     0.306817      5.00256      5.43858      5.63281      5.82721      6.27013     0.026683
a_subj(3).3       4.08773     0.205123      3.68009       3.9461      4.10685      4.22722      4.47506    0.0147062
a_subj(3).4       2.80561     0.122868      2.56758      2.71638      2.80703      2.88976      3.04174   0.00734823
a_subj(3).5       4.45197     0.318145      3.88409      4.22795       4.4445      4.66348       5.0754    0.0254517
a_subj(3).6       4.04959     0.225194      3.59749      3.89907      4.04322       4.2103      4.50629    0.0155692
a_subj(3).7       4.57731      1.58625      2.21197      2.93629      4.44997      6.10214      6.62991     0.157815
a_subj(3).8       8.33772     0.552686      7.05997      8.01892      8.35355      8.67534      9.39925    0.0505636
a_subj(3).9       3.67608      0.24347      3.20877      3.50289      3.67346      3.84675      4.14438    0.0166195
a_subj(3).10      6.36665     0.417009      5.42406      6.11935      6.38596      6.64669      7.13948    0.0380286
a_subj(3).11      2.76819     0.158191      2.47541      2.65419      2.76369      2.87229        3.087    0.0105202
a_subj(3).12      2.90675     0.154463      2.61631      2.80741       2.9014       3.0043      3.20687    0.0101487
a_subj(3).13      4.86605      1.17831      3.18718      4.02481      4.57092      5.52786      7.35653     0.116837
a_subj(3).14      3.85627     0.235639      3.42965      3.70256      3.82915      3.99295       4.3625    0.0190541
a_subj(3).15      3.83712     0.214296      3.42401      3.68669      3.84056      3.98354      4.25769    0.0160393
a_subj(3).16      2.95046      0.14126      2.66517      2.85918       2.9522      3.04901      3.23286     0.010037
a_subj(3).17      4.66381     0.222159      4.21723      4.51666       4.6684      4.81828      5.06911    0.0172451
a_subj(3).18      1.61708    0.0812076      1.46447      1.55753      1.61759      1.67172      1.77882   0.00429651
a_subj(3).19      4.23632     0.283852      3.65765      4.05523      4.24334      4.41719      4.78361    0.0229046
a_subj(3).20      3.03848     0.168912      2.72627      2.91831      3.03097      3.14081      3.40989    0.0115224
a_subj(3).21      4.59362     0.210503      4.17874      4.44121      4.60604      4.73508      5.00666    0.0157144
a_subj(3).22       4.4676     0.239919      3.97554      4.30957      4.48078      4.63159      4.92127    0.0195851
a_subj(3).23      4.72546     0.272671      4.18004      4.53948      4.73732      4.90711      5.25086    0.0215237
a_subj(3).24      6.74837     0.770476      5.44545      6.15699      6.65196      7.45467      8.15593    0.0749382
a_subj(3).25       3.6613     0.181586      3.28709       3.5345      3.66607      3.79401      3.99818    0.0140165
a_subj(3).26      2.81646     0.155222       2.4881      2.71266      2.81912       2.9228       3.1122     0.010383
a_subj(3).27      2.08897     0.104218      1.89991      2.02006      2.08847      2.15122      2.30377   0.00619914
v(1)              6.74307     0.380939      5.97103      6.49724      6.74314      6.98403      7.52072    0.0137782
v(3)              6.73845     0.389041      5.95432      6.47836      6.73191       6.9798       7.5241     0.013573
v_std             1.94018     0.204042      1.57035      1.79727      1.92942      2.06678      2.37901   0.00997204
v_subj(1).0       6.04097     0.406644      5.23119      5.76333      6.05083      6.31657      6.87909    0.0284522
v_subj(1).1       7.00207     0.606409      5.83021      6.59872      6.98863       7.4108      8.21166    0.0466797
v_subj(1).2       9.07356      1.05451      6.90584      8.36538      9.17591      9.85469      10.8801    0.0999852
v_subj(1).3       6.47392     0.408425      5.65395      6.19779      6.46729      6.74593      7.29355    0.0320357
v_subj(1).4       6.98065     0.457347      6.04079      6.68064       7.0114      7.29268      7.79869    0.0362702
v_subj(1).5       2.23597     0.256315      1.74941      2.06139      2.23332      2.41573      2.73986   0.00865424
v_subj(1).6       5.45001     0.356449      4.79102      5.19275      5.43577      5.69564      6.19519    0.0246426
v_subj(1).7       9.20302      0.58261      8.12483      8.82376      9.12622      9.56799      10.3895     0.051425
v_subj(1).8         9.338     0.711274       8.1119      8.77538      9.30534      9.88461      10.7224    0.0645496
v_subj(1).9       6.26404     0.468016       5.3713      5.92815      6.27621      6.59266      7.13207    0.0365316
v_subj(1).10      8.85129     0.747798      7.07858      8.43562      8.91949      9.42157      9.99677    0.0700685
v_subj(1).11      6.27615     0.534981      5.30584      5.91186      6.22738      6.60227      7.47533    0.0427307
v_subj(1).12      9.55521      0.88243      7.50407      9.05609      9.63302      10.1129       11.084    0.0836241
v_subj(1).13      8.12079     0.790297      6.82419       7.5224       8.0444      8.65762      9.85377    0.0730171
v_subj(1).14      5.81348     0.583231      4.67883      5.39714      5.85503      6.20625      6.99992    0.0508079
v_subj(1).15      6.50393     0.410874      5.77654       6.2033      6.47539      6.79414      7.36187    0.0334935
v_subj(1).16      4.24221      0.46224      3.01736      4.01645      4.29107      4.55386       4.9589     0.036918
v_subj(1).17      7.58783     0.437001      6.69767      7.30456      7.58934      7.89017      8.45328    0.0345233
v_subj(1).18      8.67407      1.07147       6.7444      7.74584      8.87577      9.53702      10.4597     0.101504
v_subj(1).19      5.49777      0.40227      4.68867       5.2172      5.50569      5.76988      6.27425    0.0275902
v_subj(1).20      8.47299     0.583016      7.36341      8.06415       8.4499      8.87627      9.61706    0.0484648
v_subj(1).21      5.44935     0.326254      4.78406      5.23279      5.44526      5.66885      6.08807    0.0202202
v_subj(1).22      7.75749     0.591646      6.66807      7.33298      7.73163      8.18444      8.89256    0.0498137
v_subj(1).23       5.6418     0.446115      4.77713      5.33117      5.63689      5.93514      6.55117    0.0335499
v_subj(1).24      8.72348      0.66061      7.04634      8.35619      8.80792      9.20141      9.72075    0.0607809
v_subj(1).25      2.91773     0.259873      2.43226      2.74244      2.90603      3.08908      3.46804    0.0110563
v_subj(1).26      7.83535     0.875275      6.19652      7.25274      7.83324      8.44507      9.53074    0.0749497
v_subj(1).27      5.03252     0.320931      4.39964      4.81149      5.04021      5.25177      5.62421    0.0207273
v_subj(3).0       3.84189     0.294526      3.32086      3.63892      3.83119      4.03131      4.45875    0.0146335
v_subj(3).1       8.66448     0.388857      7.98441      8.37981      8.66208      8.92359      9.44997    0.0310817
v_subj(3).2       9.65498     0.499296      8.66116      9.32572      9.62861      9.98137      10.7296    0.0423488
v_subj(3).3       6.56113     0.348527      5.86215      6.33498      6.58999      6.79506      7.22205    0.0252867
v_subj(3).4       5.90626     0.288594      5.34932       5.7065      5.91347      6.10179      6.47749    0.0171963
v_subj(3).5       6.54355     0.464085      5.68555       6.1987       6.5398      6.85246      7.47321    0.0370979
v_subj(3).6        6.1788     0.366949      5.46601      5.92593      6.18308      6.44269      6.87963    0.0251573
v_subj(3).7       8.44316      1.04253      6.61009       7.5403      8.55047      9.32229      10.0683     0.100969
v_subj(3).8       10.3958     0.595379      9.29138      10.0009      10.3615      10.7668      11.6576    0.0522104
v_subj(3).9       5.65939      0.39229      4.92363      5.39101      5.66843      5.93173      6.42252    0.0264979
v_subj(3).10       9.1092     0.527386      8.12767      8.74839       9.1042      9.48389        10.15    0.0462885
v_subj(3).11      4.70399     0.286619      4.17219      4.50918      4.69703      4.90576      5.26127    0.0192231
v_subj(3).12      5.04082     0.288503      4.48355      4.86064      5.03209      5.22463      5.60812    0.0193288
v_subj(3).13      9.21055     0.840715      7.78594      8.64678      9.07808      9.65125      11.0416    0.0802149
v_subj(3).14      6.96412     0.431136      6.13427      6.68156      6.93629      7.22214      7.88465    0.0342801
v_subj(3).15       6.2926     0.360039       5.6151      6.04249      6.29528      6.53273      7.02692    0.0269473
v_subj(3).16      6.69248     0.338603      6.03441      6.46673      6.69163      6.92321      7.36202    0.0235149
v_subj(3).17        7.497     0.374225      6.74473      7.24003      7.50745      7.76784      8.17688    0.0289231
v_subj(3).18       3.9821     0.251375      3.50074      3.81478      3.97868      4.15073       4.4815    0.0129579
v_subj(3).19      6.44599     0.425235      5.61952      6.16863       6.4457      6.72102      7.30273    0.0333693
v_subj(3).20      4.97174     0.301002       4.4135      4.76424      4.95865      5.14326      5.64611    0.0204035
v_subj(3).21      7.33775     0.353791      6.66141      7.09229      7.34976       7.5761      8.01488    0.0263495
v_subj(3).22      6.94448      0.37607      6.16536      6.70965       6.9552      7.20202       7.6695    0.0302105
v_subj(3).23      6.81101     0.406344      6.00054      6.54858      6.82873      7.07132      7.58363    0.0321085
v_subj(3).24      9.75109     0.510532      8.82505      9.37529      9.70823       10.118      10.7856    0.0451527
v_subj(3).25      7.29484     0.358058      6.61314      7.05242      7.28642      7.54538      7.99075    0.0264134
v_subj(3).26      4.94784     0.293306      4.34668       4.7609      4.96207      5.13942      5.48604    0.0196139
v_subj(3).27      5.28995      0.29999      4.70971      5.09448      5.27695      5.48014      5.90017    0.0176323
t(1)             0.281926    0.0995882     0.119238     0.214101     0.270445     0.341629     0.515093   0.00898066
t(3)             0.204572    0.0739617    0.0844456     0.150468     0.197613     0.254388     0.362357   0.00672576
t_std             1.09268     0.387323     0.458319     0.826721       1.0566      1.34913      1.94937    0.0355781
t_subj(1).0   0.000835828   0.00283925  1.97053e-20  1.30066e-12  5.14293e-09  3.34356e-05   0.00940322   0.00020918
t_subj(1).1    0.00221782   0.00631874  3.17635e-18  4.41778e-09  2.04013e-05   0.00110422    0.0230276  0.000422407
t_subj(1).2     0.0530988     0.057082  1.63299e-10  0.000205745    0.0311653    0.0996565     0.168966   0.00564716
t_subj(1).3    0.00106122   0.00306459  8.45161e-14  1.18159e-07   1.1853e-05  0.000402031   0.00991621  0.000212782
t_subj(1).4    0.00369929   0.00705489  4.00925e-09  2.31336e-05  0.000457047   0.00389962    0.0265562  0.000524506
t_subj(1).5      0.158897    0.0109333     0.139907     0.150752      0.15952     0.165107     0.185516  0.000568723
t_subj(1).6    0.00070678   0.00233216  3.46551e-16  1.81584e-09   1.5366e-06  0.000188437   0.00641805  0.000144669
t_subj(1).7    0.00306758   0.00887473  2.13849e-24  1.72513e-17  8.52773e-11  1.02757e-05    0.0339051  0.000822703
t_subj(1).8    0.00646156    0.0156358  8.74281e-17  4.66648e-11  1.58954e-06    0.0013875     0.064768   0.00141696
t_subj(1).9   0.000594348   0.00225485  2.20412e-16  6.69223e-11  5.75602e-07  0.000124149   0.00653219  0.000129469
t_subj(1).10    0.0170082    0.0333413  3.67556e-14  8.99236e-10  6.47965e-06    0.0097899      0.11633   0.00329887
t_subj(1).11  0.000682641   0.00298056  4.45124e-31  1.04551e-18   2.5157e-10  2.02853e-05   0.00666176  0.000179926
t_subj(1).12     0.023535    0.0386969   1.6595e-21  3.81225e-12  9.88405e-05    0.0428927     0.131589   0.00381465
t_subj(1).13   0.00129674   0.00502756   1.5903e-18  1.28275e-11  4.80514e-07  0.000154149    0.0150051  0.000334213
t_subj(1).14  0.000536894   0.00181909  1.01869e-14  5.25982e-09  4.04138e-07  7.71299e-05   0.00622161   0.00011773
t_subj(1).15  0.000705914   0.00207723  8.58582e-16  2.75944e-10  1.46148e-06  0.000253729    0.0064562  0.000145259
t_subj(1).16   0.00060078    0.0016302  5.98839e-11  4.24494e-07  1.72862e-05  0.000331832   0.00541545  0.000102246
t_subj(1).17    0.0050397   0.00918834  5.65289e-13  7.53872e-07  0.000135204   0.00517552    0.0322532  0.000739648
t_subj(1).18    0.0586607    0.0610132  4.54584e-15  1.34615e-06    0.0481149     0.119574     0.163521   0.00605117
t_subj(1).19  0.000607549   0.00216582  2.59516e-13  2.36931e-08  2.47957e-06  0.000124732   0.00706912  0.000126216
t_subj(1).20   0.00159918   0.00487976  1.31128e-15  3.79279e-10  3.81241e-07  0.000201081    0.0191636  0.000374083
t_subj(1).21  0.000458221   0.00151735  8.78489e-13  2.15484e-08  3.00231e-06   9.2078e-05   0.00479166  0.000116062
t_subj(1).22  0.000610132   0.00338535  4.83845e-28  1.00139e-21  1.64363e-12  7.59788e-07   0.00815041  0.000243179
t_subj(1).23  0.000674025   0.00302684   8.9065e-20  1.25832e-11  7.37371e-08  4.92842e-05   0.00825831  0.000222029
t_subj(1).24     0.024355    0.0379846  3.83733e-12  6.30348e-06  0.000588463    0.0445708     0.131038   0.00375215
t_subj(1).25     0.158911   0.00517845     0.147839     0.155867     0.159136     0.162261     0.167409  0.000247099
t_subj(1).26      0.02437    0.0448594  4.19716e-19  3.62018e-13  1.11747e-05    0.0193871     0.140666   0.00438145
t_subj(1).27   0.00034244   0.00117151  1.55586e-20  3.64828e-11  3.79361e-07  5.22693e-05   0.00377939  7.71164e-05
t_subj(3).0   0.000437263   0.00132954  1.57028e-18  2.69957e-10   9.8059e-08  2.04169e-05   0.00484768  0.000100458
t_subj(3).1   0.000240514   0.00147043  4.05707e-34  3.23031e-23  6.90723e-16  2.94998e-09   0.00297625  0.000123233
t_subj(3).2    0.00188604    0.0049078  2.47662e-16   5.0969e-10  1.27392e-06  0.000556012    0.0186865  0.000414348
t_subj(3).3   0.000319353   0.00163643  2.02234e-42  3.60441e-33  1.43838e-23  1.01547e-10   0.00461494   0.00012527
t_subj(3).4   2.61966e-11  6.45556e-10  1.27004e-32  7.09495e-22  4.89519e-18  2.31064e-15  2.73169e-11   2.3744e-11
t_subj(3).5   0.000595779    0.0026529   2.9584e-27  6.75127e-21  2.65216e-13   5.5222e-07    0.0081187  0.000170299
t_subj(3).6   4.42203e-16  4.52128e-15  1.81289e-46  7.76576e-41  2.39295e-35  1.79199e-30  2.22076e-15  2.11436e-16
t_subj(3).7     0.0656531    0.0656382   4.2418e-28  2.37121e-17    0.0624074     0.134827     0.167959   0.00653957
t_subj(3).8    0.00325164    0.0104458  5.15569e-21  1.17323e-12  1.71137e-08   0.00011075    0.0424301  0.000991731
t_subj(3).9   8.06896e-16  7.09151e-15  5.26757e-32  4.12074e-26  1.32845e-22  6.16952e-20  4.83639e-15  4.37908e-16
t_subj(3).10    0.0031584   0.00766098  9.37133e-14  1.65155e-09  4.84362e-06   0.00130817    0.0279836  0.000655799
t_subj(3).11   0.00030365   0.00091743  8.74195e-14   4.2329e-10   8.4555e-07  0.000102949   0.00309729  5.78957e-05
t_subj(3).12  4.60151e-05  0.000424611   7.8199e-36  5.89508e-27  1.41155e-22  4.77351e-15  0.000343913  2.37824e-05
t_subj(3).13     0.074251     0.040999  1.71113e-05     0.051339    0.0834384     0.105608     0.134919   0.00404559
t_subj(3).14  0.000573651   0.00177272   1.3728e-12  2.00995e-08   6.4471e-06  0.000199458   0.00541429  0.000115733
t_subj(3).15  0.000339886   0.00178088  3.73345e-26  3.02607e-19  4.74732e-12  2.06177e-07   0.00410868  0.000107395
t_subj(3).16  0.000858599   0.00231162  2.11307e-13  7.57153e-08  8.77477e-06  0.000352054   0.00792755   0.00016877
t_subj(3).17  2.03832e-09  2.24201e-08  7.91593e-41  3.71851e-30  1.98367e-22  7.50586e-18  8.86086e-09  1.20913e-09
t_subj(3).18  0.000210278  0.000806642  3.54225e-15  3.00512e-11  2.14418e-07  3.43772e-05   0.00247815  4.82943e-05
t_subj(3).19   0.00140331   0.00408555  1.31979e-15   3.9436e-10  8.54079e-07  0.000383049    0.0154931  0.000323943
t_subj(3).20  9.82879e-17  8.30108e-16  8.55591e-42  2.98799e-31  1.36528e-27  2.81102e-24  6.33522e-16  5.25454e-17
t_subj(3).21  2.37158e-09  5.30932e-08  6.19327e-35  7.25321e-26  7.32196e-21  3.06725e-16  5.58159e-10  2.24956e-09
t_subj(3).22  0.000554435     0.003126    7.179e-29  2.99856e-14  1.09958e-09  5.96497e-06   0.00412891  0.000254502
t_subj(3).23   0.00083587   0.00248784  2.24309e-14  8.38393e-10  8.17982e-07  0.000231625   0.00858969  0.000169906
t_subj(3).24    0.0340991    0.0266264  5.07918e-11  0.000237315    0.0375046    0.0550308    0.0830784   0.00257592
t_subj(3).25   0.00106073   0.00300777  4.23834e-18  1.22268e-10  2.32315e-07  0.000214121    0.0122341  0.000237366
t_subj(3).26  3.19038e-05  0.000368153  2.40039e-18  1.92758e-15   1.4983e-13  4.51055e-10  2.47488e-05   2.1741e-05
t_subj(3).27  0.000357208  0.000990233  2.79769e-19  1.74636e-10  3.29271e-07  8.37623e-05   0.00384261  6.68628e-05
DIC: -17867.381182
deviance: -17972.047609
pD: 104.666427